<?xml version="1.0" standalone="no"?> <!DOCTYPE svg PUBLIC "-//W3C//DTD SVG 1.0//EN" "http://www.w3.org/TR/2001/REC-SVG-20010904/DTD/svg10.dtd" > 
<svg xmlns="http://www.w3.org/2000/svg" width="100%" height="100%">
<metadata version="1.0"><uniqueid id="com.myfonts.indian-type-foundry.demo.bold-italic.wfkit2.jwqx"/><vendor name="MyFonts" url="https://www.myfonts.com/"/><credits><credit name="Aarya Purohit" url="https://www.myfonts.com/person/purohit/aarya/"/></credits><description><text lang="en">This is a Webfont from MyFonts. Full information about this font:
https://www.myfonts.com/fonts/indian-type-foundry/demo/
</text></description><license url="https://www.myfonts.com/viewlicense?lid=Array"/><copyright><text lang="en">Copyright 2016 Indian Type Foundry</text></copyright><trademark><text lang="en">Demo is a trademark of Indian Type Foundry</text></trademark></metadata>
<defs >
<font id="wf" horiz-adv-x="561" ><font-face
    font-family="Demo"
    units-per-em="1000"
    panose-1="0 0 0 0 0 0 0 0 0 0"
    ascent="808"
    descent="-192"
    alphabetic="0" />
<missing-glyph horiz-adv-x="714" d="M449 160L516 540H292L225 160H449ZM7 0L130 700H734L611 0H7Z" />
<glyph unicode=" " glyph-name="space" horiz-adv-x="210" />
<glyph unicode="!" glyph-name="exclam" horiz-adv-x="320" d="M235 250H76L99 467L140 700H330L289 467L235 250ZM197 0H27L56 167H226L197 0Z" />
<glyph unicode="&quot;" glyph-name="quotedbl" horiz-adv-x="519" d="M514 700L474 470H325L365 700H514ZM304 700L264 470H115L155 700H304Z" />
<glyph unicode="#" glyph-name="numbersign" horiz-adv-x="717" d="M322 403L303 297H422L441 403H322ZM251 0H97L126 162H9L32 297H149L168 403H51L75 538H192L220 700H374L346 538H465L493 700H647L619 538H736L712 403H595L576 297H693L670 162H553L524 0H370L399
162H280L251 0Z" />
<glyph unicode="$" glyph-name="dollar" horiz-adv-x="571" d="M311 -100H156L174 0H-7L21 160H293Q333 160 339 192L341 203Q344 221 339 230T316 245L188 291Q44 343 71 503L74 521Q88 603 144 649T298 700L315 800H470L453 700H602L574 540H302Q269 540 262
508L260 498Q254 468 288 455L413 408Q486 380 514 332T532 210L528 184Q516 107 465 60T329 3L311 -100Z" />
<glyph unicode="%" glyph-name="percent" horiz-adv-x="893" d="M242 368H208Q126 368 89 406T62 512L71 566Q84 643 127 676T248 710H282Q364 710 401 672T428 566L419 512Q406 435 363 402T242 368ZM242 0H96L679 700H825L242 0ZM225 474H243Q270 474 281 484T296
519L303 559Q310 604 266 604H248Q222 604 211 594T195 559L188 519Q180 474 225 474ZM673 -10H639Q557 -10 520 28T493 134L502 188Q515 265 558 298T679 332H713Q795 332 832 294T859 188L850 134Q837 57 794 24T673 -10ZM656 96H674Q700 96 711 106T727 141L734
181Q742 226 697 226H679Q652 226 641 216T626 181L619 141Q612 96 656 96Z" />
<glyph unicode="&amp;" glyph-name="ampersand" horiz-adv-x="740" d="M231 141H264Q326 141 356 158L265 279L243 269Q207 253 196 243T180 213L176 190Q172 167 185 154T231 141ZM476 0L443 43Q369 -10 253 -10H189Q94 -10 45 45T10 187L14 212Q25 278 51 310T140
369L189 390Q165 440 173 486L180 526Q210 700 414 700H580L553 549H414Q357 549 351 510L349 496Q346 476 353 461T388 407L468 299L532 397H709L578 197Q564 176 561 172L689 0H476Z" />
<glyph unicode="&apos;" glyph-name="quotesingle" horiz-adv-x="269" d="M284 700L244 470H95L135 700H284Z" />
<glyph unicode="(" glyph-name="parenleft" horiz-adv-x="383" d="M236 336Q219 217 238 122T313 -96L179 -178Q21 86 57 336L59 350Q102 650 356 874L469 787Q366 669 312 574T238 350L236 336Z" />
<glyph unicode=")" glyph-name="parenright" horiz-adv-x="383" d="M174 358Q191 477 172 572T97 790L231 872Q389 608 353 358L351 344Q308 44 54 -180L-59 -93Q44 25 98 120T172 344L174 358Z" />
<glyph unicode="*" glyph-name="asterisk" horiz-adv-x="352" d="M308 700L300 654Q297 634 271 596Q308 629 331 634L376 645L386 534L341 523Q328 520 294 524Q318 509 324 496L347 447L241 388L224 429Q218 443 216 477Q200 439 192 429L158 386L72 453L106
496Q115 507 146 524Q112 520 99 523L58 534L108 645L149 634Q169 628 193 598Q182 639 185 654L193 700H308Z" />
<glyph unicode="+" glyph-name="plus" horiz-adv-x="490" d="M450 270H310L285 130H155L180 270H40L63 400H203L227 540H357L333 400H473L450 270Z" />
<glyph unicode="," glyph-name="comma" horiz-adv-x="290" d="M41 167H211L194 70L89 -113H-8L41 167Z" />
<glyph unicode="-" glyph-name="hyphen" horiz-adv-x="426" d="M402 390L380 265H44L66 390H402Z" />
<glyph unicode="." glyph-name="period" horiz-adv-x="290" d="M182 0H12L41 167H211L182 0Z" />
<glyph unicode="/" glyph-name="slash" horiz-adv-x="456" d="M125 -43H-36L358 745H519L125 -43Z" />
<glyph unicode="0" glyph-name="zero" horiz-adv-x="614" d="M297 -10H257Q134 -10 73 48T31 219L77 481Q99 603 162 656T344 710H384Q507 710 569 652T611 481L565 219Q543 97 480 44T297 -10ZM216 210Q204 148 272 148H299Q365 148 377 210L426 490Q438 552
370 552H343Q277 552 265 490L216 210Z" />
<glyph unicode="1" glyph-name="one" horiz-adv-x="378" d="M90 700H398L275 0H87L182 540H62L90 700Z" />
<glyph unicode="2" glyph-name="two" horiz-adv-x="545" d="M458 0H-17L5 126Q19 204 41 242T111 308L292 409Q331 431 345 447T364 488L365 493Q375 540 321 540H87L115 700H349Q465 700 517 653T559 524L554 486Q544 414 512 372T399 287L240 202Q213 188 208
160H486L458 0Z" />
<glyph unicode="3" glyph-name="three" horiz-adv-x="543" d="M90 700H560L528 514L313 396L311 384H348Q436 384 476 339T503 214L498 183Q483 90 419 45T237 0H-28L0 160H242Q306 160 312 202L314 214Q318 236 307 247T269 258H114L148 448L302 526L304 540H62L90 700Z" />
<glyph unicode="4" glyph-name="four" horiz-adv-x="627" d="M357 700H596L523 282H613L586 132H496L473 0H304L327 132H-8L17 271L357 700ZM209 294L206 280H353L395 518H381L209 294Z" />
<glyph unicode="5" glyph-name="five" horiz-adv-x="549" d="M-2 0L26 160H245Q282 160 298 170T319 201L325 233Q329 255 318 267T276 280H52L126 700H575L547 540H272L254 438H334Q433 438 479 391T514 258L504 189Q477 0 245 0H-2Z" />
<glyph unicode="6" glyph-name="six" horiz-adv-x="591" d="M275 -10H246Q125 -10 68 48T30 219L75 478Q114 700 348 700H585L557 540H348Q305 540 286 526T260 478L249 417L271 425Q362 458 414 458H417Q497 458 537 412T566 280L557 216Q540 96 474 43T275 -10ZM274
147H293Q335 147 352 161T376 210L384 256Q388 278 375 289T335 301H330Q309 301 269 291L220 278L208 209Q202 177 218 162T274 147Z" />
<glyph unicode="7" glyph-name="seven" horiz-adv-x="528" d="M583 700L559 561L245 0H44L352 526L354 540H59L87 700H583Z" />
<glyph unicode="8" glyph-name="eight" horiz-adv-x="593" d="M290 -10H243Q121 -10 61 42T14 190L17 210Q24 258 55 289T139 343Q65 398 83 508L86 526Q117 710 333 710H382Q500 710 554 654T594 506L591 488Q583 441 555 411T480 358Q567 305 549 190L546 170Q519
-10 290 -10ZM296 440L364 411Q409 438 415 476L419 500Q423 523 412 538T371 554H320Q264 554 257 516L254 497Q248 460 296 440ZM249 146H301Q364 146 370 180L373 200Q377 224 366 237T325 262L254 290Q204 264 200 234L196 207Q187 146 249 146Z" />
<glyph unicode="9" glyph-name="nine" horiz-adv-x="591" d="M270 0H33L61 160H270Q313 160 332 174T358 222L369 283L347 275Q256 242 204 242H201Q121 242 81 288T52 420L61 484Q78 604 144 657T343 710H372Q493 710 550 652T588 481L543 222Q504 0 270 0ZM283
399H288Q309 399 349 409L398 422L410 491Q416 523 400 538T344 553H325Q283 553 266 539T242 490L234 444Q230 422 243 411T283 399Z" />
<glyph unicode=":" glyph-name="colon" horiz-adv-x="290" d="M107 540H277L248 373H78L107 540ZM182 0H12L41 167H211L182 0Z" />
<glyph unicode=";" glyph-name="semicolon" horiz-adv-x="290" d="M248 373H78L107 540H277L248 373ZM41 167H211L194 70L89 -113H-8L41 167Z" />
<glyph unicode="&lt;" glyph-name="less" horiz-adv-x="490" d="M22 200L60 412L486 506L459 350L179 309L177 295L442 254L416 106L22 200Z" />
<glyph unicode="=" glyph-name="equal" horiz-adv-x="490" d="M469 378H59L82 508H492L469 378ZM431 162H21L43 292H453L431 162Z" />
<glyph unicode="&gt;" glyph-name="greater" horiz-adv-x="490" d="M442 200L16 106L43 262L323 303L325 317L60 358L86 506L480 412L442 200Z" />
<glyph unicode="?" glyph-name="question" horiz-adv-x="513" d="M292 235H132L142 292Q150 337 169 361T241 414L303 448Q325 460 333 469T343 493L345 506Q347 523 339 531T310 540H82L110 700H348Q448 700 494 656T532 536L528 498Q522 447 497 418T409 353L342
315Q318 301 310 290T297 259L292 235ZM285 167L256 0H86L115 167H285Z" />
<glyph unicode="@" glyph-name="at" horiz-adv-x="988" d="M549 -188H369Q168 -188 77 -87T17 190L38 311Q107 710 527 710H620Q838 710 923 621T976 351L958 251Q934 116 872 53T696 -10Q594 -10 563 45L504 21Q431 -10 375 -10H372Q291 -10 251 43T227 196L248
319Q267 429 326 479T498 530H785L713 120Q706 75 749 75Q788 75 816 110T863 251L881 351Q909 506 851 565T615 625H522Q349 625 255 550T133 311L112 190Q87 44 153 -29T384 -103H564L549 -188ZM444 159H447Q470 159 503 170L547 185L579 372H498Q464 372 450
360T431 319L410 201Q402 159 444 159Z" />
<glyph unicode="A" glyph-name="A" horiz-adv-x="712" d="M398 520L295 292H434L412 520H398ZM463 0L450 137H225L163 0H-40L301 700H561L656 0H463Z" />
<glyph unicode="B" glyph-name="B" horiz-adv-x="641" d="M335 0H7L130 700H433Q550 700 600 653T640 524L637 499Q630 445 603 415T523 370L521 359Q615 338 601 224L596 183Q584 87 521 44T335 0ZM291 550L268 419H378Q411 419 426 432T445 471L449 498Q457
550 397 550H291ZM244 286L220 150H345Q405 150 413 202L418 234Q422 259 410 272T365 286H244Z" />
<glyph unicode="C" glyph-name="C" horiz-adv-x="550" d="M590 700L562 540H343Q306 540 289 526T265 478L221 229Q208 160 276 160H495L467 0H258Q140 0 76 61T31 229L74 471Q97 598 159 649T341 700H590Z" />
<glyph unicode="D" glyph-name="D" horiz-adv-x="658" d="M344 0H7L130 700H447Q563 700 618 640T654 471L611 229Q590 108 526 54T344 0ZM342 160Q379 160 396 174T420 222L465 478Q476 540 409 540H292L225 160H342Z" />
<glyph unicode="E" glyph-name="E" horiz-adv-x="588" d="M502 0H7L130 700H625L597 540H289L269 428H555L528 272H242L222 160H530L502 0Z" />
<glyph unicode="F" glyph-name="F" horiz-adv-x="570" d="M197 0H7L130 700H620L592 540H292L268 403H546L519 247H241L197 0Z" />
<glyph unicode="G" glyph-name="G" horiz-adv-x="630" d="M617 540H343Q306 540 289 526T265 478L220 222Q208 160 276 160H395L432 368H607L542 0H258Q137 0 75 61T31 229L75 478Q114 700 341 700H645L617 540Z" />
<glyph unicode="H" glyph-name="H" horiz-adv-x="714" d="M421 0L469 270H245L197 0H7L130 700H320L273 430H497L544 700H734L611 0H421Z" />
<glyph unicode="I" glyph-name="I" horiz-adv-x="300" d="M197 0H7L130 700H320L197 0Z" />
<glyph unicode="J" glyph-name="J" horiz-adv-x="295" d="M-19 -179L-92 -35L-29 -1Q-6 12 4 27T20 71L130 700H320L210 74Q193 -20 163 -60T50 -143L-19 -179Z" />
<glyph unicode="K" glyph-name="K" horiz-adv-x="687" d="M240 270L192 0H7L130 700H315L268 430H355L541 700H743L501 345L632 0H432L334 270H240Z" />
<glyph unicode="L" glyph-name="L" horiz-adv-x="545" d="M472 0H7L130 700H320L225 160H500L472 0Z" />
<glyph unicode="M" glyph-name="M" horiz-adv-x="869" d="M766 0H587L632 253L675 454H664L510 155H317L269 454H258L231 253L186 0H7L130 700H357L429 311H442L650 700H889L766 0Z" />
<glyph unicode="N" glyph-name="N" horiz-adv-x="712" d="M309 700L471 311H485L553 700H732L609 0H430L269 389H255L186 0H7L130 700H309Z" />
<glyph unicode="O" glyph-name="O" horiz-adv-x="654" d="M333 -10H271Q130 -10 71 53T31 229L74 471Q97 602 161 656T358 710H420Q556 710 613 647T650 471L607 229Q584 98 522 44T333 -10ZM220 222Q213 183 229 167T286 150H328Q372 150 390 165T416 222L461
478Q468 517 452 533T395 550H353Q309 550 291 535T265 478L220 222Z" />
<glyph unicode="P" glyph-name="P" horiz-adv-x="632" d="M197 0H7L130 700H423Q542 700 597 644T638 488L625 404Q593 192 360 192H231L197 0ZM292 540L259 352H369Q426 352 435 404L450 488Q455 514 442 527T392 540H292Z" />
<glyph unicode="Q" glyph-name="Q" horiz-adv-x="654" d="M496 -140H296L234 -9Q113 0 63 62T31 229L74 471Q97 602 161 656T358 710H420Q556 710 613 647T650 471L607 229Q589 125 548 71T430 0L496 -140ZM220 222Q213 183 229 167T286 150H328Q372 150 390 165T416
222L461 478Q468 517 452 533T395 550H353Q309 550 291 535T265 478L220 222Z" />
<glyph unicode="R" glyph-name="R" horiz-adv-x="662" d="M292 540L263 377H391Q449 377 458 429L468 488Q477 540 420 540H292ZM197 0H7L130 700H441Q563 700 616 647T656 488L648 429Q638 351 599 306T487 244L599 0H394L306 217H235L197 0Z" />
<glyph unicode="S" glyph-name="S" horiz-adv-x="569" d="M-9 0L19 160H291Q331 160 337 192L339 203Q342 221 337 230T314 245L186 291Q42 343 69 503L72 521Q86 607 147 653T314 700H600L572 540H300Q267 540 260 508L258 498Q252 468 286 455L411 408Q484 380
512 332T530 210L526 184Q512 97 449 49T283 0H-9Z" />
<glyph unicode="T" glyph-name="T" horiz-adv-x="620" d="M670 700L642 540H452L357 0H167L262 540H72L100 700H670Z" />
<glyph unicode="U" glyph-name="U" horiz-adv-x="667" d="M315 700L232 227Q225 188 241 172T298 155H331Q375 155 393 170T419 227L502 700H692L609 227Q587 101 522 46T340 -10H277Q147 -10 85 53T42 227L125 700H315Z" />
<glyph unicode="V" glyph-name="V" horiz-adv-x="708" d="M173 0L83 700H279L326 180H340L569 700H775L439 0H173Z" />
<glyph unicode="W" glyph-name="W" horiz-adv-x="1027" d="M838 0H566L563 510H549L366 0H93L87 700H287L264 190H278L459 700H714L717 190H731L886 700H1090L838 0Z" />
<glyph unicode="X" glyph-name="X" horiz-adv-x="663" d="M509 700H725L472 353L607 0H399L330 219H316L176 0H-40L218 353L88 700H296L362 487H376L509 700Z" />
<glyph unicode="Y" glyph-name="Y" horiz-adv-x="681" d="M197 0L240 242L80 700H280L359 428H373L549 700H751L430 242L387 0H197Z" />
<glyph unicode="Z" glyph-name="Z" horiz-adv-x="591" d="M541 160L513 0H-18L6 134L351 526L353 540H88L116 700H629L606 566L260 174L257 160H541Z" />
<glyph unicode="[" glyph-name="bracketleft" horiz-adv-x="380" d="M465 870L439 722H313L182 -20H308L282 -168H-23L160 870H465Z" />
<glyph unicode="\" glyph-name="backslash" horiz-adv-x="456" d="M224 -43L103 745H259L380 -43H224Z" />
<glyph unicode="]" glyph-name="bracketright" horiz-adv-x="380" d="M125 870H430L247 -168H-58L-32 -20H94L225 722H99L125 870Z" />
<glyph unicode="^" glyph-name="asciicircum" horiz-adv-x="490" d="M276 120L282 438H268L160 120H0L162 560H430L436 120H276Z" />
<glyph unicode="_" glyph-name="underscore" horiz-adv-x="456" d="M-20 -125L2 0H358L336 -125H-20Z" />
<glyph unicode="`" glyph-name="grave" horiz-adv-x="500" d="M127 771H315L388 605H238L127 771Z" />
<glyph unicode="a" glyph-name="a" horiz-adv-x="585" d="M234 159H237Q263 159 299 171L342 185L376 382H295Q261 382 247 370T228 329L205 201Q198 159 234 159ZM299 21Q226 -10 170 -10H167Q90 -10 48 45T22 196L45 329Q64 439 123 489T295 540H582L487 0H334L335
36L299 21Z" />
<glyph unicode="b" glyph-name="b" horiz-adv-x="590" d="M294 0H2L125 700H308L275 513L290 519Q363 550 419 550H422Q503 550 543 497T567 344L544 211Q525 101 466 51T294 0ZM208 158H294Q328 158 342 170T361 211L384 339Q391 381 355 381H352Q326 381 291
369L242 353L208 158Z" />
<glyph unicode="c" glyph-name="c" horiz-adv-x="491" d="M490 540L464 392H301Q268 392 251 377T228 329L205 201Q193 138 252 138Q295 138 345 153L408 171L442 31L378 12Q304 -10 226 -10Q117 -10 62 50T25 216L45 329Q65 440 128 490T301 540H490Z" />
<glyph unicode="d" glyph-name="d" horiz-adv-x="590" d="M234 159H237Q264 159 298 171L347 187L381 382H295Q261 382 247 370T228 329L205 201Q198 159 234 159ZM299 21Q226 -10 170 -10H167Q89 -10 47 45T22 196L45 329Q64 439 123 489T295 540H404L432 700H615L492
0H339L340 38L299 21Z" />
<glyph unicode="e" glyph-name="e" horiz-adv-x="546" d="M223 339L221 326H366L368 339Q380 404 312 404H292Q258 404 244 389T223 339ZM410 15Q325 -10 233 -10Q114 -10 60 51T24 226L39 314Q60 440 124 495T306 550H322Q436 550 490 491T525 314L516 259L471
221H202L200 211Q193 172 208 155T268 138Q319 138 380 156L443 174L473 34L410 15Z" />
<glyph unicode="f" glyph-name="f" horiz-adv-x="404" d="M36 392L62 540H135L137 549Q154 637 208 678T362 720H468L445 590H362Q338 590 329 582T314 550L312 540H436L410 392H291L222 0H40L109 392H36Z" />
<glyph unicode="g" glyph-name="g" horiz-adv-x="592" d="M209 -160H4L31 -7H223Q315 -7 329 76L333 94L310 85Q237 54 181 54H178Q100 54 58 109T33 260L45 329Q65 439 124 489T295 540H589L509 86Q466 -160 209 -160ZM242 218H245Q274 218 306 229L360 248L384
387H293Q259 387 245 375T226 334L213 260Q206 218 242 218Z" />
<glyph unicode="h" glyph-name="h" horiz-adv-x="605" d="M286 358L246 345L185 0H2L125 700H308L274 506L288 512Q379 550 432 550H435Q511 550 551 500T577 368L512 0H329L387 329Q394 371 351 371H348Q326 371 286 358Z" />
<glyph unicode="i" glyph-name="i" horiz-adv-x="283" d="M312 720L288 585H105L129 720H312ZM97 540H280L185 0H2L97 540Z" />
<glyph unicode="j" glyph-name="j" horiz-adv-x="283" d="M288 585H105L129 720H312L288 585ZM280 540L199 79Q183 -11 159 -50T61 -135L3 -171L-88 -25L-35 9Q-10 25 0 38T16 79L97 540H280Z" />
<glyph unicode="k" glyph-name="k" horiz-adv-x="578" d="M343 0L289 201H220L185 0H2L125 700H308L250 371H320L438 540H625L447 280L530 0H343Z" />
<glyph unicode="l" glyph-name="l" horiz-adv-x="283" d="M308 700L185 0H2L125 700H308Z" />
<glyph unicode="m" glyph-name="m" horiz-adv-x="924" d="M282 358L246 346L185 0H2L97 540H250V498L284 512Q375 550 428 550H431Q512 550 552 493L605 515Q690 550 751 550H754Q830 550 870 500T896 368L831 0H648L706 329Q714 371 670 371H667Q645 371 605
358L569 346L508 0H325L383 329Q390 371 347 371H344Q322 371 282 358Z" />
<glyph unicode="n" glyph-name="n" horiz-adv-x="605" d="M286 358L246 345L185 0H2L97 540H250L251 496L288 512Q379 550 432 550H435Q511 550 551 500T577 368L512 0H329L387 329Q394 371 351 371H348Q326 371 286 358Z" />
<glyph unicode="o" glyph-name="o" horiz-adv-x="568" d="M270 -10H248Q-18 -10 25 236L37 304Q61 442 122 496T297 550H319Q586 550 543 304L531 236Q507 99 446 45T270 -10ZM201 201Q189 138 254 138H266Q304 138 319 152T341 201L366 339Q378 402 313 402H301Q263
402 248 388T226 339L201 201Z" />
<glyph unicode="p" glyph-name="p" horiz-adv-x="590" d="M157 -160H-26L97 540H250L249 502L290 519Q363 550 419 550H422Q499 550 541 495T567 344L544 211Q525 101 466 51T294 0H185L157 -160ZM208 158H294Q328 158 342 170T361 211L384 339Q391 381 355 381H352Q326
381 291 369L242 353L208 158Z" />
<glyph unicode="q" glyph-name="q" horiz-adv-x="590" d="M464 -160H281L314 27L299 21Q226 -10 170 -10H167Q90 -10 48 45T22 196L45 329Q64 439 123 489T295 540H587L464 -160ZM234 159H237Q264 159 298 171L347 187L381 382H295Q261 382 247 370T228 329L205
201Q198 159 234 159Z" />
<glyph unicode="r" glyph-name="r" horiz-adv-x="425" d="M185 0H2L97 540H250L251 484L279 501Q361 550 433 550H454L423 375H406Q327 375 277 357L246 346L185 0Z" />
<glyph unicode="s" glyph-name="s" horiz-adv-x="499" d="M-11 0L15 148H257Q284 148 287 167L288 174Q290 185 283 190T256 197L179 206Q100 215 68 257T49 378L53 403Q76 540 240 540H501L475 392H238Q216 392 213 375L212 369Q210 358 215 353T238 345L341
332Q476 314 454 184L447 141Q436 75 387 38T257 0H-11Z" />
<glyph unicode="t" glyph-name="t" horiz-adv-x="442" d="M418 392H292L255 183Q249 149 277 149Q297 149 332 163L358 173L392 43L358 28Q272 -10 203 -10Q130 -10 93 40T70 171L109 392H36L62 540H148L187 640H336L318 540H444L418 392Z" />
<glyph unicode="u" glyph-name="u" horiz-adv-x="604" d="M315 28Q224 -10 171 -10H168Q92 -10 52 40T26 172L91 540H274L216 211Q208 169 252 169H255Q277 169 317 182L357 195L418 540H601L506 0H353V44L315 28Z" />
<glyph unicode="v" glyph-name="v" horiz-adv-x="596" d="M439 540H635L369 0H129L55 540H242L270 173H284L439 540Z" />
<glyph unicode="w" glyph-name="w" horiz-adv-x="878" d="M723 0H467L460 298L464 376H450L428 298L315 0H59L60 540H236L226 308L215 148H229L279 308L374 540H590L603 308L597 148H611L656 308L728 540H912L723 0Z" />
<glyph unicode="x" glyph-name="x" horiz-adv-x="549" d="M395 540H586L407 266L491 0H304L266 167H252L156 0H-35L142 272L57 540H243L282 370H296L395 540Z" />
<glyph unicode="y" glyph-name="y" horiz-adv-x="565" d="M103 -160H-8L19 -5H122Q163 -5 182 7T216 52L227 77H114L55 540H239L266 208H280L413 540H604L370 9Q330 -82 269 -121T103 -160Z" />
<glyph unicode="z" glyph-name="z" horiz-adv-x="506" d="M80 540H515L492 408L244 160L242 146H454L428 0H-15L8 132L254 380L256 394H54L80 540Z" />
<glyph unicode="{" glyph-name="braceleft" horiz-adv-x="411" d="M313 -168H246Q141 -168 93 -116T62 33L93 211Q99 245 86 260T38 276H14L40 426H64Q100 426 118 440T143 491L174 669Q192 772 249 821T411 870H496L470 722H416Q383 722 371 713T353 669L315
456Q307 412 287 391T220 356L218 346Q259 335 272 311T278 246L241 33Q235 -1 243 -10T285 -20H339L313 -168Z" />
<glyph unicode="|" glyph-name="bar" horiz-adv-x="255" d="M139 -100H-16L143 800H298L139 -100Z" />
<glyph unicode="}" glyph-name="braceright" horiz-adv-x="411" d="M126 870H193Q298 870 346 818T377 669L346 491Q340 457 353 442T401 426H425L399 276H375Q339 276 321 262T296 211L265 33Q247 -70 190 -119T28 -168H-57L-31 -20H23Q56 -20 68 -11T86 33L124
246Q132 290 152 311T219 346L221 356Q180 367 167 391T161 456L198 669Q204 703 196 712T154 722H100L126 870Z" />
<glyph unicode="~" glyph-name="asciitilde" horiz-adv-x="490" d="M15 199L35 265Q55 330 86 360T166 390H171Q208 390 257 362L283 347Q309 332 321 332H325Q341 332 349 357L360 390H483L461 324Q437 254 405 227T323 199H318Q279 199 238 226L212 243Q192
257 177 257H173Q157 257 149 232L138 199H15Z" />
<glyph unicode="&#xa0;" glyph-name="uni00A0" horiz-adv-x="210" />
<glyph unicode="&#xa1;" glyph-name="exclamdown" horiz-adv-x="320" d="M122 540H292L263 373H93L122 540ZM84 290H243L220 73L179 -160H-11L30 73L84 290Z" />
<glyph unicode="&#xa2;" glyph-name="cent" horiz-adv-x="480" d="M288 0H133L151 101Q82 122 50 178T32 316L43 379Q60 473 108 523T236 585L256 700H411L392 590H488L462 442H299Q237 442 226 379L212 301Q201 238 259 238Q302 238 352 253L415 271L449 133L385
114Q341 101 305 96L288 0Z" />
<glyph unicode="&#xa3;" glyph-name="sterling" horiz-adv-x="582" d="M510 0H-32L-4 160H77L96 270H16L41 415H122L133 478Q172 700 401 700H613L585 540H401Q364 540 347 526T323 478L312 415H517L492 270H286L267 160H538L510 0Z" />
<glyph unicode="&#xa4;" glyph-name="currency" horiz-adv-x="553" d="M457 66L368 154Q338 148 302 148H272Q242 148 210 153L122 66L28 160L100 233Q84 271 84 322V338Q84 388 99 424L23 500L117 594L206 506Q236 512 272 512H302Q343 512 372 505L462 594L556
500L477 420Q490 383 490 338V322Q490 272 475 236L551 160L457 66ZM272 268H302Q348 268 348 315V345Q348 392 302 392H272Q226 392 226 345V315Q226 268 272 268Z" />
<glyph unicode="&#xa5;" glyph-name="yen" horiz-adv-x="679" d="M585 148H412L386 0H196L222 148H49L69 263H232L214 313H78L98 428H174L79 700H279L358 428H372L548 700H750L559 428H634L614 313H479L444 263H605L585 148Z" />
<glyph unicode="&#xa6;" glyph-name="brokenbar" horiz-adv-x="255" d="M229 410H74L143 800H298L229 410ZM139 -100H-16L55 300H210L139 -100Z" />
<glyph unicode="&#xa7;" glyph-name="section" horiz-adv-x="584" d="M270 -160H-26L2 0H273Q311 0 318 30L320 39Q323 53 314 61T285 69H169Q88 69 52 111T25 220L29 246Q42 323 116 353Q57 404 74 500L79 528Q93 611 154 655T319 700H605L577 540H306Q268 540
261 510L259 501Q256 487 265 479T294 471H400Q487 471 526 429T552 309L548 285Q536 213 473 184Q519 141 506 50L502 22Q489 -66 430 -113T270 -160ZM321 223Q355 223 360 264L361 273Q366 313 327 313H257Q224 313 219 273L218 264Q213 223 251 223H321Z" />
<glyph unicode="&#xa8;" glyph-name="dieresis" horiz-adv-x="500" d="M487 605H339L367 763H515L487 605ZM279 605H131L159 763H307L279 605Z" />
<glyph unicode="&#xa9;" glyph-name="copyright" horiz-adv-x="750" d="M364 -10H302Q153 -10 83 62T35 259L69 451Q93 590 176 650T413 710H475Q624 710 694 638T743 441L709 249Q685 110 602 50T364 -10ZM312 75H374Q492 75 546 110T619 249L653 441Q670 538
625 581T465 625H403Q285 625 231 590T159 451L125 259Q108 163 153 119T312 75ZM478 168H352Q290 168 255 207T231 313L249 413Q261 480 298 510T405 540H543L526 445H405Q382 445 372 437T359 409L340 299Q333 262 373 262H494L478 168Z" />
<glyph unicode="&#xaa;" glyph-name="ordfeminine" horiz-adv-x="409" d="M217 464H219Q231 464 260 473L291 482L311 595H243Q220 595 211 586T197 555L187 501Q180 464 217 464ZM251 372Q198 352 165 352H163Q111 352 80 388T61 492L72 557Q97 700 243 700H454L394
359H285L286 385L251 372Z" />
<glyph unicode="&#xab;" glyph-name="guillemotleft" horiz-adv-x="588" d="M277 226L289 293L412 427H565L446 265L444 254L506 92H353L277 226ZM37 226L49 293L172 427H325L206 265L204 254L266 92H113L37 226Z" />
<glyph unicode="&#xac;" glyph-name="logicalnot" horiz-adv-x="490" d="M473 400L425 130H295L320 270H40L63 400H473Z" />
<glyph unicode="&#xad;" glyph-name="uni00AD" horiz-adv-x="0" />
<glyph unicode="&#xae;" glyph-name="registered" horiz-adv-x="750" d="M364 -10H302Q153 -10 83 62T35 259L69 451Q93 590 176 650T413 710H475Q624 710 694 638T743 441L709 249Q685 110 602 50T364 -10ZM312 75H374Q492 75 546 110T619 249L653 441Q670 538
625 581T465 625H403Q285 625 231 590T159 451L125 259Q108 163 153 119T312 75ZM364 450L349 363H420Q456 363 461 390L466 422Q468 436 461 443T435 450H364ZM315 168H204L269 540H454Q522 540 553 511T577 427L573 395Q563 314 490 291L537 168H423L389 273H333L315
168Z" />
<glyph unicode="&#xaf;" glyph-name="overscore" horiz-adv-x="500" d="M166 605L186 720H472L452 605H166Z" />
<glyph unicode="&#xb0;" glyph-name="degree" horiz-adv-x="367" d="M221 389Q155 389 112 429T68 533Q68 606 120 658T247 710Q313 710 356 670T399 566Q399 493 347 441T221 389ZM225 473Q260 473 284 496T309 562Q309 591 291 608T242 626Q207 626 183 603T158
537Q158 508 176 491T225 473Z" />
<glyph unicode="&#xb1;" glyph-name="plusminus" horiz-adv-x="490" d="M462 340H322L297 200H167L192 340H52L75 470H214L239 610H369L344 470H485L462 340ZM402 0H-8L15 130H425L402 0Z" />
<glyph unicode="&#xb2;" glyph-name="twosuperior" horiz-adv-x="381" d="M347 350H53L63 408Q74 472 100 504T185 550L233 562Q287 575 290 586L291 591Q292 596 290 598T280 600H109L126 700H294Q350 700 376 675T398 602L397 593Q392 551 370 527T298 490L240
475Q210 467 202 463T192 450H364L347 350Z" />
<glyph unicode="&#xb3;" glyph-name="threesuperior" horiz-adv-x="376" d="M76 448H223Q247 448 249 463L250 471Q252 486 230 486H105L119 567H237Q260 567 262 581L263 588Q264 595 260 598T243 602H103L120 700H285Q343 700 369 678T390 611L389 602Q383 553
330 535L329 530Q376 515 370 464L368 447Q356 350 237 350H59L76 448Z" />
<glyph unicode="&#xb4;" glyph-name="acute" horiz-adv-x="500" d="M559 771L390 605H236L367 771H559Z" />
<glyph unicode="&#xb5;" glyph-name="mu" horiz-adv-x="602" d="M170 -10H169L143 -160H-30L26 160Q26 162 27 166T28 172L93 540H276L218 211Q210 169 254 169H257Q279 169 319 182L359 195L420 540H603L508 0H355V44L317 28Q226 -10 173 -10H170Z" />
<glyph unicode="&#xb6;" glyph-name="paragraph" horiz-adv-x="740" d="M431 0L526 540H426L331 0H171L226 314H218Q133 314 89 365T60 505L64 529Q78 613 132 656T276 700H800L772 540H686L591 0H431Z" />
<glyph unicode="&#xb7;" glyph-name="middot" horiz-adv-x="500" d="M345 330H175L205 497H375L345 330Z" />
<glyph unicode="&#xb8;" glyph-name="cedilla" horiz-adv-x="500" d="M101 -131H197Q209 -131 211 -121L212 -112Q214 -100 202 -100H156L142 -81L159 17H253L245 -26H255Q331 -26 321 -104L317 -134Q311 -182 284 -203T197 -224H85L101 -131Z" />
<glyph unicode="&#xb9;" glyph-name="onesuperior" horiz-adv-x="265" d="M96 700H285L224 350H100L142 590H77L96 700Z" />
<glyph unicode="&#xba;" glyph-name="ordmasculine" horiz-adv-x="402" d="M243 358H209Q124 358 88 394T63 502L74 566Q87 645 127 677T251 710H285Q456 710 432 566L421 502Q408 424 367 391T243 358ZM226 456H244Q270 456 280 466T295 501L307 567Q311 590
302 601T268 612H250Q224 612 214 602T199 567L187 501Q183 478 192 467T226 456Z" />
<glyph unicode="&#xbb;" glyph-name="guillemotright" horiz-adv-x="588" d="M535 226L411 92H258L378 254L380 265L317 427H470L547 293L535 226ZM295 226L171 92H18L138 254L140 265L77 427H230L307 293L295 226Z" />
<glyph unicode="&#xbc;" glyph-name="onequarter" horiz-adv-x="799" d="M163 0H17L560 700H706L163 0ZM96 700H285L224 350H100L142 590H77L96 700ZM676 0H561L571 56H389L403 136L587 350H737L701 141H751L736 56H686L676 0ZM513 147L511 140H585L605 253H598L513 147Z" />
<glyph unicode="&#xbd;" glyph-name="onehalf" horiz-adv-x="812" d="M163 0H17L560 700H706L163 0ZM96 700H285L224 350H100L142 590H77L96 700ZM717 0H423L433 58Q444 122 470 154T555 200L603 212Q657 225 660 236L661 241Q662 246 660 248T650 250H479L496
350H664Q720 350 746 325T768 252L767 243Q762 201 740 177T668 140L610 125Q580 117 572 113T562 100H734L717 0Z" />
<glyph unicode="&#xbe;" glyph-name="threequarters" horiz-adv-x="910" d="M274 0H128L671 700H817L274 0ZM76 448H223Q247 448 249 463L250 471Q252 486 230 486H105L119 567H237Q260 567 262 581L263 588Q264 595 260 598T243 602H103L120 700H285Q343 700
369 678T390 611L389 602Q383 553 330 535L329 530Q376 515 370 464L368 447Q356 350 237 350H59L76 448ZM787 0H672L682 56H500L514 136L698 350H848L812 141H862L847 56H797L787 0ZM624 147L622 140H696L716 253H709L624 147Z" />
<glyph unicode="&#xbf;" glyph-name="questiondown" horiz-adv-x="513" d="M227 373L256 540H426L397 373H227ZM220 305H380L370 248Q362 203 343 179T271 126L209 92Q187 80 179 71T169 47L167 34Q165 17 173 9T202 0H430L402 -160H164Q64 -160 18 -116T-20 4L-16
42Q-10 93 15 122T103 187L170 225Q194 239 202 250T215 281L220 305Z" />
<glyph unicode="&#xc0;" glyph-name="Agrave" horiz-adv-x="712" d="M261 931H449L522 765H372L261 931ZM398 520L295 292H434L412 520H398ZM463 0L450 137H225L163 0H-40L301 700H561L656 0H463Z" />
<glyph unicode="&#xc1;" glyph-name="Aacute" horiz-adv-x="712" d="M693 931L524 765H370L501 931H693ZM398 520L295 292H434L412 520H398ZM463 0L450 137H225L163 0H-40L301 700H561L656 0H463Z" />
<glyph unicode="&#xc2;" glyph-name="Acircumflex" horiz-adv-x="712" d="M400 765H248L391 938H555L638 765H492L465 843H453L400 765ZM398 520L295 292H434L412 520H398ZM463 0L450 137H225L163 0H-40L301 700H561L656 0H463Z" />
<glyph unicode="&#xc3;" glyph-name="Atilde" horiz-adv-x="712" d="M376 765H266L279 843Q287 887 319 912T395 938H400Q444 938 477 908L492 894Q503 884 512 884H516Q531 884 534 903L540 938H650L636 860Q629 816 597 791T521 765H516Q472 765 439 795L423
809Q413 819 404 819H400Q385 819 382 800L376 765ZM398 520L295 292H434L412 520H398ZM463 0L450 137H225L163 0H-40L301 700H561L656 0H463Z" />
<glyph unicode="&#xc4;" glyph-name="Adieresis" horiz-adv-x="712" d="M621 765H473L501 923H649L621 765ZM413 765H265L293 923H441L413 765ZM398 520L295 292H434L412 520H398ZM463 0L450 137H225L163 0H-40L301 700H561L656 0H463Z" />
<glyph unicode="&#xc5;" glyph-name="Aring" horiz-adv-x="712" d="M466 755H436Q371 755 336 785T309 869L313 893Q322 948 360 977T460 1007H490Q555 1007 590 977T617 893L613 869Q604 813 567 784T466 755ZM421 873Q418 859 426 851T450 842H466Q496 842 503
873L506 889Q509 903 501 911T476 920H460Q431 920 424 889L421 873ZM398 520L295 292H434L412 520H398ZM463 0L450 137H225L163 0H-40L301 700H561L656 0H463Z" />
<glyph unicode="&#xc6;" glyph-name="AE" horiz-adv-x="1006" d="M526 508L373 292H501L540 508H526ZM474 137H264L167 0H-48L481 700H1043L1015 540H732L712 428H973L946 272H685L665 160H948L920 0H450L474 137Z" />
<glyph unicode="&#xc7;" glyph-name="Ccedilla" horiz-adv-x="550" d="M360 -134Q354 -182 327 -203T240 -224H128L144 -131H240Q252 -131 254 -121L255 -112Q257 -100 245 -100H199L185 -81L200 4Q107 19 61 78T31 229L74 471Q97 598 159 649T341 700H590L562
540H343Q306 540 289 526T265 478L221 229Q208 160 276 160H495L467 0H293L288 -26H298Q374 -26 364 -104L360 -134Z" />
<glyph unicode="&#xc8;" glyph-name="Egrave" horiz-adv-x="588" d="M199 931H387L460 765H310L199 931ZM502 0H7L130 700H625L597 540H289L269 428H555L528 272H242L222 160H530L502 0Z" />
<glyph unicode="&#xc9;" glyph-name="Eacute" horiz-adv-x="588" d="M631 931L462 765H308L439 931H631ZM502 0H7L130 700H625L597 540H289L269 428H555L528 272H242L222 160H530L502 0Z" />
<glyph unicode="&#xca;" glyph-name="Ecircumflex" horiz-adv-x="588" d="M338 765H186L329 938H493L576 765H430L403 843H391L338 765ZM502 0H7L130 700H625L597 540H289L269 428H555L528 272H242L222 160H530L502 0Z" />
<glyph unicode="&#xcb;" glyph-name="Edieresis" horiz-adv-x="588" d="M559 765H411L439 923H587L559 765ZM351 765H203L231 923H379L351 765ZM502 0H7L130 700H625L597 540H289L269 428H555L528 272H242L222 160H530L502 0Z" />
<glyph unicode="&#xcc;" glyph-name="Igrave" horiz-adv-x="300" d="M55 931H243L316 765H166L55 931ZM197 0H7L130 700H320L197 0Z" />
<glyph unicode="&#xcd;" glyph-name="Iacute" horiz-adv-x="300" d="M487 931L318 765H164L295 931H487ZM197 0H7L130 700H320L197 0Z" />
<glyph unicode="&#xce;" glyph-name="Icircumflex" horiz-adv-x="300" d="M194 765H42L185 938H349L432 765H286L259 843H247L194 765ZM197 0H7L130 700H320L197 0Z" />
<glyph unicode="&#xcf;" glyph-name="Idieresis" horiz-adv-x="300" d="M415 765H267L295 923H443L415 765ZM207 765H59L87 923H235L207 765ZM197 0H7L130 700H320L197 0Z" />
<glyph unicode="&#xd0;" glyph-name="Eth" horiz-adv-x="684" d="M370 0H33L82 277H17L43 423H107L156 700H473Q589 700 644 640T680 471L637 229Q616 108 552 54T370 0ZM251 160H368Q405 160 422 174T446 222L491 478Q502 540 435 540H318L297 423H385L359 277H272L251
160Z" />
<glyph unicode="&#xd1;" glyph-name="Ntilde" horiz-adv-x="712" d="M376 765H266L279 843Q287 887 319 912T395 938H400Q444 938 477 908L492 894Q503 884 512 884H516Q531 884 534 903L540 938H650L636 860Q629 816 597 791T521 765H516Q472 765 439 795L423
809Q413 819 404 819H400Q385 819 382 800L376 765ZM309 700L471 311H485L553 700H732L609 0H430L269 389H255L186 0H7L130 700H309Z" />
<glyph unicode="&#xd2;" glyph-name="Ograve" horiz-adv-x="654" d="M232 931H420L493 765H343L232 931ZM333 -10H271Q130 -10 71 53T31 229L74 471Q97 602 161 656T358 710H420Q556 710 613 647T650 471L607 229Q584 98 522 44T333 -10ZM220 222Q213 183 229
167T286 150H328Q372 150 390 165T416 222L461 478Q468 517 452 533T395 550H353Q309 550 291 535T265 478L220 222Z" />
<glyph unicode="&#xd3;" glyph-name="Oacute" horiz-adv-x="654" d="M664 931L495 765H341L472 931H664ZM333 -10H271Q130 -10 71 53T31 229L74 471Q97 602 161 656T358 710H420Q556 710 613 647T650 471L607 229Q584 98 522 44T333 -10ZM220 222Q213 183 229
167T286 150H328Q372 150 390 165T416 222L461 478Q468 517 452 533T395 550H353Q309 550 291 535T265 478L220 222Z" />
<glyph unicode="&#xd4;" glyph-name="Ocircumflex" horiz-adv-x="654" d="M371 765H219L362 938H526L609 765H463L436 843H424L371 765ZM333 -10H271Q130 -10 71 53T31 229L74 471Q97 602 161 656T358 710H420Q556 710 613 647T650 471L607 229Q584 98 522 44T333
-10ZM220 222Q213 183 229 167T286 150H328Q372 150 390 165T416 222L461 478Q468 517 452 533T395 550H353Q309 550 291 535T265 478L220 222Z" />
<glyph unicode="&#xd5;" glyph-name="Otilde" horiz-adv-x="654" d="M347 765H237L250 843Q258 887 290 912T366 938H371Q415 938 448 908L463 894Q474 884 483 884H487Q502 884 505 903L511 938H621L607 860Q600 816 568 791T492 765H487Q443 765 410 795L394
809Q384 819 375 819H371Q356 819 353 800L347 765ZM333 -10H271Q130 -10 71 53T31 229L74 471Q97 602 161 656T358 710H420Q556 710 613 647T650 471L607 229Q584 98 522 44T333 -10ZM220 222Q213 183 229 167T286 150H328Q372 150 390 165T416 222L461 478Q468
517 452 533T395 550H353Q309 550 291 535T265 478L220 222Z" />
<glyph unicode="&#xd6;" glyph-name="Odieresis" horiz-adv-x="654" d="M592 765H444L472 923H620L592 765ZM384 765H236L264 923H412L384 765ZM333 -10H271Q130 -10 71 53T31 229L74 471Q97 602 161 656T358 710H420Q556 710 613 647T650 471L607 229Q584 98
522 44T333 -10ZM220 222Q213 183 229 167T286 150H328Q372 150 390 165T416 222L461 478Q468 517 452 533T395 550H353Q309 550 291 535T265 478L220 222Z" />
<glyph unicode="&#xd7;" glyph-name="multiply" horiz-adv-x="490" d="M333 142L239 252L109 142L33 234L161 343L66 454L167 538L261 428L391 538L467 446L339 337L433 227L333 142Z" />
<glyph unicode="&#xd8;" glyph-name="Oslash" horiz-adv-x="654" d="M333 -10H271Q130 -10 71 53T31 229L74 471Q97 602 161 656T358 710H420Q556 710 613 647T650 471L607 229Q584 98 522 44T333 -10ZM255 490L213 252L393 562H343Q299 562 281 547T255 490ZM426
210L467 447L290 138H338Q382 138 400 153T426 210Z" />
<glyph unicode="&#xd9;" glyph-name="Ugrave" horiz-adv-x="667" d="M235 931H423L496 765H346L235 931ZM315 700L232 227Q225 188 241 172T298 155H331Q375 155 393 170T419 227L502 700H692L609 227Q587 101 522 46T340 -10H277Q147 -10 85 53T42 227L125 700H315Z" />
<glyph unicode="&#xda;" glyph-name="Uacute" horiz-adv-x="667" d="M668 931L499 765H345L476 931H668ZM315 700L232 227Q225 188 241 172T298 155H331Q375 155 393 170T419 227L502 700H692L609 227Q587 101 522 46T340 -10H277Q147 -10 85 53T42 227L125 700H315Z" />
<glyph unicode="&#xdb;" glyph-name="Ucircumflex" horiz-adv-x="667" d="M375 765H222L366 938H530L612 765H467L440 843H428L375 765ZM315 700L232 227Q225 188 241 172T298 155H331Q375 155 393 170T419 227L502 700H692L609 227Q587 101 522 46T340 -10H277Q147
-10 85 53T42 227L125 700H315Z" />
<glyph unicode="&#xdc;" glyph-name="Udieresis" horiz-adv-x="667" d="M595 765H447L475 923H623L595 765ZM387 765H239L267 923H415L387 765ZM315 700L232 227Q225 188 241 172T298 155H331Q375 155 393 170T419 227L502 700H692L609 227Q587 101 522 46T340
-10H277Q147 -10 85 53T42 227L125 700H315Z" />
<glyph unicode="&#xdd;" glyph-name="Yacute" horiz-adv-x="681" d="M678 931L509 765H355L486 931H678ZM197 0L240 242L80 700H280L359 428H373L549 700H751L430 242L387 0H197Z" />
<glyph unicode="&#xde;" glyph-name="Thorn" horiz-adv-x="633" d="M374 440H275L241 252H352Q409 252 418 304L432 388Q437 414 424 427T374 440ZM343 92H213L197 0H7L130 700H320L303 600H405Q524 600 579 544T620 388L608 304Q577 92 343 92Z" />
<glyph unicode="&#xdf;" glyph-name="germandbls" horiz-adv-x="642" d="M185 0H2L90 499Q127 710 349 710H401Q504 710 560 668T616 549Q616 510 598 478T558 428T518 391T499 354Q499 341 516 323T554 288T592 239T609 173Q609 94 553 47T403 0H275L301 148H404Q437
148 437 173Q437 186 420 203T383 235T345 275T328 326Q328 353 345 382T384 431T422 475T440 516Q440 562 387 562H349Q313 562 296 547T273 499L185 0Z" />
<glyph unicode="&#xe0;" glyph-name="agrave" horiz-adv-x="585" d="M169 771H357L430 605H280L169 771ZM234 159H237Q263 159 299 171L342 185L376 382H295Q261 382 247 370T228 329L205 201Q198 159 234 159ZM299 21Q226 -10 170 -10H167Q90 -10 48 45T22 196L45
329Q64 439 123 489T295 540H582L487 0H334L335 36L299 21Z" />
<glyph unicode="&#xe1;" glyph-name="aacute" horiz-adv-x="585" d="M602 771L433 605H279L410 771H602ZM234 159H237Q263 159 299 171L342 185L376 382H295Q261 382 247 370T228 329L205 201Q198 159 234 159ZM299 21Q226 -10 170 -10H167Q90 -10 48 45T22 196L45
329Q64 439 123 489T295 540H582L487 0H334L335 36L299 21Z" />
<glyph unicode="&#xe2;" glyph-name="acircumflex" horiz-adv-x="585" d="M309 605H156L300 778H464L546 605H401L374 683H362L309 605ZM234 159H237Q263 159 299 171L342 185L376 382H295Q261 382 247 370T228 329L205 201Q198 159 234 159ZM299 21Q226 -10 170
-10H167Q90 -10 48 45T22 196L45 329Q64 439 123 489T295 540H582L487 0H334L335 36L299 21Z" />
<glyph unicode="&#xe3;" glyph-name="atilde" horiz-adv-x="585" d="M284 605H174L188 683Q195 727 227 752T304 778H309Q352 778 385 748L401 734Q412 724 420 724H424Q439 724 443 743L449 778H559L545 700Q538 656 506 631T429 605H424Q380 605 347 635L332
649Q321 659 313 659H309Q294 659 290 640L284 605ZM234 159H237Q263 159 299 171L342 185L376 382H295Q261 382 247 370T228 329L205 201Q198 159 234 159ZM299 21Q226 -10 170 -10H167Q90 -10 48 45T22 196L45 329Q64 439 123 489T295 540H582L487 0H334L335
36L299 21Z" />
<glyph unicode="&#xe4;" glyph-name="adieresis" horiz-adv-x="585" d="M529 605H381L409 763H557L529 605ZM321 605H173L201 763H349L321 605ZM234 159H237Q263 159 299 171L342 185L376 382H295Q261 382 247 370T228 329L205 201Q198 159 234 159ZM299 21Q226
-10 170 -10H167Q90 -10 48 45T22 196L45 329Q64 439 123 489T295 540H582L487 0H334L335 36L299 21Z" />
<glyph unicode="&#xe5;" glyph-name="aring" horiz-adv-x="585" d="M375 595H345Q280 595 245 625T218 709L222 733Q231 788 269 817T369 847H399Q464 847 499 816T526 733L522 709Q513 653 476 624T375 595ZM330 713Q327 699 335 691T359 682H375Q405 682 412
713L415 729Q420 760 385 760H369Q338 760 333 729L330 713ZM234 159H237Q263 159 299 171L342 185L376 382H295Q261 382 247 370T228 329L205 201Q198 159 234 159ZM299 21Q226 -10 170 -10H167Q90 -10 48 45T22 196L45 329Q64 439 123 489T295 540H582L487 0H334L335
36L299 21Z" />
<glyph unicode="&#xe6;" glyph-name="ae" horiz-adv-x="871" d="M553 339L551 326H691L693 339Q705 404 637 404H622Q588 404 574 389T553 339ZM242 153Q265 153 298 164L349 182Q351 212 354 226L369 314Q376 355 389 392H295Q262 392 248 378T228 329L205 201Q196
153 239 153H242ZM299 21Q226 -10 170 -10H167Q86 -10 46 43T22 196L45 329Q64 439 123 489T295 540H547Q587 550 641 550H652Q762 550 815 491T850 314L841 259L796 221H532L530 211Q523 172 538 155T598 138Q641 138 707 156L770 174L795 36L732 17Q642 -10 563
-10Q438 -10 385 57L299 21Z" />
<glyph unicode="&#xe7;" glyph-name="ccedilla" horiz-adv-x="491" d="M193 -224H80L96 -131H193Q205 -131 207 -121L208 -112Q210 -100 198 -100H152L137 -81L151 -1Q78 19 44 75T25 216L45 329Q65 440 128 490T301 540H490L464 392H301Q268 392 251 377T228
329L205 201Q193 138 252 138Q295 138 345 153L408 171L442 31L378 12Q317 -7 244 -10L241 -26H251Q327 -26 317 -104L313 -134Q307 -182 280 -203T193 -224Z" />
<glyph unicode="&#xe8;" glyph-name="egrave" horiz-adv-x="546" d="M150 771H338L411 605H261L150 771ZM223 339L221 326H366L368 339Q380 404 312 404H292Q258 404 244 389T223 339ZM410 15Q325 -10 233 -10Q114 -10 60 51T24 226L39 314Q60 440 124 495T306
550H322Q436 550 490 491T525 314L516 259L471 221H202L200 211Q193 172 208 155T268 138Q319 138 380 156L443 174L473 34L410 15Z" />
<glyph unicode="&#xe9;" glyph-name="eacute" horiz-adv-x="546" d="M572 771L403 605H249L380 771H572ZM223 339L221 326H366L368 339Q380 404 312 404H292Q258 404 244 389T223 339ZM410 15Q325 -10 233 -10Q114 -10 60 51T24 226L39 314Q60 440 124 495T306
550H322Q436 550 490 491T525 314L516 259L471 221H202L200 211Q193 172 208 155T268 138Q319 138 380 156L443 174L473 34L410 15Z" />
<glyph unicode="&#xea;" glyph-name="ecircumflex" horiz-adv-x="546" d="M279 605H127L270 778H434L517 605H371L344 683H332L279 605ZM223 339L221 326H366L368 339Q380 404 312 404H292Q258 404 244 389T223 339ZM410 15Q325 -10 233 -10Q114 -10 60 51T24
226L39 314Q60 440 124 495T306 550H322Q436 550 490 491T525 314L516 259L471 221H202L200 211Q193 172 208 155T268 138Q319 138 380 156L443 174L473 34L410 15Z" />
<glyph unicode="&#xeb;" glyph-name="edieresis" horiz-adv-x="546" d="M500 605H352L380 763H528L500 605ZM292 605H144L172 763H320L292 605ZM223 339L221 326H366L368 339Q380 404 312 404H292Q258 404 244 389T223 339ZM410 15Q325 -10 233 -10Q114 -10 60
51T24 226L39 314Q60 440 124 495T306 550H322Q436 550 490 491T525 314L516 259L471 221H202L200 211Q193 172 208 155T268 138Q319 138 380 156L443 174L473 34L410 15Z" />
<glyph unicode="&#xec;" glyph-name="igrave" horiz-adv-x="283" d="M18 771H206L279 605H129L18 771ZM97 540H280L185 0H2L97 540Z" />
<glyph unicode="&#xed;" glyph-name="iacute" horiz-adv-x="283" d="M451 771L282 605H128L259 771H451ZM97 540H280L185 0H2L97 540Z" />
<glyph unicode="&#xee;" glyph-name="icircumflex" horiz-adv-x="283" d="M158 605H5L149 778H313L395 605H250L223 683H211L158 605ZM97 540H280L185 0H2L97 540Z" />
<glyph unicode="&#xef;" glyph-name="idieresis" horiz-adv-x="283" d="M378 605H230L258 763H406L378 605ZM170 605H22L50 763H198L170 605ZM97 540H280L185 0H2L97 540Z" />
<glyph unicode="&#xf0;" glyph-name="eth" horiz-adv-x="591" d="M290 -10H261Q125 -10 69 52T31 226L37 260Q52 345 104 386T229 428H232Q299 428 374 395L402 383L410 429Q416 469 415 487L366 435L291 498L330 540L229 560L283 710L413 686Q443 680 457 675L512
734L585 670L544 625Q612 555 586 391L558 219Q538 99 472 45T290 -10ZM269 147H288Q331 147 351 161T376 209L382 245L333 261Q300 271 276 271H271Q220 271 211 226L208 210Q197 147 269 147Z" />
<glyph unicode="&#xf1;" glyph-name="ntilde" horiz-adv-x="605" d="M294 605H184L198 683Q205 727 237 752T314 778H319Q362 778 395 748L411 734Q422 724 430 724H434Q449 724 453 743L459 778H569L555 700Q548 656 516 631T439 605H434Q390 605 357 635L342
649Q331 659 323 659H319Q304 659 300 640L294 605ZM286 358L246 345L185 0H2L97 540H250L251 496L288 512Q379 550 432 550H435Q511 550 551 500T577 368L512 0H329L387 329Q394 371 351 371H348Q326 371 286 358Z" />
<glyph unicode="&#xf2;" glyph-name="ograve" horiz-adv-x="568" d="M161 771H349L422 605H272L161 771ZM270 -10H248Q-18 -10 25 236L37 304Q61 442 122 496T297 550H319Q586 550 543 304L531 236Q507 99 446 45T270 -10ZM201 201Q189 138 254 138H266Q304 138
319 152T341 201L366 339Q378 402 313 402H301Q263 402 248 388T226 339L201 201Z" />
<glyph unicode="&#xf3;" glyph-name="oacute" horiz-adv-x="568" d="M593 771L424 605H270L401 771H593ZM270 -10H248Q-18 -10 25 236L37 304Q61 442 122 496T297 550H319Q586 550 543 304L531 236Q507 99 446 45T270 -10ZM201 201Q189 138 254 138H266Q304 138
319 152T341 201L366 339Q378 402 313 402H301Q263 402 248 388T226 339L201 201Z" />
<glyph unicode="&#xf4;" glyph-name="ocircumflex" horiz-adv-x="568" d="M300 605H148L291 778H455L538 605H392L365 683H353L300 605ZM270 -10H248Q-18 -10 25 236L37 304Q61 442 122 496T297 550H319Q586 550 543 304L531 236Q507 99 446 45T270 -10ZM201 201Q189
138 254 138H266Q304 138 319 152T341 201L366 339Q378 402 313 402H301Q263 402 248 388T226 339L201 201Z" />
<glyph unicode="&#xf5;" glyph-name="otilde" horiz-adv-x="568" d="M276 605H166L179 683Q187 727 219 752T295 778H300Q344 778 377 748L392 734Q403 724 412 724H416Q431 724 434 743L440 778H550L536 700Q529 656 497 631T421 605H416Q372 605 339 635L323
649Q313 659 304 659H300Q285 659 282 640L276 605ZM270 -10H248Q-18 -10 25 236L37 304Q61 442 122 496T297 550H319Q586 550 543 304L531 236Q507 99 446 45T270 -10ZM201 201Q189 138 254 138H266Q304 138 319 152T341 201L366 339Q378 402 313 402H301Q263
402 248 388T226 339L201 201Z" />
<glyph unicode="&#xf6;" glyph-name="odieresis" horiz-adv-x="568" d="M521 605H373L401 763H549L521 605ZM313 605H165L193 763H341L313 605ZM270 -10H248Q-18 -10 25 236L37 304Q61 442 122 496T297 550H319Q586 550 543 304L531 236Q507 99 446 45T270 -10ZM201
201Q189 138 254 138H266Q304 138 319 152T341 201L366 339Q378 402 313 402H301Q263 402 248 388T226 339L201 201Z" />
<glyph unicode="&#xf7;" glyph-name="divide" horiz-adv-x="490" d="M364 460H194L224 627H394L364 460ZM450 270H40L63 400H473L450 270ZM291 43H121L150 210H320L291 43Z" />
<glyph unicode="&#xf8;" glyph-name="oslash" horiz-adv-x="568" d="M270 -10H248Q-18 -10 25 236L37 304Q61 442 122 496T297 550H319Q586 550 543 304L531 236Q507 99 446 45T270 -10ZM213 352L187 207L324 415H288Q250 415 235 401T213 352ZM354 188L381 339L242
125H279Q317 125 332 139T354 188Z" />
<glyph unicode="&#xf9;" glyph-name="ugrave" horiz-adv-x="604" d="M179 771H367L440 605H290L179 771ZM315 28Q224 -10 171 -10H168Q92 -10 52 40T26 172L91 540H274L216 211Q208 169 252 169H255Q277 169 317 182L357 195L418 540H601L506 0H353V44L315 28Z" />
<glyph unicode="&#xfa;" glyph-name="uacute" horiz-adv-x="604" d="M611 771L442 605H288L419 771H611ZM315 28Q224 -10 171 -10H168Q92 -10 52 40T26 172L91 540H274L216 211Q208 169 252 169H255Q277 169 317 182L357 195L418 540H601L506 0H353V44L315 28Z" />
<glyph unicode="&#xfb;" glyph-name="ucircumflex" horiz-adv-x="604" d="M318 605H166L309 778H473L556 605H410L383 683H371L318 605ZM315 28Q224 -10 171 -10H168Q92 -10 52 40T26 172L91 540H274L216 211Q208 169 252 169H255Q277 169 317 182L357 195L418
540H601L506 0H353V44L315 28Z" />
<glyph unicode="&#xfc;" glyph-name="udieresis" horiz-adv-x="604" d="M539 605H391L419 763H567L539 605ZM331 605H183L211 763H359L331 605ZM315 28Q224 -10 171 -10H168Q92 -10 52 40T26 172L91 540H274L216 211Q208 169 252 169H255Q277 169 317 182L357
195L418 540H601L506 0H353V44L315 28Z" />
<glyph unicode="&#xfd;" glyph-name="yacute" horiz-adv-x="565" d="M592 771L423 605H269L400 771H592ZM103 -160H-8L19 -5H122Q163 -5 182 7T216 52L227 77H114L55 540H239L266 208H280L413 540H604L370 9Q330 -82 269 -121T103 -160Z" />
<glyph unicode="&#xfe;" glyph-name="thorn" horiz-adv-x="590" d="M157 -160H-26L125 700H303L270 511L290 519Q363 550 419 550H422Q503 550 543 497T567 344L544 211Q525 101 466 51T294 0H185L157 -160ZM208 158H294Q328 158 342 170T361 211L384 339Q391
381 350 381H347Q324 381 291 370L242 353L208 158Z" />
<glyph unicode="&#xff;" glyph-name="ydieresis" horiz-adv-x="565" d="M519 605H371L399 763H547L519 605ZM311 605H163L191 763H339L311 605ZM103 -160H-8L19 -5H122Q163 -5 182 7T216 52L227 77H114L55 540H239L266 208H280L413 540H604L370 9Q330 -82 269
-121T103 -160Z" />
<glyph unicode="&#x100;" glyph-name="Amacron" horiz-adv-x="712" d="M300 765L320 880H606L586 765H300ZM398 520L295 292H434L412 520H398ZM463 0L450 137H225L163 0H-40L301 700H561L656 0H463Z" />
<glyph unicode="&#x101;" glyph-name="amacron" horiz-adv-x="585" d="M208 605L228 720H514L494 605H208ZM234 159H237Q263 159 299 171L342 185L376 382H295Q261 382 247 370T228 329L205 201Q198 159 234 159ZM299 21Q226 -10 170 -10H167Q90 -10 48 45T22
196L45 329Q64 439 123 489T295 540H582L487 0H334L335 36L299 21Z" />
<glyph unicode="&#x102;" glyph-name="Abreve" horiz-adv-x="712" d="M509 907H632L626 874Q606 755 466 755H436Q365 755 327 787T298 874L304 907H427L422 880Q420 868 426 863T448 857H474Q500 857 504 880L509 907ZM398 520L295 292H434L412 520H398ZM463
0L450 137H225L163 0H-40L301 700H561L656 0H463Z" />
<glyph unicode="&#x103;" glyph-name="abreve" horiz-adv-x="585" d="M417 747H540L535 714Q515 595 375 595H345Q274 595 236 627T207 714L212 747H335L331 720Q329 708 335 703T357 697H383Q409 697 413 720L417 747ZM234 159H237Q263 159 299 171L342 185L376
382H295Q261 382 247 370T228 329L205 201Q198 159 234 159ZM299 21Q226 -10 170 -10H167Q90 -10 48 45T22 196L45 329Q64 439 123 489T295 540H582L487 0H334L335 36L299 21Z" />
<glyph unicode="&#x104;" glyph-name="Aogonek" horiz-adv-x="712" d="M398 520L295 292H434L412 520H398ZM633 -126L614 -234H545Q483 -234 456 -209T434 -140L435 -131Q438 -105 449 -88T499 -29L526 0H463L450 137H225L163 0H-40L301 700H561L656 0L585 -80Q569
-98 568 -105L567 -113Q565 -126 580 -126H633Z" />
<glyph unicode="&#x105;" glyph-name="aogonek" horiz-adv-x="585" d="M234 159H237Q263 159 299 171L342 185L376 382H295Q261 382 247 370T228 329L205 201Q198 159 234 159ZM464 -126L445 -234H376Q314 -234 287 -209T265 -140L266 -131Q269 -105 280 -88T330
-29L357 0H334L335 36L299 21Q226 -10 170 -10H167Q90 -10 48 45T22 196L45 329Q64 439 123 489T295 540H582L487 0L416 -80Q400 -98 399 -105L398 -113Q396 -126 411 -126H464Z" />
<glyph unicode="&#x106;" glyph-name="Cacute" horiz-adv-x="550" d="M612 931L443 765H289L420 931H612ZM590 700L562 540H343Q306 540 289 526T265 478L221 229Q208 160 276 160H495L467 0H258Q140 0 76 61T31 229L74 471Q97 598 159 649T341 700H590Z" />
<glyph unicode="&#x107;" glyph-name="cacute" horiz-adv-x="491" d="M555 771L386 605H232L363 771H555ZM490 540L464 392H301Q268 392 251 377T228 329L205 201Q193 138 252 138Q295 138 345 153L408 171L442 31L378 12Q304 -10 226 -10Q117 -10 62 50T25 216L45
329Q65 440 128 490T301 540H490Z" />
<glyph unicode="&#x108;" glyph-name="Ccircumflex" horiz-adv-x="550" d="M319 765H167L310 938H474L557 765H411L384 843H372L319 765ZM590 700L562 540H343Q306 540 289 526T265 478L221 229Q208 160 276 160H495L467 0H258Q140 0 76 61T31 229L74 471Q97 598
159 649T341 700H590Z" />
<glyph unicode="&#x109;" glyph-name="ccircumflex" horiz-adv-x="491" d="M262 605H109L253 778H417L499 605H354L327 683H315L262 605ZM490 540L464 392H301Q268 392 251 377T228 329L205 201Q193 138 252 138Q295 138 345 153L408 171L442 31L378 12Q304 -10
226 -10Q117 -10 62 50T25 216L45 329Q65 440 128 490T301 540H490Z" />
<glyph unicode="&#x10a;" glyph-name="Cdotaccent" horiz-adv-x="550" d="M447 765H277L306 932H476L447 765ZM590 700L562 540H343Q306 540 289 526T265 478L221 229Q208 160 276 160H495L467 0H258Q140 0 76 61T31 229L74 471Q97 598 159 649T341 700H590Z" />
<glyph unicode="&#x10b;" glyph-name="cdotaccent" horiz-adv-x="491" d="M389 605H219L249 772H419L389 605ZM490 540L464 392H301Q268 392 251 377T228 329L205 201Q193 138 252 138Q295 138 345 153L408 171L442 31L378 12Q304 -10 226 -10Q117 -10 62 50T25
216L45 329Q65 440 128 490T301 540H490Z" />
<glyph unicode="&#x10c;" glyph-name="Ccaron" horiz-adv-x="550" d="M435 938H587L444 765H280L197 938H343L370 860H382L435 938ZM590 700L562 540H343Q306 540 289 526T265 478L221 229Q208 160 276 160H495L467 0H258Q140 0 76 61T31 229L74 471Q97 598 159
649T341 700H590Z" />
<glyph unicode="&#x10d;" glyph-name="ccaron" horiz-adv-x="491" d="M378 778H530L386 605H222L140 778H286L313 700H325L378 778ZM490 540L464 392H301Q268 392 251 377T228 329L205 201Q193 138 252 138Q295 138 345 153L408 171L442 31L378 12Q304 -10 226
-10Q117 -10 62 50T25 216L45 329Q65 440 128 490T301 540H490Z" />
<glyph unicode="&#x10e;" glyph-name="Dcaron" horiz-adv-x="658" d="M489 938H641L498 765H334L251 938H397L424 860H436L489 938ZM344 0H7L130 700H447Q563 700 618 640T654 471L611 229Q590 108 526 54T344 0ZM342 160Q379 160 396 174T420 222L465 478Q476
540 409 540H292L225 160H342Z" />
<glyph unicode="&#x10f;" glyph-name="dcaron" horiz-adv-x="712" d="M665 700H817L807 643L742 468H625L665 700ZM234 159H237Q264 159 298 171L347 187L381 382H295Q261 382 247 370T228 329L205 201Q198 159 234 159ZM299 21Q226 -10 170 -10H167Q89 -10 47
45T22 196L45 329Q64 439 123 489T295 540H404L432 700H615L492 0H339L340 38L299 21Z" />
<glyph unicode="&#x110;" glyph-name="Dcroat" horiz-adv-x="684" d="M370 0H33L82 277H17L43 423H107L156 700H473Q589 700 644 640T680 471L637 229Q616 108 552 54T370 0ZM251 160H368Q405 160 422 174T446 222L491 478Q502 540 435 540H318L297 423H385L359
277H272L251 160Z" />
<glyph unicode="&#x111;" glyph-name="" horiz-adv-x="590" d="M239 159H242Q265 159 298 170L347 187L373 332H291Q254 332 239 318T217 269L205 201Q199 159 239 159ZM289 21Q212 -10 161 -10H158Q82 -10 41 33T17 172L34 264Q54 384 122 437T310 490H395L404
540H321L341 655H424L432 700H615L607 655H657L637 540H587L492 0H339L340 42L289 21Z" />
<glyph unicode="&#x112;" glyph-name="Emacron" horiz-adv-x="588" d="M238 765L258 880H544L524 765H238ZM502 0H7L130 700H625L597 540H289L269 428H555L528 272H242L222 160H530L502 0Z" />
<glyph unicode="&#x113;" glyph-name="emacron" horiz-adv-x="546" d="M179 605L199 720H485L465 605H179ZM223 339L221 326H366L368 339Q380 404 312 404H292Q258 404 244 389T223 339ZM410 15Q325 -10 233 -10Q114 -10 60 51T24 226L39 314Q60 440 124 495T306
550H322Q436 550 490 491T525 314L516 259L471 221H202L200 211Q193 172 208 155T268 138Q319 138 380 156L443 174L473 34L410 15Z" />
<glyph unicode="&#x114;" glyph-name="Ebreve" horiz-adv-x="588" d="M447 907H570L564 874Q544 755 404 755H374Q303 755 265 787T236 874L242 907H365L360 880Q358 868 364 863T386 857H412Q438 857 442 880L447 907ZM502 0H7L130 700H625L597 540H289L269 428H555L528
272H242L222 160H530L502 0Z" />
<glyph unicode="&#x115;" glyph-name="ebreve" horiz-adv-x="546" d="M388 747H511L505 714Q485 595 345 595H315Q244 595 206 627T177 714L183 747H306L301 720Q299 708 305 703T327 697H353Q379 697 383 720L388 747ZM223 339L221 326H366L368 339Q380 404 312
404H292Q258 404 244 389T223 339ZM410 15Q325 -10 233 -10Q114 -10 60 51T24 226L39 314Q60 440 124 495T306 550H322Q436 550 490 491T525 314L516 259L471 221H202L200 211Q193 172 208 155T268 138Q319 138 380 156L443 174L473 34L410 15Z" />
<glyph unicode="&#x116;" glyph-name="Edotaccent" horiz-adv-x="588" d="M466 765H296L325 932H495L466 765ZM502 0H7L130 700H625L597 540H289L269 428H555L528 272H242L222 160H530L502 0Z" />
<glyph unicode="&#x117;" glyph-name="edotaccent" horiz-adv-x="546" d="M407 605H237L266 772H436L407 605ZM223 339L221 326H366L368 339Q380 404 312 404H292Q258 404 244 389T223 339ZM410 15Q325 -10 233 -10Q114 -10 60 51T24 226L39 314Q60 440 124 495T306
550H322Q436 550 490 491T525 314L516 259L471 221H202L200 211Q193 172 208 155T268 138Q319 138 380 156L443 174L473 34L410 15Z" />
<glyph unicode="&#x118;" glyph-name="Eogonek" horiz-adv-x="588" d="M479 -126L460 -234H391Q329 -234 302 -209T280 -140L281 -131Q284 -105 295 -88T345 -29L372 0H7L130 700H625L597 540H289L269 428H555L528 272H242L222 160H530L502 0L431 -80Q415 -98
414 -105L413 -113Q411 -126 426 -126H479Z" />
<glyph unicode="&#x119;" glyph-name="eogonek" horiz-adv-x="546" d="M223 339L221 326H366L368 339Q380 404 312 404H292Q258 404 244 389T223 339ZM292 -126L273 -234H204Q142 -234 115 -209T93 -140L94 -131Q97 -105 108 -88T158 -29L179 -6Q88 8 48 67T24
226L39 314Q60 440 124 495T306 550H322Q436 550 490 491T525 314L516 259L471 221H202L200 211Q193 172 208 155T268 138Q319 138 380 156L443 174L473 34L410 15Q366 1 311 -5L244 -80Q228 -98 227 -105L226 -113Q224 -126 239 -126H292Z" />
<glyph unicode="&#x11a;" glyph-name="Ecaron" horiz-adv-x="588" d="M454 938H606L463 765H299L216 938H362L389 860H401L454 938ZM502 0H7L130 700H625L597 540H289L269 428H555L528 272H242L222 160H530L502 0Z" />
<glyph unicode="&#x11b;" glyph-name="ecaron" horiz-adv-x="546" d="M395 778H547L404 605H240L157 778H303L330 700H342L395 778ZM223 339L221 326H366L368 339Q380 404 312 404H292Q258 404 244 389T223 339ZM410 15Q325 -10 233 -10Q114 -10 60 51T24 226L39
314Q60 440 124 495T306 550H322Q436 550 490 491T525 314L516 259L471 221H202L200 211Q193 172 208 155T268 138Q319 138 380 156L443 174L473 34L410 15Z" />
<glyph unicode="&#x11c;" glyph-name="Gcircumflex" horiz-adv-x="630" d="M359 765H207L350 938H514L597 765H451L424 843H412L359 765ZM617 540H343Q306 540 289 526T265 478L220 222Q208 160 276 160H395L432 368H607L542 0H258Q137 0 75 61T31 229L75 478Q114
700 341 700H645L617 540Z" />
<glyph unicode="&#x11d;" glyph-name="gcircumflex" horiz-adv-x="592" d="M312 605H160L303 778H467L550 605H404L377 683H365L312 605ZM209 -160H4L31 -7H223Q315 -7 329 76L333 94L310 85Q237 54 181 54H178Q100 54 58 109T33 260L45 329Q65 439 124 489T295
540H589L509 86Q466 -160 209 -160ZM242 218H245Q274 218 306 229L360 248L384 387H293Q259 387 245 375T226 334L213 260Q206 218 242 218Z" />
<glyph unicode="&#x11e;" glyph-name="Gbreve" horiz-adv-x="630" d="M468 907H591L585 874Q565 755 425 755H395Q324 755 286 787T257 874L263 907H386L381 880Q379 868 385 863T407 857H433Q459 857 463 880L468 907ZM617 540H343Q306 540 289 526T265 478L220
222Q208 160 276 160H395L432 368H607L542 0H258Q137 0 75 61T31 229L75 478Q114 700 341 700H645L617 540Z" />
<glyph unicode="&#x11f;" glyph-name="gbreve" horiz-adv-x="592" d="M421 747H544L538 714Q518 595 378 595H348Q277 595 239 627T210 714L216 747H339L334 720Q332 708 338 703T360 697H386Q412 697 416 720L421 747ZM209 -160H4L31 -7H223Q315 -7 329 76L333
94L310 85Q237 54 181 54H178Q100 54 58 109T33 260L45 329Q65 439 124 489T295 540H589L509 86Q466 -160 209 -160ZM242 218H245Q274 218 306 229L360 248L384 387H293Q259 387 245 375T226 334L213 260Q206 218 242 218Z" />
<glyph unicode="&#x120;" glyph-name="Gdotaccent" horiz-adv-x="630" d="M487 765H317L346 932H516L487 765ZM617 540H343Q306 540 289 526T265 478L220 222Q208 160 276 160H395L432 368H607L542 0H258Q137 0 75 61T31 229L75 478Q114 700 341 700H645L617 540Z" />
<glyph unicode="&#x121;" glyph-name="gdotaccent" horiz-adv-x="592" d="M440 605H270L299 772H469L440 605ZM209 -160H4L31 -7H223Q315 -7 329 76L333 94L310 85Q237 54 181 54H178Q100 54 58 109T33 260L45 329Q65 439 124 489T295 540H589L509 86Q466 -160
209 -160ZM242 218H245Q274 218 306 229L360 248L384 387H293Q259 387 245 375T226 334L213 260Q206 218 242 218Z" />
<glyph unicode="&#x122;" glyph-name="Gcommaaccent" horiz-adv-x="630" d="M617 540H343Q306 540 289 526T265 478L220 222Q208 160 276 160H395L432 368H607L542 0H258Q137 0 75 61T31 229L75 478Q114 700 341 700H645L617 540ZM208 -65H360L344 -152L254 -297H167L208
-65Z" />
<glyph unicode="&#x123;" glyph-name="gcommaaccent" horiz-adv-x="592" d="M430 606H278L294 693L384 838H471L430 606ZM209 -160H4L31 -7H223Q315 -7 329 76L333 94L310 85Q237 54 181 54H178Q100 54 58 109T33 260L45 329Q65 439 124 489T295 540H589L509 86Q466
-160 209 -160ZM242 218H245Q274 218 306 229L360 248L384 387H293Q259 387 245 375T226 334L213 260Q206 218 242 218Z" />
<glyph unicode="&#x124;" glyph-name="Hcircumflex" horiz-adv-x="714" d="M401 765H249L392 938H556L639 765H493L466 843H454L401 765ZM421 0L469 270H245L197 0H7L130 700H320L273 430H497L544 700H734L611 0H421Z" />
<glyph unicode="&#x125;" glyph-name="hcircumflex" horiz-adv-x="605" d="M290 765H138L281 938H445L528 765H382L355 843H343L290 765ZM286 358L246 345L185 0H2L125 700H308L274 506L288 512Q379 550 432 550H435Q511 550 551 500T577 368L512 0H329L387 329Q394
371 351 371H348Q326 371 286 358Z" />
<glyph unicode="&#x126;" glyph-name="Hbar" horiz-adv-x="714" d="M497 430L511 510H287L273 430H497ZM421 0L469 270H245L197 0H7L97 510H42L63 631H118L130 700H320L308 631H532L544 700H734L722 631H777L756 510H701L611 0H421Z" />
<glyph unicode="&#x127;" glyph-name="hbar" horiz-adv-x="605" d="M287 318L238 302L185 0H2L97 540H47L67 655H117L125 700H308L300 655H383L363 540H280L267 465L298 477Q385 510 436 510H439Q511 510 549 467T570 328L512 0H329L380 289Q388 331 346 331H343Q326
331 287 318Z" />
<glyph unicode="&#x128;" glyph-name="Itilde" horiz-adv-x="300" d="M170 765H60L73 843Q81 887 113 912T189 938H194Q238 938 271 908L286 894Q297 884 306 884H310Q325 884 328 903L334 938H444L430 860Q423 816 391 791T315 765H310Q266 765 233 795L217 809Q207
819 198 819H194Q179 819 176 800L170 765ZM197 0H7L130 700H320L197 0Z" />
<glyph unicode="&#x129;" glyph-name="itilde" horiz-adv-x="283" d="M133 605H23L37 683Q44 727 76 752T153 778H158Q201 778 234 748L250 734Q261 724 269 724H273Q288 724 292 743L298 778H408L394 700Q387 656 355 631T278 605H273Q229 605 196 635L181 649Q170
659 162 659H158Q143 659 139 640L133 605ZM97 540H280L185 0H2L97 540Z" />
<glyph unicode="&#x12a;" glyph-name="Imacron" horiz-adv-x="300" d="M94 765L114 880H400L380 765H94ZM197 0H7L130 700H320L197 0Z" />
<glyph unicode="&#x12b;" glyph-name="imacron" horiz-adv-x="283" d="M57 605L77 720H363L343 605H57ZM97 540H280L185 0H2L97 540Z" />
<glyph unicode="&#x12c;" glyph-name="Ibreve" horiz-adv-x="300" d="M303 907H426L420 874Q400 755 260 755H230Q159 755 121 787T92 874L98 907H221L216 880Q214 868 220 863T242 857H268Q294 857 298 880L303 907ZM197 0H7L130 700H320L197 0Z" />
<glyph unicode="&#x12d;" glyph-name="ibreve" horiz-adv-x="283" d="M266 747H389L384 714Q364 595 224 595H194Q123 595 85 627T56 714L61 747H184L180 720Q178 708 184 703T206 697H232Q258 697 262 720L266 747ZM97 540H280L185 0H2L97 540Z" />
<glyph unicode="&#x12e;" glyph-name="Iogonek" horiz-adv-x="300" d="M174 -126L155 -234H86Q24 -234 -3 -209T-25 -140L-24 -131Q-21 -105 -10 -88T40 -29L67 0H7L130 700H320L197 0L126 -80Q110 -98 109 -105L108 -113Q106 -126 121 -126H174Z" />
<glyph unicode="&#x12f;" glyph-name="iogonek" horiz-adv-x="283" d="M312 720L288 585H105L129 720H312ZM162 -126L143 -234H74Q12 -234 -15 -209T-37 -140L-36 -131Q-33 -105 -22 -88T28 -29L55 0H2L97 540H280L185 0L114 -80Q98 -98 97 -105L96 -113Q94 -126
109 -126H162Z" />
<glyph unicode="&#x130;" glyph-name="Idot" horiz-adv-x="300" d="M322 765H152L181 932H351L322 765ZM197 0H7L130 700H320L197 0Z" />
<glyph unicode="&#x131;" glyph-name="dotlessi" horiz-adv-x="283" d="M97 540H280L185 0H2L97 540Z" />
<glyph unicode="&#x132;" glyph-name="IJ" horiz-adv-x="595" d="M281 -179L208 -35L271 -1Q294 12 304 27T320 71L430 700H620L510 74Q493 -20 463 -60T350 -143L281 -179ZM197 0H7L130 700H320L197 0Z" />
<glyph unicode="&#x133;" glyph-name="ij" horiz-adv-x="566" d="M571 585H388L412 720H595L571 585ZM312 720L288 585H105L129 720H312ZM563 540L482 79Q466 -11 442 -50T344 -135L286 -171L195 -25L248 9Q273 25 283 38T299 79L380 540H563ZM97 540H280L185
0H2L97 540Z" />
<glyph unicode="&#x134;" glyph-name="Jcircumflex" horiz-adv-x="295" d="M192 765H39L183 938H347L429 765H284L257 843H245L192 765ZM-19 -179L-92 -35L-29 -1Q-6 12 4 27T20 71L130 700H320L210 74Q193 -20 163 -60T50 -143L-19 -179Z" />
<glyph unicode="&#x135;" glyph-name="jcircumflex" horiz-adv-x="283" d="M158 605H5L149 778H313L395 605H250L223 683H211L158 605ZM280 540L199 79Q183 -11 159 -50T61 -135L3 -171L-88 -25L-35 9Q-10 25 0 38T16 79L97 540H280Z" />
<glyph unicode="&#x136;" glyph-name="Kcommaaccent" horiz-adv-x="687" d="M240 270L192 0H7L130 700H315L268 430H355L541 700H743L501 345L632 0H432L334 270H240ZM219 -65H371L355 -152L265 -297H178L219 -65Z" />
<glyph unicode="&#x137;" glyph-name="kcommaaccent" horiz-adv-x="578" d="M343 0L289 201H220L185 0H2L125 700H308L250 371H320L438 540H625L447 280L530 0H343ZM174 -65H326L310 -152L220 -297H133L174 -65Z" />
<glyph unicode="&#x139;" glyph-name="Lacute" horiz-adv-x="545" d="M487 931L318 765H164L295 931H487ZM472 0H7L130 700H320L225 160H500L472 0Z" />
<glyph unicode="&#x13a;" glyph-name="lacute" horiz-adv-x="283" d="M478 931L309 765H155L286 931H478ZM308 700L185 0H2L125 700H308Z" />
<glyph unicode="&#x13b;" glyph-name="Lcommaaccent" horiz-adv-x="545" d="M472 0H7L130 700H320L225 160H500L472 0ZM165 -65H317L302 -152L211 -297H124L165 -65Z" />
<glyph unicode="&#x13c;" glyph-name="lcommaaccent" horiz-adv-x="283" d="M308 700L185 0H2L125 700H308ZM6 -65H158L143 -152L52 -297H-35L6 -65Z" />
<glyph unicode="&#x13d;" glyph-name="Lcaron" horiz-adv-x="545" d="M412 700H564L554 643L489 468H372L412 700ZM472 0H7L130 700H320L225 160H500L472 0Z" />
<glyph unicode="&#x13e;" glyph-name="lcaron" horiz-adv-x="405" d="M358 700H510L500 643L435 468H318L358 700ZM308 700L185 0H2L125 700H308Z" />
<glyph unicode="&#x13f;" glyph-name="Ldot" horiz-adv-x="545" d="M472 0H7L130 700H320L225 160H500L472 0ZM519 330H349L379 497H549L519 330Z" />
<glyph unicode="&#x140;" glyph-name="ldot" horiz-adv-x="453" d="M308 700L185 0H2L125 700H308ZM463 330H293L323 497H493L463 330Z" />
<glyph unicode="&#x141;" glyph-name="Lslash" horiz-adv-x="562" d="M498 0H33L76 243L1 215L28 366L102 394L156 700H346L305 469L427 514L402 363L279 317L251 160H526L498 0Z" />
<glyph unicode="&#x142;" glyph-name="lslash" horiz-adv-x="337" d="M212 0H29L74 256L6 236L29 370L98 391L152 700H335L292 451L360 472L336 335L267 314L212 0Z" />
<glyph unicode="&#x143;" glyph-name="Nacute" horiz-adv-x="712" d="M683 931L514 765H360L491 931H683ZM309 700L471 311H485L553 700H732L609 0H430L269 389H255L186 0H7L130 700H309Z" />
<glyph unicode="&#x144;" glyph-name="nacute" horiz-adv-x="605" d="M612 771L443 605H289L420 771H612ZM286 358L246 345L185 0H2L97 540H250L251 496L288 512Q379 550 432 550H435Q511 550 551 500T577 368L512 0H329L387 329Q394 371 351 371H348Q326 371 286 358Z" />
<glyph unicode="&#x145;" glyph-name="Ncommaaccent" horiz-adv-x="712" d="M309 700L471 311H485L553 700H732L609 0H430L269 389H255L186 0H7L130 700H309ZM249 -65H401L385 -152L295 -297H208L249 -65Z" />
<glyph unicode="&#x146;" glyph-name="ncommaaccent" horiz-adv-x="605" d="M286 358L246 345L185 0H2L97 540H250L251 496L288 512Q379 550 432 550H435Q511 550 551 500T577 368L512 0H329L387 329Q394 371 351 371H348Q326 371 286 358ZM167 -65H319L304 -152L213
-297H126L167 -65Z" />
<glyph unicode="&#x147;" glyph-name="Ncaron" horiz-adv-x="712" d="M516 938H668L525 765H361L278 938H424L451 860H463L516 938ZM309 700L471 311H485L553 700H732L609 0H430L269 389H255L186 0H7L130 700H309Z" />
<glyph unicode="&#x148;" glyph-name="ncaron" horiz-adv-x="605" d="M435 778H587L443 605H279L197 778H343L370 700H382L435 778ZM286 358L246 345L185 0H2L97 540H250L251 496L288 512Q379 550 432 550H435Q511 550 551 500T577 368L512 0H329L387 329Q394
371 351 371H348Q326 371 286 358Z" />
<glyph unicode="&#x14c;" glyph-name="Omacron" horiz-adv-x="654" d="M271 765L291 880H577L557 765H271ZM333 -10H271Q130 -10 71 53T31 229L74 471Q97 602 161 656T358 710H420Q556 710 613 647T650 471L607 229Q584 98 522 44T333 -10ZM220 222Q213 183 229
167T286 150H328Q372 150 390 165T416 222L461 478Q468 517 452 533T395 550H353Q309 550 291 535T265 478L220 222Z" />
<glyph unicode="&#x14d;" glyph-name="omacron" horiz-adv-x="568" d="M200 605L220 720H506L486 605H200ZM270 -10H248Q-18 -10 25 236L37 304Q61 442 122 496T297 550H319Q586 550 543 304L531 236Q507 99 446 45T270 -10ZM201 201Q189 138 254 138H266Q304
138 319 152T341 201L366 339Q378 402 313 402H301Q263 402 248 388T226 339L201 201Z" />
<glyph unicode="&#x14e;" glyph-name="Obreve" horiz-adv-x="654" d="M480 907H603L597 874Q577 755 437 755H407Q336 755 298 787T269 874L275 907H398L393 880Q391 868 397 863T419 857H445Q471 857 475 880L480 907ZM333 -10H271Q130 -10 71 53T31 229L74 471Q97
602 161 656T358 710H420Q556 710 613 647T650 471L607 229Q584 98 522 44T333 -10ZM220 222Q213 183 229 167T286 150H328Q372 150 390 165T416 222L461 478Q468 517 452 533T395 550H353Q309 550 291 535T265 478L220 222Z" />
<glyph unicode="&#x14f;" glyph-name="obreve" horiz-adv-x="568" d="M409 747H532L526 714Q506 595 366 595H336Q265 595 227 627T198 714L204 747H327L322 720Q320 708 326 703T348 697H374Q400 697 404 720L409 747ZM270 -10H248Q-18 -10 25 236L37 304Q61
442 122 496T297 550H319Q586 550 543 304L531 236Q507 99 446 45T270 -10ZM201 201Q189 138 254 138H266Q304 138 319 152T341 201L366 339Q378 402 313 402H301Q263 402 248 388T226 339L201 201Z" />
<glyph unicode="&#x150;" glyph-name="Ohungarumlaut" horiz-adv-x="654" d="M524 931L385 765H245L366 931H524ZM734 931L585 765H445L576 931H734ZM333 -10H271Q130 -10 71 53T31 229L74 471Q97 602 161 656T358 710H420Q556 710 613 647T650 471L607 229Q584
98 522 44T333 -10ZM220 222Q213 183 229 167T286 150H328Q372 150 390 165T416 222L461 478Q468 517 452 533T395 550H353Q309 550 291 535T265 478L220 222Z" />
<glyph unicode="&#x151;" glyph-name="ohungarumlaut" horiz-adv-x="568" d="M453 771L314 605H174L295 771H453ZM663 771L514 605H374L505 771H663ZM270 -10H248Q-18 -10 25 236L37 304Q61 442 122 496T297 550H319Q586 550 543 304L531 236Q507 99 446 45T270
-10ZM201 201Q189 138 254 138H266Q304 138 319 152T341 201L366 339Q378 402 313 402H301Q263 402 248 388T226 339L201 201Z" />
<glyph unicode="&#x152;" glyph-name="OE" horiz-adv-x="934" d="M286 160H405L473 540H353Q309 540 290 527T265 478L220 222Q214 188 229 174T286 160ZM271 0Q130 0 71 60T31 229L74 471Q96 596 161 648T358 700H971L943 540H660L640 428H901L873 272H612L593
160H876L847 0H271Z" />
<glyph unicode="&#x153;" glyph-name="oe" horiz-adv-x="872" d="M549 339L547 326H692L694 339Q706 404 638 404H618Q584 404 570 389T549 339ZM201 201Q189 138 254 138H266Q304 138 319 152T341 201L366 339Q378 402 313 402H301Q263 402 248 388T226 339L201
201ZM559 -10Q474 -10 418 24Q363 -10 270 -10H248Q-18 -10 25 236L37 304Q61 442 122 496T297 550H319Q421 550 478 514Q537 550 637 550H653Q763 550 816 491T851 314L842 259L797 221H528Q528 219 527 215T525 207Q520 171 535 155T594 138Q647 138 708 156L771
174L796 36L733 17Q641 -10 559 -10Z" />
<glyph unicode="&#x154;" glyph-name="Racute" horiz-adv-x="662" d="M668 931L499 765H345L476 931H668ZM292 540L263 377H391Q449 377 458 429L468 488Q477 540 420 540H292ZM197 0H7L130 700H441Q563 700 616 647T656 488L648 429Q638 351 599 306T487 244L599
0H394L306 217H235L197 0Z" />
<glyph unicode="&#x155;" glyph-name="racute" horiz-adv-x="425" d="M522 771L353 605H199L330 771H522ZM185 0H2L97 540H250L251 484L279 501Q361 550 433 550H454L423 375H406Q327 375 277 357L246 346L185 0Z" />
<glyph unicode="&#x156;" glyph-name="Rcommaaccent" horiz-adv-x="662" d="M292 540L263 377H391Q449 377 458 429L468 488Q477 540 420 540H292ZM197 0H7L130 700H441Q563 700 616 647T656 488L648 429Q638 351 599 306T487 244L599 0H394L306 217H235L197 0ZM214
-65H366L350 -152L260 -297H173L214 -65Z" />
<glyph unicode="&#x157;" glyph-name="rcommaaccent" horiz-adv-x="425" d="M185 0H2L97 540H250L251 484L279 501Q361 550 433 550H454L423 375H406Q327 375 277 357L246 346L185 0ZM6 -65H158L142 -152L52 -297H-35L6 -65Z" />
<glyph unicode="&#x158;" glyph-name="Rcaron" horiz-adv-x="662" d="M491 938H643L500 765H336L253 938H399L426 860H438L491 938ZM292 540L263 377H391Q449 377 458 429L468 488Q477 540 420 540H292ZM197 0H7L130 700H441Q563 700 616 647T656 488L648 429Q638
351 599 306T487 244L599 0H394L306 217H235L197 0Z" />
<glyph unicode="&#x159;" glyph-name="rcaron" horiz-adv-x="425" d="M345 778H497L353 605H189L107 778H253L280 700H292L345 778ZM185 0H2L97 540H250L251 484L279 501Q361 550 433 550H454L423 375H406Q327 375 277 357L246 346L185 0Z" />
<glyph unicode="&#x15a;" glyph-name="Sacute" horiz-adv-x="569" d="M622 931L453 765H299L430 931H622ZM-9 0L19 160H291Q331 160 337 192L339 203Q342 221 337 230T314 245L186 291Q42 343 69 503L72 521Q86 607 147 653T314 700H600L572 540H300Q267 540 260
508L258 498Q252 468 286 455L411 408Q484 380 512 332T530 210L526 184Q512 97 449 49T283 0H-9Z" />
<glyph unicode="&#x15b;" glyph-name="sacute" horiz-adv-x="499" d="M548 771L379 605H225L356 771H548ZM-11 0L15 148H257Q284 148 287 167L288 174Q290 185 283 190T256 197L179 206Q100 215 68 257T49 378L53 403Q76 540 240 540H501L475 392H238Q216 392
213 375L212 369Q210 358 215 353T238 345L341 332Q476 314 454 184L447 141Q436 75 387 38T257 0H-11Z" />
<glyph unicode="&#x15c;" glyph-name="Scircumflex" horiz-adv-x="569" d="M329 765H176L320 938H484L566 765H421L394 843H382L329 765ZM-9 0L19 160H291Q331 160 337 192L339 203Q342 221 337 230T314 245L186 291Q42 343 69 503L72 521Q86 607 147 653T314
700H600L572 540H300Q267 540 260 508L258 498Q252 468 286 455L411 408Q484 380 512 332T530 210L526 184Q512 97 449 49T283 0H-9Z" />
<glyph unicode="&#x15d;" glyph-name="scircumflex" horiz-adv-x="499" d="M266 605H113L257 778H421L503 605H358L331 683H319L266 605ZM-11 0L15 148H257Q284 148 287 167L288 174Q290 185 283 190T256 197L179 206Q100 215 68 257T49 378L53 403Q76 540 240
540H501L475 392H238Q216 392 213 375L212 369Q210 358 215 353T238 345L341 332Q476 314 454 184L447 141Q436 75 387 38T257 0H-11Z" />
<glyph unicode="&#x15e;" glyph-name="Scedilla" horiz-adv-x="569" d="M232 -224H119L135 -131H232Q244 -131 246 -121L247 -112Q249 -100 237 -100H191L176 -81L190 0H-9L19 160H291Q331 160 337 192L339 203Q342 221 337 230T314 245L186 291Q42 343 69 503L72
521Q86 607 147 653T314 700H600L572 540H300Q267 540 260 508L258 498Q252 468 286 455L411 408Q484 380 512 332T530 210L526 184Q512 97 450 49T284 0L280 -26H290Q366 -26 356 -104L352 -134Q346 -182 319 -203T232 -224Z" />
<glyph unicode="&#x15f;" glyph-name="scedilla" horiz-adv-x="499" d="M306 -134Q300 -182 273 -203T186 -224H74L90 -131H186Q198 -131 200 -121L201 -112Q203 -100 191 -100H145L131 -81L145 0H-11L15 148H257Q284 148 287 167L288 174Q290 185 283 190T256
197L179 206Q100 215 68 257T49 378L53 403Q76 540 240 540H501L475 392H238Q216 392 213 375L212 369Q210 358 215 353T238 345L341 332Q476 314 454 184L447 141Q436 75 387 38T257 0H239L234 -26H244Q320 -26 310 -104L306 -134Z" />
<glyph unicode="&#x160;" glyph-name="Scaron" horiz-adv-x="569" d="M445 938H597L453 765H289L207 938H353L380 860H392L445 938ZM-9 0L19 160H291Q331 160 337 192L339 203Q342 221 337 230T314 245L186 291Q42 343 69 503L72 521Q86 607 147 653T314 700H600L572
540H300Q267 540 260 508L258 498Q252 468 286 455L411 408Q484 380 512 332T530 210L526 184Q512 97 449 49T283 0H-9Z" />
<glyph unicode="&#x161;" glyph-name="scaron" horiz-adv-x="499" d="M382 778H534L390 605H226L144 778H290L317 700H329L382 778ZM-11 0L15 148H257Q284 148 287 167L288 174Q290 185 283 190T256 197L179 206Q100 215 68 257T49 378L53 403Q76 540 240 540H501L475
392H238Q216 392 213 375L212 369Q210 358 215 353T238 345L341 332Q476 314 454 184L447 141Q436 75 387 38T257 0H-11Z" />
<glyph unicode="&#x162;" glyph-name="uni0162" horiz-adv-x="620" d="M670 700L642 540H452L357 0H167L262 540H72L100 700H670ZM175 -65H327L311 -152L221 -297H134L175 -65Z" />
<glyph unicode="&#x163;" glyph-name="uni0163" horiz-adv-x="442" d="M418 392H292L255 183Q249 149 277 149Q297 149 332 163L358 173L392 43L358 28Q272 -10 203 -10Q130 -10 93 40T70 171L109 392H36L62 540H148L187 640H336L318 540H444L418 392ZM87 -65H239L223
-152L133 -297H46L87 -65Z" />
<glyph unicode="&#x164;" glyph-name="Tcaron" horiz-adv-x="620" d="M470 938H622L479 765H315L232 938H378L405 860H417L470 938ZM670 700L642 540H452L357 0H167L262 540H72L100 700H670Z" />
<glyph unicode="&#x165;" glyph-name="tcaron" horiz-adv-x="442" d="M380 829H532L522 772L457 597H340L380 829ZM418 392H292L255 183Q249 149 277 149Q297 149 332 163L358 173L392 43L358 28Q272 -10 203 -10Q130 -10 93 40T70 171L109 392H36L62 540H148L187
640H336L318 540H444L418 392Z" />
<glyph unicode="&#x166;" glyph-name="Tbar" horiz-adv-x="620" d="M516 224H396L357 0H167L206 224H86L112 370H232L262 540H72L100 700H670L642 540H452L422 370H542L516 224Z" />
<glyph unicode="&#x167;" glyph-name="tbar" horiz-adv-x="447" d="M356 29Q275 -10 198 -10Q122 -10 88 32T68 161L78 215H5L25 330H98L109 392H36L62 540H148L187 640H336L318 540H449L423 392H292L281 330H385L365 215H261L255 183Q249 149 277 149Q294 149
330 164L356 175L390 45L356 29Z" />
<glyph unicode="&#x168;" glyph-name="Utilde" horiz-adv-x="667" d="M350 765H240L254 843Q261 887 293 912T370 938H375Q418 938 451 908L467 894Q478 884 486 884H490Q505 884 509 903L515 938H625L611 860Q604 816 572 791T495 765H490Q446 765 413 795L398
809Q387 819 379 819H375Q360 819 356 800L350 765ZM315 700L232 227Q225 188 241 172T298 155H331Q375 155 393 170T419 227L502 700H692L609 227Q587 101 522 46T340 -10H277Q147 -10 85 53T42 227L125 700H315Z" />
<glyph unicode="&#x169;" glyph-name="utilde" horiz-adv-x="604" d="M294 605H184L197 683Q205 727 237 752T313 778H318Q362 778 395 748L410 734Q421 724 430 724H434Q449 724 452 743L458 778H568L554 700Q547 656 515 631T439 605H434Q390 605 357 635L341
649Q331 659 322 659H318Q303 659 300 640L294 605ZM315 28Q224 -10 171 -10H168Q92 -10 52 40T26 172L91 540H274L216 211Q208 169 252 169H255Q277 169 317 182L357 195L418 540H601L506 0H353V44L315 28Z" />
<glyph unicode="&#x16a;" glyph-name="Umacron" horiz-adv-x="667" d="M274 765L294 880H580L560 765H274ZM315 700L232 227Q225 188 241 172T298 155H331Q375 155 393 170T419 227L502 700H692L609 227Q587 101 522 46T340 -10H277Q147 -10 85 53T42 227L125 700H315Z" />
<glyph unicode="&#x16b;" glyph-name="umacron" horiz-adv-x="604" d="M218 605L238 720H524L504 605H218ZM315 28Q224 -10 171 -10H168Q92 -10 52 40T26 172L91 540H274L216 211Q208 169 252 169H255Q277 169 317 182L357 195L418 540H601L506 0H353V44L315 28Z" />
<glyph unicode="&#x16c;" glyph-name="Ubreve" horiz-adv-x="667" d="M483 907H606L601 874Q581 755 441 755H411Q340 755 302 787T273 874L278 907H401L397 880Q395 868 401 863T423 857H449Q475 857 479 880L483 907ZM315 700L232 227Q225 188 241 172T298 155H331Q375
155 393 170T419 227L502 700H692L609 227Q587 101 522 46T340 -10H277Q147 -10 85 53T42 227L125 700H315Z" />
<glyph unicode="&#x16d;" glyph-name="ubreve" horiz-adv-x="604" d="M427 747H550L544 714Q524 595 384 595H354Q283 595 245 627T216 714L222 747H345L340 720Q338 708 344 703T366 697H392Q418 697 422 720L427 747ZM315 28Q224 -10 171 -10H168Q92 -10 52
40T26 172L91 540H274L216 211Q208 169 252 169H255Q277 169 317 182L357 195L418 540H601L506 0H353V44L315 28Z" />
<glyph unicode="&#x16e;" glyph-name="Uring" horiz-adv-x="667" d="M441 755H411Q346 755 311 785T284 869L288 893Q297 948 335 977T435 1007H465Q530 1007 565 976T592 893L588 869Q579 813 542 784T441 755ZM396 873Q393 859 401 851T425 842H441Q471 842
478 873L481 889Q486 920 451 920H435Q404 920 399 889L396 873ZM315 700L232 227Q225 188 241 172T298 155H331Q375 155 393 170T419 227L502 700H692L609 227Q587 101 522 46T340 -10H277Q147 -10 85 53T42 227L125 700H315Z" />
<glyph unicode="&#x16f;" glyph-name="uring" horiz-adv-x="604" d="M384 595H354Q289 595 254 625T227 709L231 733Q240 788 278 817T378 847H408Q473 847 508 817T535 733L531 709Q522 653 485 624T384 595ZM339 713Q336 699 344 691T368 682H384Q414 682 421
713L424 729Q427 743 419 751T394 760H378Q349 760 342 729L339 713ZM315 28Q224 -10 171 -10H168Q92 -10 52 40T26 172L91 540H274L216 211Q208 169 252 169H255Q277 169 317 182L357 195L418 540H601L506 0H353V44L315 28Z" />
<glyph unicode="&#x170;" glyph-name="Uhungarumlaut" horiz-adv-x="671" d="M528 931L389 765H249L370 931H528ZM738 931L589 765H449L580 931H738ZM315 700L232 227Q225 188 241 172T298 155H331Q375 155 393 170T419 227L502 700H692L609 227Q587 101 522 46T340
-10H277Q147 -10 85 53T42 227L125 700H315Z" />
<glyph unicode="&#x171;" glyph-name="uhungarumlaut" horiz-adv-x="604" d="M471 771L332 605H192L313 771H471ZM681 771L532 605H392L523 771H681ZM315 28Q224 -10 171 -10H168Q92 -10 52 40T26 172L91 540H274L216 211Q208 169 252 169H255Q277 169 317 182L357
195L418 540H601L506 0H353V44L315 28Z" />
<glyph unicode="&#x172;" glyph-name="Uogonek" horiz-adv-x="667" d="M339 -234H270Q208 -234 181 -209T159 -140L160 -131Q163 -105 174 -88T224 -29L243 -9Q130 -1 77 61T42 227L125 700H315L232 227Q225 188 241 172T298 155H331Q375 155 393 170T419 227L502
700H692L609 227Q588 111 531 55T373 -9L310 -80Q294 -98 293 -105L292 -113Q290 -126 305 -126H358L339 -234Z" />
<glyph unicode="&#x173;" glyph-name="uogonek" horiz-adv-x="604" d="M483 -126L464 -234H395Q333 -234 306 -209T284 -140L285 -131Q288 -105 299 -88T349 -29L376 0H353V44L315 28Q224 -10 171 -10H168Q92 -10 52 40T26 172L91 540H274L216 211Q208 169 252
169H255Q277 169 317 182L357 195L418 540H601L506 0L435 -80Q419 -98 418 -105L417 -113Q415 -126 430 -126H483Z" />
<glyph unicode="&#x174;" glyph-name="Wcircumflex" horiz-adv-x="1027" d="M558 765H405L549 938H713L795 765H650L623 843H611L558 765ZM838 0H566L563 510H549L366 0H93L87 700H287L264 190H278L459 700H714L717 190H731L886 700H1090L838 0Z" />
<glyph unicode="&#x175;" glyph-name="wcircumflex" horiz-adv-x="878" d="M455 605H303L446 778H610L693 605H547L520 683H508L455 605ZM723 0H467L460 298L464 376H450L428 298L315 0H59L60 540H236L226 308L215 148H229L279 308L374 540H590L603 308L597 148H611L656
308L728 540H912L723 0Z" />
<glyph unicode="&#x176;" glyph-name="Ycircumflex" horiz-adv-x="681" d="M385 765H232L376 938H540L622 765H477L450 843H438L385 765ZM197 0L240 242L80 700H280L359 428H373L549 700H751L430 242L387 0H197Z" />
<glyph unicode="&#x177;" glyph-name="ycircumflex" horiz-adv-x="565" d="M299 605H146L290 778H454L536 605H391L364 683H352L299 605ZM103 -160H-8L19 -5H122Q163 -5 182 7T216 52L227 77H114L55 540H239L266 208H280L413 540H604L370 9Q330 -82 269 -121T103 -160Z" />
<glyph unicode="&#x178;" glyph-name="Ydieresis" horiz-adv-x="681" d="M605 765H457L485 923H633L605 765ZM397 765H249L277 923H425L397 765ZM197 0L240 242L80 700H280L359 428H373L549 700H751L430 242L387 0H197Z" />
<glyph unicode="&#x179;" glyph-name="Zacute" horiz-adv-x="591" d="M627 931L458 765H304L435 931H627ZM541 160L513 0H-18L6 134L351 526L353 540H88L116 700H629L606 566L260 174L257 160H541Z" />
<glyph unicode="&#x17a;" glyph-name="zacute" horiz-adv-x="506" d="M541 771L372 605H218L349 771H541ZM80 540H515L492 408L244 160L242 146H454L428 0H-15L8 132L254 380L256 394H54L80 540Z" />
<glyph unicode="&#x17b;" glyph-name="Zdotaccent" horiz-adv-x="591" d="M463 765H293L322 932H492L463 765ZM541 160L513 0H-18L6 134L351 526L353 540H88L116 700H629L606 566L260 174L257 160H541Z" />
<glyph unicode="&#x17c;" glyph-name="zdotaccent" horiz-adv-x="506" d="M386 605H216L245 772H415L386 605ZM80 540H515L492 408L244 160L242 146H454L428 0H-15L8 132L254 380L256 394H54L80 540Z" />
<glyph unicode="&#x17d;" glyph-name="Zcaron" horiz-adv-x="591" d="M456 938H608L464 765H300L218 938H364L391 860H403L456 938ZM541 160L513 0H-18L6 134L351 526L353 540H88L116 700H629L606 566L260 174L257 160H541Z" />
<glyph unicode="&#x17e;" glyph-name="zcaron" horiz-adv-x="506" d="M384 778H536L393 605H229L146 778H292L319 700H331L384 778ZM80 540H515L492 408L244 160L242 146H454L428 0H-15L8 132L254 380L256 394H54L80 540Z" />
<glyph unicode="&#x192;" glyph-name="florin" horiz-adv-x="523" d="M-45 0H-9Q19 0 32 9T55 46L177 392H104L156 540H229L238 562Q273 647 326 683T471 720H594L548 590H468Q441 590 429 581T408 550L404 540H530L478 392H357L218 -2Q188 -87 133 -123T-15 -160H-101L-45
0Z" />
<glyph unicode="&#x218;" glyph-name="uni0218" horiz-adv-x="569" d="M-9 0L19 160H291Q331 160 337 192L339 203Q342 221 337 230T314 245L186 291Q42 343 69 503L72 521Q86 607 147 653T314 700H600L572 540H300Q267 540 260 508L258 498Q252 468 286 455L411
408Q484 380 512 332T530 210L526 184Q512 97 449 49T283 0H-9ZM149 -65H301L286 -152L195 -297H108L149 -65Z" />
<glyph unicode="&#x219;" glyph-name="uni0219" horiz-adv-x="499" d="M-11 0L15 148H257Q284 148 287 167L288 174Q290 185 283 190T256 197L179 206Q100 215 68 257T49 378L53 403Q76 540 240 540H501L475 392H238Q216 392 213 375L212 369Q210 358 215 353T238
345L341 332Q476 314 454 184L447 141Q436 75 387 38T257 0H-11ZM114 -65H266L251 -152L160 -297H73L114 -65Z" />
<glyph unicode="&#x21a;" glyph-name="uni021A" horiz-adv-x="620" d="M670 700L642 540H452L357 0H167L262 540H72L100 700H670ZM175 -65H327L311 -152L221 -297H134L175 -65Z" />
<glyph unicode="&#x21b;" glyph-name="uni021B" horiz-adv-x="442" d="M418 392H292L255 183Q249 149 277 149Q297 149 332 163L358 173L392 43L358 28Q272 -10 203 -10Q130 -10 93 40T70 171L109 392H36L62 540H148L187 640H336L318 540H444L418 392ZM87 -65H239L223
-152L133 -297H46L87 -65Z" />
<glyph unicode="&#x237;" glyph-name="dotlessj" horiz-adv-x="283" d="M280 540L199 79Q183 -11 159 -50T61 -135L3 -171L-88 -25L-35 9Q-10 25 0 38T16 79L97 540H280Z" />
<glyph unicode="&#x2c6;" glyph-name="circumflex" horiz-adv-x="500" d="M266 605H114L257 778H421L504 605H358L331 683H319L266 605Z" />
<glyph unicode="&#x2c7;" glyph-name="caron" horiz-adv-x="500" d="M382 778H534L391 605H227L144 778H290L317 700H329L382 778Z" />
<glyph unicode="&#x2d8;" glyph-name="breve" horiz-adv-x="500" d="M375 747H498L492 714Q472 595 332 595H302Q231 595 193 627T164 714L170 747H293L288 720Q286 708 292 703T314 697H340Q366 697 370 720L375 747Z" />
<glyph unicode="&#x2d9;" glyph-name="dotaccent" horiz-adv-x="500" d="M394 605H224L253 772H423L394 605Z" />
<glyph unicode="&#x2da;" glyph-name="ring" horiz-adv-x="500" d="M332 595H302Q237 595 202 625T175 709L179 733Q188 788 226 817T326 847H356Q421 847 456 817T483 733L479 709Q470 653 433 624T332 595ZM287 713Q284 699 292 691T316 682H332Q362 682 369
713L372 729Q375 743 367 751T342 760H326Q297 760 290 729L287 713Z" />
<glyph unicode="&#x2db;" glyph-name="ogonek" horiz-adv-x="500" d="M269 -126L250 -234H181Q119 -234 92 -209T70 -140L71 -131Q74 -105 85 -88T135 -29L178 17H282L292 0L221 -80Q205 -98 204 -105L203 -113Q201 -126 216 -126H269Z" />
<glyph unicode="&#x2dc;" glyph-name="tilde" horiz-adv-x="500" d="M242 605H132L145 683Q153 727 185 752T261 778H266Q310 778 343 748L358 734Q369 724 378 724H382Q397 724 400 743L406 778H516L502 700Q495 656 463 631T387 605H382Q338 605 305 635L289
649Q279 659 270 659H266Q251 659 248 640L242 605Z" />
<glyph unicode="&#x2dd;" glyph-name="hungarumlaut" horiz-adv-x="500" d="M419 771L280 605H140L261 771H419ZM629 771L480 605H340L471 771H629Z" />
<glyph unicode="&#x394;" glyph-name="uni0394" horiz-adv-x="715" d="M396 520L231 155H446L410 520H396ZM-40 0L301 700H561L656 0H-40Z" />
<glyph unicode="&#x3a9;" glyph-name="uni03A9" horiz-adv-x="674" d="M298 170L268 0H-11L17 160H145Q37 205 59 329L84 471Q107 602 171 656T368 710H430Q565 710 622 647T660 471L635 329Q612 198 515 160H617L589 0H310L340 170Q418 179 430 242L471 478Q478
517 462 533T405 550H363Q319 550 301 535T275 478L234 242Q224 185 298 170Z" />
<glyph unicode="&#x3c0;" glyph-name="pi" horiz-adv-x="745" d="M649 19Q585 -10 532 -10Q459 -10 420 36T396 170L434 385H300L232 0H49L117 385H37L64 540H749L722 385H617L580 178Q574 149 598 149Q612 149 631 157L653 166L689 37L649 19Z" />
<glyph unicode="&#x1e80;" glyph-name="Wgrave" horiz-adv-x="1027" d="M418 931H606L679 765H529L418 931ZM838 0H566L563 510H549L366 0H93L87 700H287L264 190H278L459 700H714L717 190H731L886 700H1090L838 0Z" />
<glyph unicode="&#x1e81;" glyph-name="wgrave" horiz-adv-x="878" d="M316 771H504L577 605H427L316 771ZM723 0H467L460 298L464 376H450L428 298L315 0H59L60 540H236L226 308L215 148H229L279 308L374 540H590L603 308L597 148H611L656 308L728 540H912L723 0Z" />
<glyph unicode="&#x1e82;" glyph-name="Wacute" horiz-adv-x="1027" d="M851 931L682 765H528L659 931H851ZM838 0H566L563 510H549L366 0H93L87 700H287L264 190H278L459 700H714L717 190H731L886 700H1090L838 0Z" />
<glyph unicode="&#x1e83;" glyph-name="wacute" horiz-adv-x="878" d="M748 771L579 605H425L556 771H748ZM723 0H467L460 298L464 376H450L428 298L315 0H59L60 540H236L226 308L215 148H229L279 308L374 540H590L603 308L597 148H611L656 308L728 540H912L723 0Z" />
<glyph unicode="&#x1e84;" glyph-name="Wdieresis" horiz-adv-x="1027" d="M778 765H630L658 923H806L778 765ZM570 765H422L450 923H598L570 765ZM838 0H566L563 510H549L366 0H93L87 700H287L264 190H278L459 700H714L717 190H731L886 700H1090L838 0Z" />
<glyph unicode="&#x1e85;" glyph-name="wdieresis" horiz-adv-x="878" d="M676 605H528L556 763H704L676 605ZM468 605H320L348 763H496L468 605ZM723 0H467L460 298L464 376H450L428 298L315 0H59L60 540H236L226 308L215 148H229L279 308L374 540H590L603 308L597
148H611L656 308L728 540H912L723 0Z" />
<glyph unicode="&#x1ef2;" glyph-name="Ygrave" horiz-adv-x="681" d="M245 931H433L506 765H356L245 931ZM197 0L240 242L80 700H280L359 428H373L549 700H751L430 242L387 0H197Z" />
<glyph unicode="&#x1ef3;" glyph-name="ygrave" horiz-adv-x="565" d="M159 771H347L420 605H270L159 771ZM103 -160H-8L19 -5H122Q163 -5 182 7T216 52L227 77H114L55 540H239L266 208H280L413 540H604L370 9Q330 -82 269 -121T103 -160Z" />
<glyph unicode="&#x2013;" glyph-name="endash" horiz-adv-x="500" d="M476 390L454 265H44L66 390H476Z" />
<glyph unicode="&#x2014;" glyph-name="emdash" horiz-adv-x="1000" d="M976 390L954 265H44L66 390H976Z" />
<glyph unicode="&#x2018;" glyph-name="quoteleft" horiz-adv-x="290" d="M256 420H86L103 517L208 700H305L256 420Z" />
<glyph unicode="&#x2019;" glyph-name="quoteright" horiz-adv-x="290" d="M135 700H305L288 603L183 420H86L135 700Z" />
<glyph unicode="&#x201a;" glyph-name="quotesinglbase" horiz-adv-x="290" d="M41 167H211L194 70L89 -113H-8L41 167Z" />
<glyph unicode="&#x201c;" glyph-name="quotedblleft" horiz-adv-x="533" d="M499 420H329L346 517L451 700H548L499 420ZM256 420H86L103 517L208 700H305L256 420Z" />
<glyph unicode="&#x201d;" glyph-name="quotedblright" horiz-adv-x="533" d="M378 700H548L531 603L426 420H329L378 700ZM135 700H305L288 603L183 420H86L135 700Z" />
<glyph unicode="&#x201e;" glyph-name="quotedblbase" horiz-adv-x="533" d="M284 167H454L437 70L332 -113H235L284 167ZM41 167H211L194 70L89 -113H-8L41 167Z" />
<glyph unicode="&#x2020;" glyph-name="dagger" horiz-adv-x="509" d="M513 390H358L289 0H124L193 390H38L64 540H219L247 700H412L384 540H539L513 390Z" />
<glyph unicode="&#x2021;" glyph-name="daggerdbl" horiz-adv-x="541" d="M485 140H330L305 0H140L165 140H10L36 290H191L212 410H57L84 560H239L263 700H428L404 560H559L532 410H377L356 290H511L485 140Z" />
<glyph unicode="&#x2022;" glyph-name="bullet" horiz-adv-x="366" d="M176 119Q108 119 64 161T20 265Q20 341 70 393T194 446Q262 446 306 404T350 300Q350 224 299 172T176 119Z" />
<glyph unicode="&#x2026;" glyph-name="ellipsis" horiz-adv-x="776" d="M668 0H498L527 167H697L668 0ZM425 0H255L284 167H454L425 0ZM182 0H12L41 167H211L182 0Z" />
<glyph unicode="&#x2030;" glyph-name="perthousand" horiz-adv-x="1296" d="M248 710H282Q364 710 401 672T428 566L419 512Q406 435 363 402T242 368H208Q126 368 89 406T62 512L71 566Q84 643 127 676T248 710ZM242 0H96L679 700H825L242 0ZM225 474H243Q270
474 281 484T296 519L303 559Q310 604 266 604H248Q222 604 211 594T195 559L188 519Q180 474 225 474ZM1082 332H1116Q1198 332 1235 294T1262 188L1253 134Q1240 57 1197 24T1076 -10H1042Q960 -10 923 28T896 134L905 188Q918 265 961 298T1082 332ZM679 332H713Q795
332 832 294T859 188L850 134Q837 57 794 24T673 -10H639Q557 -10 520 28T493 134L502 188Q515 265 558 298T679 332ZM1059 96H1077Q1104 96 1115 106T1130 141L1137 181Q1144 226 1100 226H1082Q1056 226 1045 216T1029 181L1022 141Q1014 96 1059 96ZM656 96H674Q700
96 711 106T727 141L734 181Q742 226 697 226H679Q652 226 641 216T626 181L619 141Q612 96 656 96Z" />
<glyph unicode="&#x2039;" glyph-name="guilsinglleft" horiz-adv-x="348" d="M37 226L49 293L172 427H325L206 265L204 254L266 92H113L37 226Z" />
<glyph unicode="&#x203a;" glyph-name="guilsinglright" horiz-adv-x="348" d="M307 293L295 226L171 92H18L138 254L140 265L77 427H230L307 293Z" />
<glyph unicode="&#x2044;" glyph-name="fraction" horiz-adv-x="166" d="M-102 0H-248L295 700H441L-102 0Z" />
<glyph unicode="&#x2070;" glyph-name="zerosuperior" horiz-adv-x="426" d="M264 345H209Q140 345 104 381T79 480L96 581Q117 705 252 705H307Q376 705 412 670T437 571L419 470Q397 345 264 345ZM203 480Q201 466 208 458T232 449H260Q292 449 298 480L314
570Q316 584 308 592T283 601H255Q225 601 219 570L203 480Z" />
<glyph unicode="&#x2074;" glyph-name="foursuperior" horiz-adv-x="398" d="M336 350H221L231 406H49L63 486L247 700H397L361 491H411L396 406H346L336 350ZM173 497L171 490H245L265 603H258L173 497Z" />
<glyph unicode="&#x20ac;" glyph-name="Euro" horiz-adv-x="631" d="M576 160L548 0H339Q227 0 163 56T109 210H15L35 325H129L138 375H44L64 490H159Q183 606 245 653T422 700H671L643 540H424Q390 540 373 529T349 490H540L520 375H328L319 325H511L491 210H300Q299
186 313 173T357 160H576Z" />
<glyph unicode="&#x20b9;" glyph-name="uni20B9" horiz-adv-x="609" d="M605 386H504Q478 255 349 218L449 0H244L168 187H24L49 327H237Q304 327 314 386H59L79 501H334Q344 560 278 560H90L114 700H660L640 585H514Q526 546 522 501H625L605 386Z" />
<glyph unicode="&#x2113;" glyph-name="uni2113" horiz-adv-x="513" d="M168 -10Q87 -10 49 41T27 183L83 499Q100 597 163 653T321 710H340Q442 710 492 655T532 510L528 479Q519 413 481 370T366 284L213 202L210 183Q204 149 236 149Q264 149 317 173L377 201L420
75L343 37Q247 -10 168 -10ZM266 499L242 363L278 383Q318 405 336 427T359 482L363 507Q373 565 331 565H316Q277 565 266 499Z" />
<glyph unicode="&#x2122;" glyph-name="trademark" horiz-adv-x="754" d="M221 360H108L151 603H69L86 700H363L346 603H264L221 360ZM453 360H349L409 700H551L570 541H576L650 700H799L739 360H635L657 483L685 590H679L614 466H506L491 590H485L475 483L453 360Z" />
<glyph unicode="&#x2126;" glyph-name="Omega" horiz-adv-x="674" d="M298 170L268 0H-11L17 160H145Q37 205 59 329L84 471Q107 602 171 656T368 710H430Q565 710 622 647T660 471L635 329Q612 198 515 160H617L589 0H310L340 170Q418 179 430 242L471 478Q478
517 462 533T405 550H363Q319 550 301 535T275 478L234 242Q224 185 298 170Z" />
<glyph unicode="&#x212e;" glyph-name="estimated" horiz-adv-x="661" d="M641 257H145Q141 257 141 254V104Q141 94 148 86Q225 6 336 6Q456 6 533 96H577Q483 -11 335 -11Q208 -11 119 69T29 264T118 459T335 541T551 460T641 264V257ZM529 276V427Q529 438
521 446Q445 524 336 524Q224 524 149 443Q141 437 141 424V276Q141 272 145 272H526Q529 272 529 276Z" />
<glyph unicode="&#x2202;" glyph-name="partialdiff" horiz-adv-x="585" d="M272 -10H243Q107 -10 51 52T13 226L19 260Q34 345 86 386T211 428H214Q281 428 356 395L384 383L392 429Q402 485 392 505T335 535L211 560L265 710L395 686Q435 678 465 666T520 631T558
576T575 497T568 391L540 219Q520 99 454 45T272 -10ZM251 147H270Q313 147 333 161T358 209L364 245L315 261Q282 271 258 271H253Q202 271 193 226L190 210Q179 147 251 147Z" />
<glyph unicode="&#x2206;" glyph-name="increment" horiz-adv-x="712" d="M396 520L231 155H446L410 520H396ZM-40 0L301 700H561L656 0H-40Z" />
<glyph unicode="&#x220f;" glyph-name="product" horiz-adv-x="810" d="M451 -100L564 540H340L227 -100H37L150 540H65L93 700H867L839 540H754L641 -100H451Z" />
<glyph unicode="&#x2211;" glyph-name="summation" horiz-adv-x="542" d="M595 700L567 540H295L292 522L402 365L377 223L224 78L221 60H483L454 -100H-41L-10 72L222 294L225 314L70 528L100 700H595Z" />
<glyph unicode="&#x2212;" glyph-name="minus" horiz-adv-x="490" d="M450 270H40L63 400H473L450 270Z" />
<glyph unicode="&#x2215;" glyph-name="uni2215" horiz-adv-x="166" d="M-102 0H-248L295 700H441L-102 0Z" />
<glyph unicode="&#x221a;" glyph-name="radical" horiz-adv-x="687" d="M605 800H802L425 0H185L132 388L53 370L51 500L296 550L325 173H339L605 800Z" />
<glyph unicode="&#x221e;" glyph-name="infinity" horiz-adv-x="728" d="M526 275Q565 275 575 329L580 355Q585 381 575 398T541 415H524Q520 415 516 414T509 412T502 407T495 402T488 396T482 388T475 379T468 370T461 360T454 349Q472 295 485 284Q495 275
509 275H526ZM229 275Q242 275 255 286T275 306T300 341Q295 357 293 361T287 378T279 394T270 404T258 413T244 415H227Q189 415 179 361L174 335Q169 309 178 292T212 275H229ZM398 448Q436 498 468 521T547 544H564Q652 544 693 495T719 345L715 319Q702 233
648 190T514 146H497Q442 146 410 169T356 242Q318 192 286 169T207 146H190Q102 146 61 195T35 345L39 371Q52 457 106 500T240 544H257Q312 544 343 521T398 448Z" />
<glyph unicode="&#x222b;" glyph-name="integral'" horiz-adv-x="431" d="M255 11Q226 -160 30 -160H-76L-53 -30H30Q52 -30 60 -22T73 10L168 549Q197 720 393 720H499L476 590H393Q371 590 363 582T350 550L255 11Z" />
<glyph unicode="&#x2248;" glyph-name="approxequal" horiz-adv-x="490" d="M43 359L63 425Q83 490 114 520T194 550H199Q236 550 285 522L311 507Q337 492 349 492H353Q369 492 377 517L388 550H511L489 484Q465 414 433 387T351 359H346Q307 359 266 386L240
403Q220 417 205 417H201Q185 417 177 392L166 359H43ZM5 139L25 205Q45 270 76 300T156 330H161Q198 330 247 302L273 287Q299 272 311 272H315Q331 272 339 297L350 330H473L451 264Q427 194 395 167T313 139H308Q269 139 228 166L202 183Q182 197 167 197H163Q147
197 139 172L128 139H5Z" />
<glyph unicode="&#x2260;" glyph-name="notequal" horiz-adv-x="490" d="M431 162H231L195 88H72L108 162H21L43 292H170L212 378H59L82 508H274L312 586H435L397 508H492L469 378H335L293 292H453L431 162Z" />
<glyph unicode="&#x2264;" glyph-name="lessequal" horiz-adv-x="490" d="M39 270L77 482L503 576L476 420L196 379L194 365L459 324L433 176L39 270ZM402 0H-8L15 130H425L402 0Z" />
<glyph unicode="&#x2265;" glyph-name="greaterequal" horiz-adv-x="491" d="M488 482L450 270L24 176L51 332L331 373L333 387L68 428L94 576L488 482ZM15 130H425L402 0H-8L15 130Z" />
<glyph unicode="&#x25ca;" glyph-name="lozenge" horiz-adv-x="619" d="M150 0L23 350L273 700H496L624 350L373 0H150ZM273 150H287L435 358L366 550H352L205 342L273 150Z" />
<glyph unicode="&#xf6c3;" glyph-name="commaaccent" horiz-adv-x="500" d="M115 -65H267L251 -152L161 -297H74L115 -65Z" />
<glyph unicode="&#xfb01;" glyph-name="fi" horiz-adv-x="692" d="M716 720L692 585H509L533 720H716ZM36 392L62 540H135L137 549Q154 637 208 678T362 720H468L445 590H362Q338 590 329 582T314 550L312 540H436L410 392H291L222 0H40L109 392H36ZM501 540H684L589
0H406L501 540Z" />
<glyph unicode="&#xfb02;" glyph-name="fl" horiz-adv-x="687" d="M36 392L62 540H135L137 549Q154 637 208 678T362 720H468L445 590H362Q338 590 329 582T314 550L312 540H436L410 392H291L222 0H40L109 392H36ZM712 700L589 0H406L529 700H712Z" />
</font>
</defs>
</svg>
