<?xml version="1.0" standalone="no"?> <!DOCTYPE svg PUBLIC "-//W3C//DTD SVG 1.0//EN" "http://www.w3.org/TR/2001/REC-SVG-20010904/DTD/svg10.dtd" > 
<svg xmlns="http://www.w3.org/2000/svg" width="100%" height="100%">
<metadata version="1.0"><uniqueid id="com.myfonts.indian-type-foundry.demo.light.wfkit2.jwqx"/><vendor name="MyFonts" url="https://www.myfonts.com/"/><credits><credit name="Aarya Purohit" url="https://www.myfonts.com/person/purohit/aarya/"/></credits><description><text lang="en">This is a Webfont from MyFonts. Full information about this font:
https://www.myfonts.com/fonts/indian-type-foundry/demo/
</text></description><license url="https://www.myfonts.com/viewlicense?lid=Array"/><copyright><text lang="en">Copyright 2016 Indian Type Foundry</text></copyright><trademark><text lang="en">Demo is a trademark of Indian Type Foundry</text></trademark></metadata>
<defs >
<font id="wf" horiz-adv-x="515" ><font-face
    font-family="Demo Light"
    units-per-em="1000"
    panose-1="0 0 0 0 0 0 0 0 0 0"
    ascent="792"
    descent="-208"
    alphabetic="0" />
<missing-glyph horiz-adv-x="639" d="M492 60V640H147V60H492ZM78 0V700H561V0H78Z" />
<glyph unicode=" " glyph-name="space" horiz-adv-x="210" />
<glyph unicode="!" glyph-name="exclam" horiz-adv-x="240" d="M151 234H89L86 394V700H155V394L151 234ZM154 0H87V122H154V0Z" />
<glyph unicode="&quot;" glyph-name="quotedbl" horiz-adv-x="365" d="M301 700V495H243V700H301ZM153 700V495H96V700H153Z" />
<glyph unicode="#" glyph-name="numbersign" horiz-adv-x="642" d="M238 443V265H404V443H238ZM238 0H179V212H23V265H179V443H23V496H179V700H238V496H404V700H463V496H619V443H463V265H619V212H463V0H404V212H238V0Z" />
<glyph unicode="$" glyph-name="dollar" horiz-adv-x="523" d="M300 0H295V-100H234V0H52V60H300Q359 60 387 91T416 170V191Q416 235 395 258T329 296L168 348Q100 370 71 407T42 508V535Q42 611 87 655T227 700H234V800H295V700H463V640H227Q111 640 111 534V513Q111
470 132 447T199 408L360 356Q424 335 454 297T485 196V170Q485 94 438 47T300 0Z" />
<glyph unicode="%" glyph-name="percent" horiz-adv-x="827" d="M211 362H188Q104 362 70 399T35 518V554Q35 636 69 673T188 710H211Q295 710 329 673T364 554V518Q364 436 330 399T211 362ZM223 0H155L604 700H672L223 0ZM95 510Q95 460 115 438T177 415H222Q263
415 283 437T304 510V562Q304 612 284 634T222 657H177Q135 657 115 635T95 562V510ZM616 338H639Q723 338 757 301T791 182V146Q791 64 757 27T639 -10H616Q532 -10 498 27T463 146V182Q463 264 497 301T616 338ZM732 190Q732 240 712 262T650 285H605Q563 285
543 263T523 190V138Q523 88 543 66T605 43H650Q691 43 711 65T732 138V190Z" />
<glyph unicode="&amp;" glyph-name="ampersand" horiz-adv-x="626" d="M222 52H269Q327 52 358 68T411 130L210 341L189 333Q136 315 118 290T100 208V154Q100 101 129 77T222 52ZM536 0L452 88Q421 36 380 15T272 -6H218Q129 -6 83 31T36 155V203Q36 279 61 317T149
375L170 382Q139 417 127 446T115 520V541Q115 623 161 661T305 700H420V642H307Q236 642 209 619T181 541V522Q181 483 193 460T242 397L437 194L496 347H558L496 183Q494 179 489 166T482 147L623 0H536Z" />
<glyph unicode="&apos;" glyph-name="quotesingle" horiz-adv-x="209" d="M133 700V495H76V700H133Z" />
<glyph unicode="(" glyph-name="parenleft" horiz-adv-x="307" d="M139 348Q139 115 287 -77L237 -113Q72 98 72 348V358Q72 609 237 819L287 783Q139 594 139 358V348Z" />
<glyph unicode=")" glyph-name="parenright" horiz-adv-x="307" d="M168 348V358Q168 593 21 783L70 819Q235 609 235 358V348Q235 98 70 -113L21 -77Q168 116 168 348Z" />
<glyph unicode="*" glyph-name="asterisk" horiz-adv-x="305" d="M178 700V662Q178 643 169 598Q214 623 228 627L264 638L279 589L242 578Q237 576 227 574T203 570T183 566Q187 561 197 551T214 534T224 522L246 490L204 460L182 491Q171 507 153 546Q127 497
123 491L101 460L59 490L81 522Q84 526 91 533T108 551T122 566Q115 567 102 569T79 574T63 578L26 589L41 638L77 627Q82 626 135 599Q127 650 127 662V700H178Z" />
<glyph unicode="+" glyph-name="plus" horiz-adv-x="486" d="M446 320H271V130H215V320H40V373H215V540H271V373H446V320Z" />
<glyph unicode="," glyph-name="comma" horiz-adv-x="218" d="M76 122H142V46L115 -97H76V122Z" />
<glyph unicode="-" glyph-name="hyphen" horiz-adv-x="381" d="M331 345V292H50V345H331Z" />
<glyph unicode="." glyph-name="period" horiz-adv-x="218" d="M142 0H76V122H142V0Z" />
<glyph unicode="/" glyph-name="slash" horiz-adv-x="373" d="M103 -33H42L270 732H331L103 -33Z" />
<glyph unicode="0" glyph-name="zero" horiz-adv-x="615" d="M325 -6H289Q170 -6 121 48T71 231V469Q71 598 120 652T289 706H325Q444 706 494 652T544 469V231Q544 103 494 49T325 -6ZM139 219Q139 126 173 90T278 53H336Q408 53 441 89T475 219V481Q475 574
442 610T336 647H278Q207 647 173 611T139 481V219Z" />
<glyph unicode="1" glyph-name="one" horiz-adv-x="300" d="M11 700H214V0H145V640H11V700Z" />
<glyph unicode="2" glyph-name="two" horiz-adv-x="485" d="M443 0H27V46Q27 95 41 125T92 190L303 387Q368 447 368 514V548Q368 640 255 640H31V700H255Q347 700 392 663T437 557V521Q437 420 348 343L145 154Q116 127 107 109T98 60H443V0Z" />
<glyph unicode="3" glyph-name="three" horiz-adv-x="498" d="M38 700H426V618L187 397V387H279Q361 387 406 342T452 215V167Q452 0 261 0H36V60H260Q323 60 353 85T383 168V220Q383 278 353 303T264 329H125V412L359 629V640H38V700Z" />
<glyph unicode="4" glyph-name="four" horiz-adv-x="554" d="M337 700H437V188H531V130H437V0H373V130H23V201L337 700ZM90 199V188H374V637H363L90 199Z" />
<glyph unicode="5" glyph-name="five" horiz-adv-x="502" d="M55 0V60H255Q328 60 358 85T389 171V230Q389 290 359 315T255 341H64V700H440V640H127V401H264Q360 401 408 362T457 232V173Q457 80 407 40T257 0H55Z" />
<glyph unicode="6" glyph-name="six" horiz-adv-x="570" d="M315 -6H270Q72 -6 72 195V462Q72 590 122 645T288 700H489V640H277Q208 640 174 604T140 474V370L237 409Q310 438 365 438H368Q439 438 480 400T522 280V186Q522 -6 315 -6ZM276 53H311Q384 53 420
83T456 185V274Q456 378 354 378H351Q305 378 243 353L139 312V193Q139 116 172 85T276 53Z" />
<glyph unicode="7" glyph-name="seven" horiz-adv-x="462" d="M440 700V633L191 0H118L369 626V640H11V700H440Z" />
<glyph unicode="8" glyph-name="eight" horiz-adv-x="591" d="M339 -6H258Q158 -6 109 35T59 151V193Q59 242 88 281T190 350Q69 384 69 507V548Q69 622 116 664T255 706H336Q428 706 474 665T520 548V507Q520 450 494 416T399 353L415 349Q473 333 501 297T530
193V151Q530 -6 339 -6ZM225 398L321 373Q403 404 429 429T455 499V547Q455 647 337 647H254Q134 647 134 548V502Q134 453 159 431T225 398ZM256 53H339Q408 53 436 78T464 151V198Q464 245 443 268T379 302L266 331Q183 299 154 268T125 201V152Q125 53 256 53Z"
/>
<glyph unicode="9" glyph-name="nine" horiz-adv-x="571" d="M283 0H82V60H294Q363 60 397 96T431 226V330L334 291Q261 262 206 262H203Q132 262 91 300T49 420V514Q49 706 256 706H301Q499 706 499 505V238Q499 110 449 55T283 0ZM217 322H220Q266 322 328 347L432
388V507Q432 584 399 615T295 647H260Q187 647 151 617T115 515V426Q115 322 217 322Z" />
<glyph unicode=":" glyph-name="colon" horiz-adv-x="218" d="M76 524H142V402H76V524ZM142 0H76V122H142V0Z" />
<glyph unicode=";" glyph-name="semicolon" horiz-adv-x="218" d="M142 402H76V524H142V402ZM76 122H142V46L115 -97H76V122Z" />
<glyph unicode="&lt;" glyph-name="less" horiz-adv-x="486" d="M35 288V385L441 527V466L90 343V329L441 207V146L35 288Z" />
<glyph unicode="=" glyph-name="equal" horiz-adv-x="486" d="M446 422H40V475H446V422ZM446 218H40V272H446V218Z" />
<glyph unicode="&gt;" glyph-name="greater" horiz-adv-x="486" d="M451 288L45 146V207L396 329V343L45 466V527L451 385V288Z" />
<glyph unicode="?" glyph-name="question" horiz-adv-x="434" d="M197 231H135V262Q135 310 148 339T202 394L260 430Q305 457 320 479T335 537V553Q335 596 313 618T227 640H17V700H227Q322 700 362 664T403 559V541Q403 489 381 457T306 392L246 356Q213 336
205 315T197 257V231ZM200 122V0H133V122H200Z" />
<glyph unicode="@" glyph-name="at" horiz-adv-x="980" d="M634 -182H430Q235 -182 147 -95T58 190V342Q58 522 156 616T433 710H549Q752 710 835 623T919 351V251Q919 116 879 53T748 -10T634 58L551 22Q488 -6 431 -6H428Q357 -6 316 32T274 152V327Q274 522
469 522H692V109Q692 73 706 59T756 44Q779 44 795 51T828 78T852 142T861 251V351Q861 518 790 587T549 656H433Q285 656 201 580T116 342V190Q116 19 190 -54T430 -128H634V-182ZM439 57H442Q490 57 545 80L625 114V463H471Q405 463 373 431T341 329V160Q341
57 439 57Z" />
<glyph unicode="A" glyph-name="A" horiz-adv-x="607" d="M293 636L173 253H436L315 636H293ZM516 0L455 194H154L93 0H20L247 700H361L588 0H516Z" />
<glyph unicode="B" glyph-name="B" horiz-adv-x="615" d="M343 0H86V700H324Q434 700 487 659T540 529V501Q540 445 515 409T447 361V354Q559 333 559 204V172Q559 82 506 41T343 0ZM154 642V378H321Q402 378 437 405T472 496V524Q472 587 437 614T321 642H154ZM154
323V58H340Q421 58 456 85T491 176V205Q491 268 456 295T340 323H154Z" />
<glyph unicode="C" glyph-name="C" horiz-adv-x="518" d="M492 700V640H294Q210 640 175 605T139 474V226Q139 131 174 96T294 60H492V0H304Q173 0 122 54T70 238V462Q70 592 121 646T304 700H492Z" />
<glyph unicode="D" glyph-name="D" horiz-adv-x="647" d="M86 0V700H343Q474 700 525 646T577 462V238Q577 108 526 54T343 0H86ZM155 640V60H353Q437 60 472 95T508 226V474Q508 569 473 604T353 640H155Z" />
<glyph unicode="E" glyph-name="E" horiz-adv-x="536" d="M503 0H86V700H503V640H154V380H483V320H154V60H503V0Z" />
<glyph unicode="F" glyph-name="F" horiz-adv-x="511" d="M155 0H86V700H490V640H155V359H469V300H155V0Z" />
<glyph unicode="G" glyph-name="G" horiz-adv-x="606" d="M536 640H294Q210 640 175 605T139 474V226Q139 131 174 96T294 60H483V335H549V0H304Q173 0 122 54T70 238V462Q70 592 121 646T304 700H536V640Z" />
<glyph unicode="H" glyph-name="H" horiz-adv-x="670" d="M515 0V320H155V0H86V700H155V380H515V700H584V0H515Z" />
<glyph unicode="I" glyph-name="I" horiz-adv-x="241" d="M155 0H86V700H155V0Z" />
<glyph unicode="J" glyph-name="J" horiz-adv-x="241" d="M8 -188L-30 -133L19 -96Q59 -66 72 -38T86 51V700H155V52Q155 -31 135 -69T58 -151L8 -188Z" />
<glyph unicode="K" glyph-name="K" horiz-adv-x="600" d="M155 324V0H86V700H155V384H311L499 700H575L369 358L581 0H502L310 324H155Z" />
<glyph unicode="L" glyph-name="L" horiz-adv-x="497" d="M482 0H86V700H155V60H482V0Z" />
<glyph unicode="M" glyph-name="M" horiz-adv-x="843" d="M757 0H690V379L692 620H675L471 155H372L168 620H151L153 379V0H86V700H199L412 214H431L644 700H757V0Z" />
<glyph unicode="N" glyph-name="N" horiz-adv-x="678" d="M187 700L507 98H525V700H591V0H491L171 602H153V0H86V700H187Z" />
<glyph unicode="O" glyph-name="O" horiz-adv-x="649" d="M343 -6H306Q173 -6 122 48T70 234V466Q70 598 121 652T306 706H343Q476 706 527 652T579 466V234Q579 102 528 48T343 -6ZM139 222Q139 126 175 90T296 54H353Q439 54 474 90T510 222V478Q510 574 475
610T353 646H296Q211 646 175 610T139 478V222Z" />
<glyph unicode="P" glyph-name="P" horiz-adv-x="577" d="M155 0H86V700H321Q429 700 482 656T536 507V449Q536 343 483 299T321 255H155V0ZM155 640V315H316Q396 315 431 344T467 449V507Q467 582 432 611T316 640H155Z" />
<glyph unicode="Q" glyph-name="Q" horiz-adv-x="649" d="M481 -163H407L325 -6H306Q173 -6 122 48T70 234V466Q70 598 121 652T306 706H343Q476 706 527 652T579 466V234Q579 116 539 61T398 -4L481 -163ZM139 222Q139 126 175 90T296 54H353Q439 54 474 90T510
222V478Q510 574 475 610T353 646H296Q211 646 175 610T139 478V222Z" />
<glyph unicode="R" glyph-name="R" horiz-adv-x="608" d="M155 640V321H328Q408 321 443 350T479 454V507Q479 582 444 611T328 640H155ZM155 0H86V700H332Q441 700 494 656T548 507V454Q548 292 397 270L566 0H487L326 261H155V0Z" />
<glyph unicode="S" glyph-name="S" horiz-adv-x="523" d="M52 0V60H300Q359 60 387 91T416 170V191Q416 235 395 258T329 296L167 348Q100 370 71 407T42 508V535Q42 611 86 655T226 700H462V640H226Q110 640 110 534V513Q110 470 131 447T198 408L359 356Q485
316 485 196V170Q485 94 438 47T300 0H52Z" />
<glyph unicode="T" glyph-name="T" horiz-adv-x="550" d="M537 700V640H310V0H241V640H13V700H537Z" />
<glyph unicode="U" glyph-name="U" horiz-adv-x="649" d="M147 700V227Q147 130 181 95T300 59H349Q434 59 468 94T502 227V700H571V235Q571 104 523 51T344 -2H305Q175 -2 127 51T78 235V700H147Z" />
<glyph unicode="V" glyph-name="V" horiz-adv-x="602" d="M244 0L18 700H91L291 64H313L511 700H585L360 0H244Z" />
<glyph unicode="W" glyph-name="W" horiz-adv-x="932" d="M744 0H623L477 633H455L310 0H189L25 700H97L240 67H262L407 700H527L672 67H694L836 700H908L744 0Z" />
<glyph unicode="X" glyph-name="X" horiz-adv-x="547" d="M448 700H523L334 358L524 0H449L283 317H262L98 0H23L213 358L24 700H99L263 400H285L448 700Z" />
<glyph unicode="Y" glyph-name="Y" horiz-adv-x="558" d="M245 0V235L12 700H87L271 324H288L474 700H546L313 235V0H245Z" />
<glyph unicode="Z" glyph-name="Z" horiz-adv-x="522" d="M495 60V0H28V68L404 626V640H38V700H486V632L110 74V60H495Z" />
<glyph unicode="[" glyph-name="bracketleft" horiz-adv-x="307" d="M299 823V766H153V-65H299V-123H86V823H299Z" />
<glyph unicode="\" glyph-name="backslash" horiz-adv-x="373" d="M270 -33L42 732H103L331 -33H270Z" />
<glyph unicode="]" glyph-name="bracketright" horiz-adv-x="307" d="M8 823H221V-123H8V-65H155V766H8V823Z" />
<glyph unicode="^" glyph-name="asciicircum" horiz-adv-x="486" d="M367 120L260 508H246L138 120H75L201 560H304L429 120H367Z" />
<glyph unicode="_" glyph-name="underscore" horiz-adv-x="395" d="M43 -71V-19H352V-71H43Z" />
<glyph unicode="`" glyph-name="grave" horiz-adv-x="500" d="M78 744H157L282 585H218L78 744Z" />
<glyph unicode="a" glyph-name="a" horiz-adv-x="565" d="M232 57H235Q285 57 338 80L416 113V465H264Q198 465 166 433T134 331V160Q134 57 232 57ZM344 22Q281 -6 224 -6H221Q150 -6 109 32T67 152V330Q67 524 263 524H483V0H422L418 54L344 22Z" />
<glyph unicode="b" glyph-name="b" horiz-adv-x="568" d="M306 0H81V700H149V471L225 502Q294 530 345 530H348Q419 530 460 492T502 372V195Q502 0 306 0ZM148 57H305Q371 57 403 89T435 191V365Q435 468 336 468H333Q290 468 231 444L148 412V57Z" />
<glyph unicode="c" glyph-name="c" horiz-adv-x="463" d="M419 524V467H262Q197 467 165 434T132 331V185Q132 116 164 84T263 51Q322 51 391 71L425 81L441 28L407 18Q324 -6 257 -6Q65 -6 65 186V330Q65 524 260 524H419Z" />
<glyph unicode="d" glyph-name="d" horiz-adv-x="569" d="M232 57H235Q281 57 338 80L421 113V465H264Q198 465 166 433T134 331V160Q134 57 232 57ZM344 22Q273 -6 224 -6H221Q150 -6 109 32T67 152V330Q67 524 263 524H420V700H488V0H427L423 54L344 22Z" />
<glyph unicode="e" glyph-name="e" horiz-adv-x="536" d="M131 339V294H422V339Q422 409 393 441T300 474H261Q195 474 163 442T131 339ZM434 22Q340 -6 262 -6Q65 -6 65 189V334Q65 530 261 530H299Q392 530 438 483T485 334V261L468 239H131V185Q131 116 163
84T264 51Q336 51 418 76L454 87L470 34L434 22Z" />
<glyph unicode="f" glyph-name="f" horiz-adv-x="346" d="M17 467V524H111V574Q111 650 150 679T258 708H333V656H263Q213 656 195 638T177 575V524H333V467H178V0H111V467H17Z" />
<glyph unicode="g" glyph-name="g" horiz-adv-x="565" d="M269 -176H96V-117H266Q347 -117 382 -84T418 21V90L342 59Q269 31 220 31H217Q146 31 105 70T63 194V332Q63 524 259 524H484V24Q484 -79 432 -127T269 -176ZM228 92H231Q273 92 336 117L418 149V466H260Q193
466 162 434T130 332V195Q130 92 228 92Z" />
<glyph unicode="h" glyph-name="h" horiz-adv-x="579" d="M232 442L149 408V0H81V700H149V471L226 502Q297 530 348 530H351Q421 530 462 492T503 372V0H436V363Q436 466 338 466H335Q295 466 232 442Z" />
<glyph unicode="i" glyph-name="i" horiz-adv-x="230" d="M149 704V603H80V704H149ZM81 524H149V0H81V524Z" />
<glyph unicode="j" glyph-name="j" horiz-adv-x="230" d="M149 603H80V704H149V603ZM149 54Q149 -27 130 -66T53 -149L6 -186L-33 -131L13 -95Q53 -63 67 -35T81 53V524H149V54Z" />
<glyph unicode="k" glyph-name="k" horiz-adv-x="531" d="M451 0L281 257H149V0H81V700H149V320H285L429 524H501L337 287L527 0H451Z" />
<glyph unicode="l" glyph-name="l" horiz-adv-x="230" d="M149 700V0H81V700H149Z" />
<glyph unicode="m" glyph-name="m" horiz-adv-x="917" d="M231 442L149 409V0H81V524H142L146 470L225 502Q296 530 347 530H350Q441 530 475 464L571 502Q640 530 693 530H696Q762 530 801 492T840 372V0H773V363Q773 466 682 466H679Q640 466 577 442L492 407Q494
385 494 372V0H427V363Q427 466 337 466H334Q294 466 231 442Z" />
<glyph unicode="n" glyph-name="n" horiz-adv-x="579" d="M232 442L149 408V0H81V524H142L146 470L226 502Q294 530 348 530H351Q421 530 462 492T503 372V0H436V363Q436 466 338 466H335Q294 466 232 442Z" />
<glyph unicode="o" glyph-name="o" horiz-adv-x="557" d="M303 -6H254Q65 -6 65 193V331Q65 434 112 482T254 530H303Q397 530 444 482T492 331V193Q492 -6 303 -6ZM133 185Q133 116 163 84T255 51H302Q364 51 394 83T424 185V339Q424 409 394 441T302 473H255Q193
473 163 441T133 339V185Z" />
<glyph unicode="p" glyph-name="p" horiz-adv-x="568" d="M149 -176H81V524H142L145 470L225 503Q292 530 345 530H348Q419 530 460 492T502 372V195Q502 0 306 0H149V-176ZM148 60H305Q371 60 403 92T435 194V365Q435 468 336 468H333Q290 468 231 444L148 412V60Z" />
<glyph unicode="q" glyph-name="q" horiz-adv-x="569" d="M488 -176H420V53L344 22Q273 -6 224 -6H221Q150 -6 109 32T67 152V330Q67 524 263 524H488V-176ZM232 57H235Q281 57 338 80L421 113V465H264Q198 465 166 433T134 331V160Q134 57 232 57Z" />
<glyph unicode="r" glyph-name="r" horiz-adv-x="373" d="M149 0H81V524H142L146 467L221 499Q290 530 342 530H360V466H345Q290 466 228 441L149 409V0Z" />
<glyph unicode="s" glyph-name="s" horiz-adv-x="466" d="M52 0V57H271Q359 57 359 136V147Q359 213 300 223L147 250Q46 268 46 373V394Q46 457 84 490T197 524H409V467H197Q110 467 110 390V378Q110 317 167 307L323 279Q422 262 422 153V131Q422 69 384 35T272 0H52Z" />
<glyph unicode="t" glyph-name="t" horiz-adv-x="397" d="M342 467H177V132Q177 53 244 53Q275 53 328 81L354 95L377 47L349 31Q280 -6 233 -6Q180 -6 145 25T110 127V467H16V524H113L117 640H177V524H342V467Z" />
<glyph unicode="u" glyph-name="u" horiz-adv-x="572" d="M352 22Q287 -6 230 -6H227Q157 -6 116 32T75 152V524H143V162Q143 59 241 59H244Q291 59 346 83L423 115V524H491V0H430L426 54L352 22Z" />
<glyph unicode="v" glyph-name="v" horiz-adv-x="507" d="M417 524H487L305 0H203L21 524H90L247 63H261L417 524Z" />
<glyph unicode="w" glyph-name="w" horiz-adv-x="778" d="M625 0H515L439 298L396 463H382L339 298L264 0H154L29 524H96L147 300L203 57H217L280 300L337 524H441L498 300L560 57H574L631 300L683 524H749L625 0Z" />
<glyph unicode="x" glyph-name="x" horiz-adv-x="470" d="M370 524H439L290 267L448 0H377L242 231H228L93 0H23L181 267L31 524H102L228 302H242L370 524Z" />
<glyph unicode="y" glyph-name="y" horiz-adv-x="500" d="M98 -176H39V-117H101Q153 -117 181 -99T225 -36L243 17H195L21 524H89L242 71H260L411 524H480L288 -44Q264 -115 221 -145T98 -176Z" />
<glyph unicode="z" glyph-name="z" horiz-adv-x="459" d="M33 524H413V455L112 71V57H430V0H33V70L335 453V467H33V524Z" />
<glyph unicode="{" glyph-name="braceleft" horiz-adv-x="348" d="M339 -116H292Q120 -116 120 31V235Q120 328 25 328H15V389H25Q120 389 120 481V685Q120 833 292 833H339V775H295Q236 775 212 753T187 685V473Q187 387 110 361V355Q187 329 187 243V31Q187
-14 211 -36T295 -59H339V-116Z" />
<glyph unicode="|" glyph-name="bar" horiz-adv-x="224" d="M142 -100H81V800H142V-100Z" />
<glyph unicode="}" glyph-name="braceright" horiz-adv-x="348" d="M8 -116V-59H53Q111 -59 136 -37T161 31V243Q161 329 237 355V361Q161 387 161 473V685Q161 730 136 752T53 775H8V833H56Q227 833 227 685V481Q227 389 322 389H333V328H322Q227 328 227 235V31Q227
-116 56 -116H8Z" />
<glyph unicode="~" glyph-name="asciitilde" horiz-adv-x="486" d="M52 254L62 335Q73 429 146 429H151Q175 429 195 418T242 378L277 339Q311 300 333 300H337Q365 300 371 347L380 421H434L424 342Q412 246 338 246H333Q289 246 244 297L209 336Q172 375 153
375H149Q121 375 115 328L106 254H52Z" />
<glyph unicode="&#xa0;" glyph-name="uni00A0" horiz-adv-x="210" />
<glyph unicode="&#xa1;" glyph-name="exclamdown" horiz-adv-x="240" d="M87 532H154V410H87V532ZM89 298H151L154 139V-168H85V139L89 298Z" />
<glyph unicode="&#xa2;" glyph-name="cent" horiz-adv-x="435" d="M279 0H218V90Q42 98 42 283V411Q42 596 218 605V700H279V606H396V548H239Q174 548 142 515T109 412V281Q109 212 141 180T241 147Q299 147 368 167L402 177L418 124L384 114Q325 96 279 92V0Z" />
<glyph unicode="&#xa3;" glyph-name="sterling" horiz-adv-x="540" d="M519 0H29V60H117V305H29V362H117V473Q117 595 169 647T338 700H507V640H340Q256 640 221 605T185 474V362H426V305H185V60H519V0Z" />
<glyph unicode="&#xa4;" glyph-name="currency" horiz-adv-x="552" d="M475 104L388 190Q348 169 284 169H261Q200 169 162 188L77 104L33 148L113 228Q87 268 87 332V359Q87 423 112 460L29 543L73 587L159 502Q199 522 261 522H284Q346 522 384 503L469 587L513
543L431 461Q457 425 457 359V332Q457 271 434 233L519 147L475 104ZM249 225H296Q338 225 366 249T394 320V371Q394 419 367 442T296 466H249Q206 466 179 443T151 371V320Q151 272 178 249T249 225Z" />
<glyph unicode="&#xa5;" glyph-name="yen" horiz-adv-x="569" d="M490 128H318V0H250V128H79V183H250V235L233 269H79V324H205L17 700H92L277 324H294L479 700H552L363 324H490V269H335L318 235V183H490V128Z" />
<glyph unicode="&#xa6;" glyph-name="brokenbar" horiz-adv-x="224" d="M142 410H81V800H142V410ZM142 -100H81V300H142V-100Z" />
<glyph unicode="&#xa7;" glyph-name="section" horiz-adv-x="581" d="M346 -176H69V-116H345Q404 -116 432 -85T461 -7V13Q461 116 372 116H195Q126 116 92 153T57 246V271Q57 342 123 370Q61 408 61 509V537Q61 612 105 656T244 700H510V640H245Q129 640 129
535V512Q129 410 218 410H390Q459 410 495 376T532 285V260Q532 184 466 155Q529 115 529 16V-9Q529 -83 482 -129T346 -176ZM366 175Q464 175 464 255V277Q464 310 444 330T382 350H223Q125 350 125 277V255Q125 175 207 175H366Z" />
<glyph unicode="&#xa8;" glyph-name="dieresis" horiz-adv-x="500" d="M366 585H302V698H366V585ZM198 585H134V698H198V585Z" />
<glyph unicode="&#xa9;" glyph-name="copyright" horiz-adv-x="769" d="M346 -6Q191 -6 130 51T68 238V462Q68 592 129 649T346 706H422Q577 706 638 649T700 462V238Q700 108 639 51T422 -6H346ZM334 48H435Q546 48 594 88T643 228V472Q643 572 595 612T435 652H334Q222
652 174 612T125 472V228Q125 128 173 88T334 48ZM500 168H375Q306 168 277 198T247 297V410Q247 480 276 510T375 540H500V489H375Q337 489 321 473T304 417V290Q304 250 320 235T375 219H500V168Z" />
<glyph unicode="&#xaa;" glyph-name="ordfeminine" horiz-adv-x="395" d="M166 408H168Q196 408 238 424L286 443V648H186Q142 648 121 629T99 565V479Q99 408 166 408ZM242 374Q195 354 161 354H159Q105 354 73 383T41 474V566Q41 700 185 700H344V359H289L287
393L242 374Z" />
<glyph unicode="&#xab;" glyph-name="guillemotleft" horiz-adv-x="419" d="M211 263V290L311 418H374L276 281V272L374 136H311L211 263ZM41 263V290L141 418H204L106 281V272L204 136H141L41 263Z" />
<glyph unicode="&#xac;" glyph-name="logicalnot" horiz-adv-x="486" d="M446 130H390V320H40V373H446V130Z" />
<glyph unicode="&#xad;" glyph-name="uni00AD" horiz-adv-x="0" />
<glyph unicode="&#xae;" glyph-name="registered" horiz-adv-x="769" d="M422 -6H346Q191 -6 130 51T68 238V462Q68 592 129 649T346 706H422Q577 706 638 649T700 462V238Q700 108 639 51T422 -6ZM334 48H435Q546 48 594 88T643 228V472Q643 572 595 612T435
652H334Q223 652 174 612T125 472V228Q125 128 174 88T334 48ZM304 490V354H416Q454 354 470 365T487 408V436Q487 466 470 478T416 490H304ZM304 168H247V540H422Q482 540 512 517T543 437V409Q543 325 464 310L543 168H479L405 304H304V168Z" />
<glyph unicode="&#xaf;" glyph-name="overscore" horiz-adv-x="500" d="M123 605V657H377V605H123Z" />
<glyph unicode="&#xb0;" glyph-name="degree" horiz-adv-x="339" d="M308 573Q308 513 268 474T171 435Q112 435 72 474T31 573Q31 632 71 670T171 709Q227 709 267 670T308 573ZM171 483Q207 483 232 508T257 573Q257 611 232 636T171 661Q132 661 107 637T82
573Q82 533 107 508T171 483Z" />
<glyph unicode="&#xb1;" glyph-name="plusminus" horiz-adv-x="486" d="M446 335H271V145H215V335H40V388H215V555H271V388H446V335ZM446 0H40V53H446V0Z" />
<glyph unicode="&#xb2;" glyph-name="twosuperior" horiz-adv-x="339" d="M285 351H41V381Q41 425 55 448T109 494L198 544Q232 562 232 600V617Q232 652 188 652H47V700H194Q239 700 262 679T285 622V605Q285 570 274 548T230 508L138 456Q111 440 104 431T97
399H285V351Z" />
<glyph unicode="&#xb3;" glyph-name="threesuperior" horiz-adv-x="358" d="M53 398H192Q219 398 231 408T244 445V465Q244 506 192 506H90V553H190Q217 553 229 563T242 596V607Q242 632 230 642T190 653H53V700H196Q295 700 295 610V601Q295 551 250 534V528Q296
513 296 461V443Q296 351 197 351H53V398Z" />
<glyph unicode="&#xb4;" glyph-name="acute" horiz-adv-x="500" d="M425 744L285 585H222L347 744H425Z" />
<glyph unicode="&#xb5;" glyph-name="mu" horiz-adv-x="572" d="M228 -6Q175 -6 141 14V-176H76V524H143V162Q143 59 241 59H244Q290 59 347 83L424 115V524H491V0H430L426 54L353 22Q286 -6 231 -6H228Z" />
<glyph unicode="&#xb6;" glyph-name="paragraph" horiz-adv-x="620" d="M451 0V640H316V0H253V352H206Q31 352 31 519V533Q31 700 206 700H591V640H513V0H451Z" />
<glyph unicode="&#xb7;" glyph-name="middot" horiz-adv-x="500" d="M283 296H217V418H283V296Z" />
<glyph unicode="&#xb8;" glyph-name="cedilla" horiz-adv-x="500" d="M188 -178H274Q310 -178 310 -147V-117Q310 -86 274 -86H234L216 -70V17H264V-42H285Q362 -42 362 -117V-143Q362 -185 341 -204T276 -224H188V-178Z" />
<glyph unicode="&#xb9;" glyph-name="onesuperior" horiz-adv-x="245" d="M38 700H159V351H106V652H38V700Z" />
<glyph unicode="&#xba;" glyph-name="ordmasculine" horiz-adv-x="394" d="M227 356H168Q42 356 42 482V582Q42 710 168 710H227Q352 710 352 582V482Q352 356 227 356ZM100 482Q100 406 169 406H226Q294 406 294 482V583Q294 659 226 659H169Q100 659 100 583V482Z" />
<glyph unicode="&#xbb;" glyph-name="guillemotright" horiz-adv-x="419" d="M208 263L108 136H45L143 272V281L45 418H108L208 290V263ZM378 263L278 136H215L313 272V281L215 418H278L378 290V263Z" />
<glyph unicode="&#xbc;" glyph-name="onequarter" horiz-adv-x="724" d="M132 0H68L512 700H575L132 0ZM38 700H159V351H106V652H38V700ZM627 0H576V60H386V106L559 349H627V102H679V60H627V0ZM440 107V102H576V294H571L440 107Z" />
<glyph unicode="&#xbd;" glyph-name="onehalf" horiz-adv-x="738" d="M132 0H68L512 700H575L132 0ZM38 700H159V351H106V652H38V700ZM684 0H440V30Q440 74 454 97T508 143L597 193Q631 211 631 249V266Q631 301 587 301H446V349H593Q638 349 661 328T684 271V254Q684
219 673 197T629 157L537 105Q510 89 503 80T496 48H684V0Z" />
<glyph unicode="&#xbe;" glyph-name="threequarters" horiz-adv-x="839" d="M247 0H183L627 700H690L247 0ZM53 398H192Q219 398 231 408T244 445V465Q244 506 192 506H90V553H190Q217 553 229 563T242 596V607Q242 632 230 642T190 653H53V700H196Q295 700 295
610V601Q295 551 250 534V528Q296 513 296 461V443Q296 351 197 351H53V398ZM742 0H691V60H501V106L674 349H742V102H794V60H742V0ZM555 107V102H691V294H686L555 107Z" />
<glyph unicode="&#xbf;" glyph-name="questiondown" horiz-adv-x="434" d="M234 402V524H301V402H234ZM237 293H299V263Q299 215 286 186T232 131L174 94Q129 67 114 45T99 -13V-28Q99 -71 121 -93T207 -116H417V-176H207Q112 -176 72 -140T31 -35V-17Q31 35 53
68T128 132L188 169Q211 183 222 200T235 229T237 267V293Z" />
<glyph unicode="&#xc0;" glyph-name="Agrave" horiz-adv-x="607" d="M132 920H211L336 761H272L132 920ZM293 636L173 253H436L315 636H293ZM516 0L455 194H154L93 0H20L247 700H361L588 0H516Z" />
<glyph unicode="&#xc1;" glyph-name="Aacute" horiz-adv-x="607" d="M479 920L339 761H276L401 920H479ZM293 636L173 253H436L315 636H293ZM516 0L455 194H154L93 0H20L247 700H361L588 0H516Z" />
<glyph unicode="&#xc2;" glyph-name="Acircumflex" horiz-adv-x="607" d="M211 761H147L267 921H341L461 761H397L311 871H297L211 761ZM293 636L173 253H436L315 636H293ZM516 0L455 194H154L93 0H20L247 700H361L588 0H516Z" />
<glyph unicode="&#xc3;" glyph-name="Atilde" horiz-adv-x="607" d="M200 761H149V826Q149 906 222 906H231Q253 906 268 898T308 865L333 840Q351 821 358 816T375 811H384Q408 811 408 841V905H459V841Q459 802 440 781T386 760H377Q354 760 339 768T300 800L275
826Q245 856 233 856H224Q200 856 200 826V761ZM293 636L173 253H436L315 636H293ZM516 0L455 194H154L93 0H20L247 700H361L588 0H516Z" />
<glyph unicode="&#xc4;" glyph-name="Adieresis" horiz-adv-x="607" d="M420 761H356V874H420V761ZM252 761H188V874H252V761ZM293 636L173 253H436L315 636H293ZM516 0L455 194H154L93 0H20L247 700H361L588 0H516Z" />
<glyph unicode="&#xc5;" glyph-name="Aring" horiz-adv-x="607" d="M319 759H289Q245 759 218 782T190 846V870Q190 911 217 934T289 957H319Q363 957 390 934T418 870V846Q418 805 391 782T319 759ZM242 848Q242 804 296 804H312Q366 804 366 848V868Q366 912
312 912H296Q242 912 242 868V848ZM293 636L173 253H436L315 636H293ZM516 0L455 194H154L93 0H20L247 700H361L588 0H516Z" />
<glyph unicode="&#xc6;" glyph-name="AE" horiz-adv-x="852" d="M416 633L220 253H435V633H416ZM435 194H190L90 0H13L383 700H819V640H503V380H799V320H503V60H819V0H435V194Z" />
<glyph unicode="&#xc7;" glyph-name="Ccedilla" horiz-adv-x="518" d="M408 -143Q408 -224 322 -224H233V-178H320Q355 -178 355 -147V-117Q355 -86 320 -86H279L261 -70V2Q156 9 113 64T70 238V462Q70 592 121 646T304 700H492V640H294Q210 640 175 605T139 474V226Q139
131 174 96T294 60H492V0H309V-42H330Q408 -42 408 -117V-143Z" />
<glyph unicode="&#xc8;" glyph-name="Egrave" horiz-adv-x="536" d="M122 920H201L326 761H262L122 920ZM503 0H86V700H503V640H154V380H483V320H154V60H503V0Z" />
<glyph unicode="&#xc9;" glyph-name="Eacute" horiz-adv-x="536" d="M451 920L311 761H248L373 920H451ZM503 0H86V700H503V640H154V380H483V320H154V60H503V0Z" />
<glyph unicode="&#xca;" glyph-name="Ecircumflex" horiz-adv-x="536" d="M201 761H137L257 921H331L451 761H387L301 871H287L201 761ZM503 0H86V700H503V640H154V380H483V320H154V60H503V0Z" />
<glyph unicode="&#xcb;" glyph-name="Edieresis" horiz-adv-x="536" d="M410 761H346V874H410V761ZM242 761H178V874H242V761ZM503 0H86V700H503V640H154V380H483V320H154V60H503V0Z" />
<glyph unicode="&#xcc;" glyph-name="Igrave" horiz-adv-x="241" d="M-51 920H28L153 761H89L-51 920ZM155 0H86V700H155V0Z" />
<glyph unicode="&#xcd;" glyph-name="Iacute" horiz-adv-x="241" d="M296 920L156 761H93L218 920H296ZM155 0H86V700H155V0Z" />
<glyph unicode="&#xce;" glyph-name="Icircumflex" horiz-adv-x="241" d="M27 761H-37L83 921H157L277 761H213L127 871H113L27 761ZM155 0H86V700H155V0Z" />
<glyph unicode="&#xcf;" glyph-name="Idieresis" horiz-adv-x="241" d="M237 761H173V874H237V761ZM69 761H5V874H69V761ZM155 0H86V700H155V0Z" />
<glyph unicode="&#xd0;" glyph-name="Eth" horiz-adv-x="681" d="M377 0H120V322H16V378H120V700H377Q508 700 559 646T611 462V238Q611 108 560 54T377 0ZM189 60H387Q471 60 506 95T542 226V474Q542 569 507 604T387 640H189V378H321V322H189V60Z" />
<glyph unicode="&#xd1;" glyph-name="Ntilde" horiz-adv-x="678" d="M235 761H184V826Q184 906 257 906H266Q288 906 303 898T343 865L368 840Q386 821 393 816T410 811H419Q443 811 443 841V905H494V841Q494 802 475 781T421 760H412Q389 760 374 768T335 800L310
826Q280 856 268 856H259Q235 856 235 826V761ZM187 700L507 98H525V700H591V0H491L171 602H153V0H86V700H187Z" />
<glyph unicode="&#xd2;" glyph-name="Ograve" horiz-adv-x="649" d="M153 920H232L357 761H293L153 920ZM343 -6H306Q173 -6 122 48T70 234V466Q70 598 121 652T306 706H343Q476 706 527 652T579 466V234Q579 102 528 48T343 -6ZM139 222Q139 126 175 90T296 54H353Q439
54 474 90T510 222V478Q510 574 475 610T353 646H296Q211 646 175 610T139 478V222Z" />
<glyph unicode="&#xd3;" glyph-name="Oacute" horiz-adv-x="649" d="M500 920L360 761H297L422 920H500ZM343 -6H306Q173 -6 122 48T70 234V466Q70 598 121 652T306 706H343Q476 706 527 652T579 466V234Q579 102 528 48T343 -6ZM139 222Q139 126 175 90T296 54H353Q439
54 474 90T510 222V478Q510 574 475 610T353 646H296Q211 646 175 610T139 478V222Z" />
<glyph unicode="&#xd4;" glyph-name="Ocircumflex" horiz-adv-x="649" d="M232 761H168L288 921H362L482 761H418L332 871H318L232 761ZM343 -6H306Q173 -6 122 48T70 234V466Q70 598 121 652T306 706H343Q476 706 527 652T579 466V234Q579 102 528 48T343 -6ZM139
222Q139 126 175 90T296 54H353Q439 54 474 90T510 222V478Q510 574 475 610T353 646H296Q211 646 175 610T139 478V222Z" />
<glyph unicode="&#xd5;" glyph-name="Otilde" horiz-adv-x="649" d="M221 761H170V826Q170 906 243 906H252Q274 906 289 898T329 865L354 840Q372 821 379 816T396 811H405Q429 811 429 841V905H480V841Q480 802 461 781T407 760H398Q375 760 360 768T321 800L296
826Q266 856 254 856H245Q221 856 221 826V761ZM343 -6H306Q173 -6 122 48T70 234V466Q70 598 121 652T306 706H343Q476 706 527 652T579 466V234Q579 102 528 48T343 -6ZM139 222Q139 126 175 90T296 54H353Q439 54 474 90T510 222V478Q510 574 475 610T353 646H296Q211
646 175 610T139 478V222Z" />
<glyph unicode="&#xd6;" glyph-name="Odieresis" horiz-adv-x="649" d="M441 761H377V874H441V761ZM273 761H209V874H273V761ZM343 -6H306Q173 -6 122 48T70 234V466Q70 598 121 652T306 706H343Q476 706 527 652T579 466V234Q579 102 528 48T343 -6ZM139 222Q139
126 175 90T296 54H353Q439 54 474 90T510 222V478Q510 574 475 610T353 646H296Q211 646 175 610T139 478V222Z" />
<glyph unicode="&#xd7;" glyph-name="multiply" horiz-adv-x="486" d="M378 172L242 309L105 172L66 212L202 349L66 485L105 525L242 388L378 525L417 485L281 349L417 212L378 172Z" />
<glyph unicode="&#xd8;" glyph-name="Oslash" horiz-adv-x="649" d="M343 -6H306Q173 -6 122 48T70 234V466Q70 598 121 652T306 706H343Q476 706 527 652T579 466V234Q579 102 528 48T343 -6ZM137 219Q137 162 149 128L467 622Q433 649 356 649H294Q208 649 173
613T137 481V219ZM294 51H356Q441 51 477 87T513 219V481Q513 538 501 572L183 78Q217 51 294 51Z" />
<glyph unicode="&#xd9;" glyph-name="Ugrave" horiz-adv-x="649" d="M153 920H232L357 761H293L153 920ZM147 700V227Q147 130 181 95T300 59H349Q434 59 468 94T502 227V700H571V235Q571 104 523 51T344 -2H305Q175 -2 127 51T78 235V700H147Z" />
<glyph unicode="&#xda;" glyph-name="Uacute" horiz-adv-x="649" d="M500 920L360 761H297L422 920H500ZM147 700V227Q147 130 181 95T300 59H349Q434 59 468 94T502 227V700H571V235Q571 104 523 51T344 -2H305Q175 -2 127 51T78 235V700H147Z" />
<glyph unicode="&#xdb;" glyph-name="Ucircumflex" horiz-adv-x="649" d="M232 761H168L288 921H362L482 761H418L332 871H318L232 761ZM147 700V227Q147 130 181 95T300 59H349Q434 59 468 94T502 227V700H571V235Q571 104 523 51T344 -2H305Q175 -2 127 51T78
235V700H147Z" />
<glyph unicode="&#xdc;" glyph-name="Udieresis" horiz-adv-x="649" d="M441 761H377V874H441V761ZM273 761H209V874H273V761ZM147 700V227Q147 130 181 95T300 59H349Q434 59 468 94T502 227V700H571V235Q571 104 523 51T344 -2H305Q175 -2 127 51T78 235V700H147Z" />
<glyph unicode="&#xdd;" glyph-name="Yacute" horiz-adv-x="558" d="M454 920L314 761H251L376 920H454ZM245 0V235L12 700H87L271 324H288L474 700H546L313 235V0H245Z" />
<glyph unicode="&#xde;" glyph-name="Thorn" horiz-adv-x="577" d="M316 513H155V189H316Q396 189 431 218T467 322V380Q467 455 432 484T316 513ZM321 129H155V0H86V700H155V573H321Q429 573 482 530T536 380V322Q536 217 483 173T321 129Z" />
<glyph unicode="&#xdf;" glyph-name="germandbls" horiz-adv-x="615" d="M149 0H81V530Q81 615 133 660T276 706H333Q422 706 470 665T518 554Q518 520 502 489T465 440T428 401T411 365Q411 351 428 336T469 306T517 271T558 220T575 149Q575 76 529 38T396 0H294V57H396Q510
57 510 150Q510 179 494 202T453 241T405 272T365 310T348 361Q348 385 364 410T400 453T436 497T453 550Q453 595 423 622T331 649H278Q218 649 184 619T149 530V0Z" />
<glyph unicode="&#xe0;" glyph-name="agrave" horiz-adv-x="565" d="M115 744H194L319 585H255L115 744ZM232 57H235Q285 57 338 80L416 113V465H264Q198 465 166 433T134 331V160Q134 57 232 57ZM344 22Q281 -6 224 -6H221Q150 -6 109 32T67 152V330Q67 524 263
524H483V0H422L418 54L344 22Z" />
<glyph unicode="&#xe1;" glyph-name="aacute" horiz-adv-x="565" d="M458 744L318 585H255L380 744H458ZM232 57H235Q285 57 338 80L416 113V465H264Q198 465 166 433T134 331V160Q134 57 232 57ZM344 22Q281 -6 224 -6H221Q150 -6 109 32T67 152V330Q67 524 263
524H483V0H422L418 54L344 22Z" />
<glyph unicode="&#xe2;" glyph-name="acircumflex" horiz-adv-x="565" d="M190 585H126L246 745H320L440 585H376L290 695H276L190 585ZM232 57H235Q285 57 338 80L416 113V465H264Q198 465 166 433T134 331V160Q134 57 232 57ZM344 22Q281 -6 224 -6H221Q150
-6 109 32T67 152V330Q67 524 263 524H483V0H422L418 54L344 22Z" />
<glyph unicode="&#xe3;" glyph-name="atilde" horiz-adv-x="565" d="M179 585H128V650Q128 730 201 730H210Q232 730 247 722T287 689L312 664Q330 645 337 640T354 635H363Q387 635 387 665V729H438V665Q438 626 419 605T365 584H356Q333 584 318 592T279 624L254
650Q224 680 212 680H203Q179 680 179 650V585ZM232 57H235Q285 57 338 80L416 113V465H264Q198 465 166 433T134 331V160Q134 57 232 57ZM344 22Q281 -6 224 -6H221Q150 -6 109 32T67 152V330Q67 524 263 524H483V0H422L418 54L344 22Z" />
<glyph unicode="&#xe4;" glyph-name="adieresis" horiz-adv-x="565" d="M399 585H335V698H399V585ZM231 585H167V698H231V585ZM232 57H235Q285 57 338 80L416 113V465H264Q198 465 166 433T134 331V160Q134 57 232 57ZM344 22Q281 -6 224 -6H221Q150 -6 109 32T67
152V330Q67 524 263 524H483V0H422L418 54L344 22Z" />
<glyph unicode="&#xe5;" glyph-name="aring" horiz-adv-x="565" d="M298 583H268Q224 583 197 606T169 670V694Q169 735 196 758T268 781H298Q342 781 369 758T397 694V670Q397 629 370 606T298 583ZM221 672Q221 628 275 628H291Q345 628 345 672V692Q345 736
291 736H275Q221 736 221 692V672ZM232 57H235Q285 57 338 80L416 113V465H264Q198 465 166 433T134 331V160Q134 57 232 57ZM344 22Q281 -6 224 -6H221Q150 -6 109 32T67 152V330Q67 524 263 524H483V0H422L418 54L344 22Z" />
<glyph unicode="&#xe6;" glyph-name="ae" horiz-adv-x="854" d="M457 339V294H740V339Q740 409 710 441T618 474H587Q521 474 489 442T457 339ZM237 55Q281 55 338 78L402 105Q390 141 390 189V334Q390 418 427 467H264Q198 467 166 435T134 333V159Q134 55 234
55H237ZM344 22Q278 -6 222 -6H219Q149 -6 108 32T67 152V330Q67 524 263 524H524Q552 530 587 530H617Q710 530 756 483T803 334V261L786 239H457V185Q457 116 489 84T590 51Q654 51 736 76L772 87L788 34L752 22Q656 -6 588 -6Q474 -6 426 58L344 22Z" />
<glyph unicode="&#xe7;" glyph-name="ccedilla" horiz-adv-x="463" d="M273 -224H185V-178H271Q307 -178 307 -147V-117Q307 -86 271 -86H231L213 -70V-3Q65 17 65 186V330Q65 524 260 524H419V467H262Q197 467 165 434T132 331V185Q132 116 164 84T263 51Q322
51 391 71L425 81L441 28L407 18Q324 -6 261 -6V-42H282Q359 -42 359 -117V-143Q359 -185 338 -204T273 -224Z" />
<glyph unicode="&#xe8;" glyph-name="egrave" horiz-adv-x="537" d="M96 744H175L300 585H236L96 744ZM131 339V294H422V339Q422 409 393 441T300 474H261Q195 474 163 442T131 339ZM434 22Q340 -6 262 -6Q65 -6 65 189V334Q65 530 261 530H299Q392 530 438 483T485
334V261L468 239H131V185Q131 116 163 84T264 51Q336 51 418 76L454 87L470 34L434 22Z" />
<glyph unicode="&#xe9;" glyph-name="eacute" horiz-adv-x="537" d="M443 744L303 585H240L365 744H443ZM131 339V294H422V339Q422 409 393 441T300 474H261Q195 474 163 442T131 339ZM434 22Q340 -6 262 -6Q65 -6 65 189V334Q65 530 261 530H299Q392 530 438
483T485 334V261L468 239H131V185Q131 116 163 84T264 51Q336 51 418 76L454 87L470 34L434 22Z" />
<glyph unicode="&#xea;" glyph-name="ecircumflex" horiz-adv-x="537" d="M175 585H111L231 745H305L425 585H361L275 695H261L175 585ZM131 339V294H422V339Q422 409 393 441T300 474H261Q195 474 163 442T131 339ZM434 22Q340 -6 262 -6Q65 -6 65 189V334Q65
530 261 530H299Q392 530 438 483T485 334V261L468 239H131V185Q131 116 163 84T264 51Q336 51 418 76L454 87L470 34L434 22Z" />
<glyph unicode="&#xeb;" glyph-name="edieresis" horiz-adv-x="537" d="M384 585H320V698H384V585ZM216 585H152V698H216V585ZM131 339V294H422V339Q422 409 393 441T300 474H261Q195 474 163 442T131 339ZM434 22Q340 -6 262 -6Q65 -6 65 189V334Q65 530 261
530H299Q392 530 438 483T485 334V261L468 239H131V185Q131 116 163 84T264 51Q336 51 418 76L454 87L470 34L434 22Z" />
<glyph unicode="&#xec;" glyph-name="igrave" horiz-adv-x="231" d="M-56 744H23L148 585H84L-56 744ZM81 524H150V0H81V524Z" />
<glyph unicode="&#xed;" glyph-name="iacute" horiz-adv-x="231" d="M290 744L150 585H87L212 744H290ZM81 524H150V0H81V524Z" />
<glyph unicode="&#xee;" glyph-name="icircumflex" horiz-adv-x="231" d="M23 585H-41L79 745H153L273 585H209L123 695H109L23 585ZM81 524H150V0H81V524Z" />
<glyph unicode="&#xef;" glyph-name="idieresis" horiz-adv-x="231" d="M232 585H168V698H232V585ZM64 585H0V698H64V585ZM81 524H150V0H81V524Z" />
<glyph unicode="&#xf0;" glyph-name="eth" horiz-adv-x="570" d="M324 -6H279Q72 -6 72 186V273Q72 354 113 392T226 431H229Q285 431 357 402L455 362V449Q455 533 431 572L360 490L321 521L395 605Q370 620 318 630L200 652L214 710L332 687Q401 674 437 653L492
715L530 686L475 623Q522 570 522 438V195Q522 -6 324 -6ZM283 53H318Q388 53 422 84T456 193V306L351 347Q292 371 244 371H240Q139 371 139 267V185Q139 114 174 84T283 53Z" />
<glyph unicode="&#xf1;" glyph-name="ntilde" horiz-adv-x="579" d="M186 585H135V650Q135 730 208 730H217Q239 730 254 722T294 689L319 664Q337 645 344 640T361 635H370Q394 635 394 665V729H445V665Q445 626 426 605T372 584H363Q340 584 325 592T286 624L261
650Q231 680 219 680H210Q186 680 186 650V585ZM232 442L149 408V0H81V524H142L146 470L226 502Q294 530 348 530H351Q421 530 462 492T503 372V0H436V363Q436 466 338 466H335Q294 466 232 442Z" />
<glyph unicode="&#xf2;" glyph-name="ograve" horiz-adv-x="557" d="M107 744H186L311 585H247L107 744ZM303 -6H254Q65 -6 65 193V331Q65 434 112 482T254 530H303Q397 530 444 482T492 331V193Q492 -6 303 -6ZM133 185Q133 116 163 84T255 51H302Q364 51 394
83T424 185V339Q424 409 394 441T302 473H255Q193 473 163 441T133 339V185Z" />
<glyph unicode="&#xf3;" glyph-name="oacute" horiz-adv-x="557" d="M454 744L314 585H251L376 744H454ZM303 -6H254Q65 -6 65 193V331Q65 434 112 482T254 530H303Q397 530 444 482T492 331V193Q492 -6 303 -6ZM133 185Q133 116 163 84T255 51H302Q364 51 394
83T424 185V339Q424 409 394 441T302 473H255Q193 473 163 441T133 339V185Z" />
<glyph unicode="&#xf4;" glyph-name="ocircumflex" horiz-adv-x="557" d="M186 585H122L242 745H316L436 585H372L286 695H272L186 585ZM303 -6H254Q65 -6 65 193V331Q65 434 112 482T254 530H303Q397 530 444 482T492 331V193Q492 -6 303 -6ZM133 185Q133 116
163 84T255 51H302Q364 51 394 83T424 185V339Q424 409 394 441T302 473H255Q193 473 163 441T133 339V185Z" />
<glyph unicode="&#xf5;" glyph-name="otilde" horiz-adv-x="557" d="M175 585H124V650Q124 730 197 730H206Q228 730 243 722T283 689L308 664Q326 645 333 640T350 635H359Q383 635 383 665V729H434V665Q434 626 415 605T361 584H352Q329 584 314 592T275 624L250
650Q220 680 208 680H199Q175 680 175 650V585ZM303 -6H254Q65 -6 65 193V331Q65 434 112 482T254 530H303Q397 530 444 482T492 331V193Q492 -6 303 -6ZM133 185Q133 116 163 84T255 51H302Q364 51 394 83T424 185V339Q424 409 394 441T302 473H255Q193 473 163
441T133 339V185Z" />
<glyph unicode="&#xf6;" glyph-name="odieresis" horiz-adv-x="557" d="M395 585H331V698H395V585ZM227 585H163V698H227V585ZM303 -6H254Q65 -6 65 193V331Q65 434 112 482T254 530H303Q397 530 444 482T492 331V193Q492 -6 303 -6ZM133 185Q133 116 163 84T255
51H302Q364 51 394 83T424 185V339Q424 409 394 441T302 473H255Q193 473 163 441T133 339V185Z" />
<glyph unicode="&#xf7;" glyph-name="divide" horiz-adv-x="486" d="M277 496H210V618H277V496ZM446 320H40V373H446V320ZM277 75H210V198H277V75Z" />
<glyph unicode="&#xf8;" glyph-name="oslash" horiz-adv-x="557" d="M303 -6H254Q65 -6 65 193V331Q65 434 112 482T254 530H303Q397 530 444 482T492 331V193Q492 -6 303 -6ZM129 183Q129 132 146 100L369 464Q343 476 304 476H253Q190 476 160 444T129 341V183ZM253
48H304Q367 48 397 80T428 183V341Q428 396 410 427L186 61Q212 48 253 48Z" />
<glyph unicode="&#xf9;" glyph-name="ugrave" horiz-adv-x="572" d="M114 744H193L318 585H254L114 744ZM352 22Q287 -6 230 -6H227Q157 -6 116 32T75 152V524H143V162Q143 59 241 59H244Q291 59 346 83L423 115V524H491V0H430L426 54L352 22Z" />
<glyph unicode="&#xfa;" glyph-name="uacute" horiz-adv-x="572" d="M461 744L321 585H258L383 744H461ZM352 22Q287 -6 230 -6H227Q157 -6 116 32T75 152V524H143V162Q143 59 241 59H244Q291 59 346 83L423 115V524H491V0H430L426 54L352 22Z" />
<glyph unicode="&#xfb;" glyph-name="ucircumflex" horiz-adv-x="572" d="M193 585H129L249 745H323L443 585H379L293 695H279L193 585ZM352 22Q287 -6 230 -6H227Q157 -6 116 32T75 152V524H143V162Q143 59 241 59H244Q291 59 346 83L423 115V524H491V0H430L426
54L352 22Z" />
<glyph unicode="&#xfc;" glyph-name="udieresis" horiz-adv-x="572" d="M402 585H338V698H402V585ZM234 585H170V698H234V585ZM352 22Q287 -6 230 -6H227Q157 -6 116 32T75 152V524H143V162Q143 59 241 59H244Q291 59 346 83L423 115V524H491V0H430L426 54L352 22Z" />
<glyph unicode="&#xfd;" glyph-name="yacute" horiz-adv-x="500" d="M425 744L285 585H222L347 744H425ZM98 -176H39V-117H101Q153 -117 181 -99T225 -36L243 17H195L21 524H89L242 71H260L411 524H480L288 -44Q264 -115 221 -145T98 -176Z" />
<glyph unicode="&#xfe;" glyph-name="thorn" horiz-adv-x="568" d="M149 -176H81V700H148V471L225 503Q292 530 347 530H350Q420 530 461 492T502 372V195Q502 0 306 0H149V-176ZM148 60H305Q371 60 403 92T435 194V365Q435 468 336 468H333Q290 468 231 444L148 412V60Z" />
<glyph unicode="&#xff;" glyph-name="ydieresis" horiz-adv-x="500" d="M366 585H302V698H366V585ZM198 585H134V698H198V585ZM98 -176H39V-117H101Q153 -117 181 -99T225 -36L243 17H195L21 524H89L242 71H260L411 524H480L288 -44Q264 -115 221 -145T98 -176Z" />
<glyph unicode="&#x100;" glyph-name="Amacron" horiz-adv-x="607" d="M177 781V833H431V781H177ZM293 636L173 253H436L315 636H293ZM516 0L455 194H154L93 0H20L247 700H361L588 0H516Z" />
<glyph unicode="&#x101;" glyph-name="amacron" horiz-adv-x="565" d="M156 605V657H410V605H156ZM232 57H235Q285 57 338 80L416 113V465H264Q198 465 166 433T134 331V160Q134 57 232 57ZM344 22Q281 -6 224 -6H221Q150 -6 109 32T67 152V330Q67 524 263 524H483V0H422L418
54L344 22Z" />
<glyph unicode="&#x102;" glyph-name="Abreve" horiz-adv-x="607" d="M383 902H437V853Q437 808 405 784T319 759H289Q236 759 204 783T171 853V902H225V856Q225 809 291 809H317Q383 809 383 856V902ZM293 636L173 253H436L315 636H293ZM516 0L455 194H154L93
0H20L247 700H361L588 0H516Z" />
<glyph unicode="&#x103;" glyph-name="abreve" horiz-adv-x="565" d="M362 726H416V677Q416 632 384 608T298 583H268Q215 583 183 607T150 677V726H204V680Q204 633 270 633H296Q362 633 362 680V726ZM232 57H235Q285 57 338 80L416 113V465H264Q198 465 166
433T134 331V160Q134 57 232 57ZM344 22Q281 -6 224 -6H221Q150 -6 109 32T67 152V330Q67 524 263 524H483V0H422L418 54L344 22Z" />
<glyph unicode="&#x104;" glyph-name="Aogonek" horiz-adv-x="607" d="M293 636L173 253H436L315 636H293ZM587 -177V-226H531Q442 -226 442 -147V-135Q442 -106 451 -90T491 -40L529 0H516L455 194H154L93 0H20L247 700H361L588 0H587L541 -53Q535 -59 526 -69T514
-83T507 -92T501 -103T499 -113T498 -129V-143Q498 -177 534 -177H587Z" />
<glyph unicode="&#x105;" glyph-name="aogonek" horiz-adv-x="565" d="M232 57H235Q285 57 338 80L416 113V465H264Q198 465 166 433T134 331V160Q134 57 232 57ZM483 -177V-226H426Q338 -226 338 -147V-135Q338 -105 346 -89T386 -40L424 0H422L418 54L344 22Q281
-6 224 -6H221Q150 -6 109 32T67 152V330Q67 524 263 524H483V0L437 -53Q431 -60 424 -68T413 -79T405 -88T399 -97T396 -105T394 -116T393 -129V-143Q393 -177 430 -177H483Z" />
<glyph unicode="&#x106;" glyph-name="Cacute" horiz-adv-x="518" d="M432 920L292 761H229L354 920H432ZM492 700V640H294Q210 640 175 605T139 474V226Q139 131 174 96T294 60H492V0H304Q173 0 122 54T70 238V462Q70 592 121 646T304 700H492Z" />
<glyph unicode="&#x107;" glyph-name="cacute" horiz-adv-x="463" d="M407 744L267 585H204L329 744H407ZM419 524V467H262Q197 467 165 434T132 331V185Q132 116 164 84T263 51Q322 51 391 71L425 81L441 28L407 18Q324 -6 257 -6Q65 -6 65 186V330Q65 524 260 524H419Z" />
<glyph unicode="&#x108;" glyph-name="Ccircumflex" horiz-adv-x="518" d="M211 761H147L267 921H341L461 761H397L311 871H297L211 761ZM492 700V640H294Q210 640 175 605T139 474V226Q139 131 174 96T294 60H492V0H304Q173 0 122 54T70 238V462Q70 592 121 646T304
700H492Z" />
<glyph unicode="&#x109;" glyph-name="ccircumflex" horiz-adv-x="463" d="M154 585H90L210 745H284L404 585H340L254 695H240L154 585ZM419 524V467H262Q197 467 165 434T132 331V185Q132 116 164 84T263 51Q322 51 391 71L425 81L441 28L407 18Q324 -6 257 -6Q65
-6 65 186V330Q65 524 260 524H419Z" />
<glyph unicode="&#x10a;" glyph-name="Cdotaccent" horiz-adv-x="518" d="M337 761H271V884H337V761ZM492 700V640H294Q210 640 175 605T139 474V226Q139 131 174 96T294 60H492V0H304Q173 0 122 54T70 238V462Q70 592 121 646T304 700H492Z" />
<glyph unicode="&#x10b;" glyph-name="cdotaccent" horiz-adv-x="463" d="M280 585H214V708H280V585ZM419 524V467H262Q197 467 165 434T132 331V185Q132 116 164 84T263 51Q322 51 391 71L425 81L441 28L407 18Q324 -6 257 -6Q65 -6 65 186V330Q65 524 260 524H419Z" />
<glyph unicode="&#x10c;" glyph-name="Ccaron" horiz-adv-x="518" d="M147 922H211L297 812H311L397 922H461L341 762H267L147 922ZM492 700V640H294Q210 640 175 605T139 474V226Q139 131 174 96T294 60H492V0H304Q173 0 122 54T70 238V462Q70 592 121 646T304 700H492Z" />
<glyph unicode="&#x10d;" glyph-name="ccaron" horiz-adv-x="463" d="M90 746H154L240 636H254L340 746H404L284 586H210L90 746ZM419 524V467H262Q197 467 165 434T132 331V185Q132 116 164 84T263 51Q322 51 391 71L425 81L441 28L407 18Q324 -6 257 -6Q65 -6
65 186V330Q65 524 260 524H419Z" />
<glyph unicode="&#x10e;" glyph-name="Dcaron" horiz-adv-x="647" d="M167 922H231L317 812H331L417 922H481L361 762H287L167 922ZM86 0V700H343Q474 700 525 646T577 462V238Q577 108 526 54T343 0H86ZM155 640V60H353Q437 60 472 95T508 226V474Q508 569 473
604T353 640H155Z" />
<glyph unicode="&#x10f;" glyph-name="dcaron" horiz-adv-x="617" d="M569 700H631V632L612 491H569V700ZM232 57H235Q281 57 338 80L421 113V465H264Q198 465 166 433T134 331V160Q134 57 232 57ZM344 22Q273 -6 224 -6H221Q150 -6 109 32T67 152V330Q67 524
263 524H420V700H488V0H427L423 54L344 22Z" />
<glyph unicode="&#x110;" glyph-name="Dcroat" horiz-adv-x="681" d="M377 0H120V322H16V378H120V700H377Q508 700 559 646T611 462V238Q611 108 560 54T377 0ZM189 60H387Q471 60 506 95T542 226V474Q542 569 507 604T387 640H189V378H321V322H189V60Z" />
<glyph unicode="&#x111;" glyph-name="" horiz-adv-x="569" d="M232 57H235Q281 57 338 80L421 113V454H264Q198 454 166 422T134 320V160Q134 57 232 57ZM344 22Q273 -6 224 -6H221Q150 -6 109 32T67 152V319Q67 513 263 513H420V591H308V641H420V700H488V641H569V591H488V0H427L423
54L344 22Z" />
<glyph unicode="&#x112;" glyph-name="Emacron" horiz-adv-x="536" d="M169 781V833H423V781H169ZM503 0H86V700H503V640H154V380H483V320H154V60H503V0Z" />
<glyph unicode="&#x113;" glyph-name="emacron" horiz-adv-x="537" d="M141 605V657H395V605H141ZM131 339V294H422V339Q422 409 393 441T300 474H261Q195 474 163 442T131 339ZM434 22Q340 -6 262 -6Q65 -6 65 189V334Q65 530 261 530H299Q392 530 438 483T485
334V261L468 239H131V185Q131 116 163 84T264 51Q336 51 418 76L454 87L470 34L434 22Z" />
<glyph unicode="&#x114;" glyph-name="Ebreve" horiz-adv-x="536" d="M373 902H427V853Q427 808 395 784T309 759H279Q226 759 194 783T161 853V902H215V856Q215 809 281 809H307Q373 809 373 856V902ZM503 0H86V700H503V640H154V380H483V320H154V60H503V0Z" />
<glyph unicode="&#x115;" glyph-name="ebreve" horiz-adv-x="537" d="M347 726H401V677Q401 632 369 608T283 583H253Q200 583 168 607T135 677V726H189V680Q189 633 255 633H281Q347 633 347 680V726ZM131 339V294H422V339Q422 409 393 441T300 474H261Q195 474
163 442T131 339ZM434 22Q340 -6 262 -6Q65 -6 65 189V334Q65 530 261 530H299Q392 530 438 483T485 334V261L468 239H131V185Q131 116 163 84T264 51Q336 51 418 76L454 87L470 34L434 22Z" />
<glyph unicode="&#x116;" glyph-name="Edotaccent" horiz-adv-x="536" d="M329 761H263V884H329V761ZM503 0H86V700H503V640H154V380H483V320H154V60H503V0Z" />
<glyph unicode="&#x117;" glyph-name="edotaccent" horiz-adv-x="537" d="M301 585H235V708H301V585ZM131 339V294H422V339Q422 409 393 441T300 474H261Q195 474 163 442T131 339ZM434 22Q340 -6 262 -6Q65 -6 65 189V334Q65 530 261 530H299Q392 530 438 483T485
334V261L468 239H131V185Q131 116 163 84T264 51Q336 51 418 76L454 87L470 34L434 22Z" />
<glyph unicode="&#x118;" glyph-name="Eogonek" horiz-adv-x="536" d="M503 -177V-226H446Q358 -226 358 -147V-135Q358 -105 366 -89T406 -40L444 0H86V700H503V640H154V380H483V320H154V60H503V0L457 -53Q451 -60 444 -68T433 -79T425 -88T419 -97T416 -105T414
-116T413 -129V-143Q413 -177 450 -177H503Z" />
<glyph unicode="&#x119;" glyph-name="eogonek" horiz-adv-x="537" d="M131 339V294H422V339Q422 409 393 441T300 474H261Q195 474 163 442T131 339ZM337 -177V-226H280Q192 -226 192 -147V-135Q192 -105 200 -89T240 -40L273 -6H262Q65 -6 65 189V334Q65 530
261 530H299Q392 530 438 483T485 334V261L468 239H131V185Q131 116 163 84T264 51Q336 51 418 76L454 87L470 34L434 22Q379 5 337 0L291 -53Q285 -60 278 -68T267 -79T259 -88T253 -97T250 -105T248 -116T247 -129V-143Q247 -177 284 -177H337Z" />
<glyph unicode="&#x11a;" glyph-name="Ecaron" horiz-adv-x="536" d="M137 922H201L287 812H301L387 922H451L331 762H257L137 922ZM503 0H86V700H503V640H154V380H483V320H154V60H503V0Z" />
<glyph unicode="&#x11b;" glyph-name="ecaron" horiz-adv-x="537" d="M111 746H175L261 636H275L361 746H425L305 586H231L111 746ZM131 339V294H422V339Q422 409 393 441T300 474H261Q195 474 163 442T131 339ZM434 22Q340 -6 262 -6Q65 -6 65 189V334Q65 530
261 530H299Q392 530 438 483T485 334V261L468 239H131V185Q131 116 163 84T264 51Q336 51 418 76L454 87L470 34L434 22Z" />
<glyph unicode="&#x11c;" glyph-name="Gcircumflex" horiz-adv-x="606" d="M234 761H170L290 921H364L484 761H420L334 871H320L234 761ZM536 640H294Q210 640 175 605T139 474V226Q139 131 174 96T294 60H483V335H549V0H304Q173 0 122 54T70 238V462Q70 592 121
646T304 700H536V640Z" />
<glyph unicode="&#x11d;" glyph-name="gcircumflex" horiz-adv-x="565" d="M190 585H126L246 745H320L440 585H376L290 695H276L190 585ZM269 -176H96V-117H266Q347 -117 382 -84T418 21V90L342 59Q269 31 220 31H217Q146 31 105 70T63 194V332Q63 524 259 524H484V24Q484
-79 432 -127T269 -176ZM228 92H231Q273 92 336 117L418 149V466H260Q193 466 162 434T130 332V195Q130 92 228 92Z" />
<glyph unicode="&#x11e;" glyph-name="Gbreve" horiz-adv-x="606" d="M409 902H463V853Q463 808 431 784T345 759H315Q262 759 230 783T197 853V902H251V856Q251 809 317 809H343Q409 809 409 856V902ZM536 640H294Q210 640 175 605T139 474V226Q139 131 174 96T294
60H483V335H549V0H304Q173 0 122 54T70 238V462Q70 592 121 646T304 700H536V640Z" />
<glyph unicode="&#x11f;" glyph-name="gbreve" horiz-adv-x="565" d="M362 726H416V677Q416 632 384 608T298 583H268Q215 583 183 607T150 677V726H204V680Q204 633 270 633H296Q362 633 362 680V726ZM269 -176H96V-117H266Q347 -117 382 -84T418 21V90L342 59Q269
31 220 31H217Q146 31 105 70T63 194V332Q63 524 259 524H484V24Q484 -79 432 -127T269 -176ZM228 92H231Q273 92 336 117L418 149V466H260Q193 466 162 434T130 332V195Q130 92 228 92Z" />
<glyph unicode="&#x120;" glyph-name="Gdotaccent" horiz-adv-x="606" d="M363 761H297V884H363V761ZM536 640H294Q210 640 175 605T139 474V226Q139 131 174 96T294 60H483V335H549V0H304Q173 0 122 54T70 238V462Q70 592 121 646T304 700H536V640Z" />
<glyph unicode="&#x121;" glyph-name="gdotaccent" horiz-adv-x="565" d="M316 585H250V708H316V585ZM269 -176H96V-117H266Q347 -117 382 -84T418 21V90L342 59Q269 31 220 31H217Q146 31 105 70T63 194V332Q63 524 259 524H484V24Q484 -79 432 -127T269 -176ZM228
92H231Q273 92 336 117L418 149V466H260Q193 466 162 434T130 332V195Q130 92 228 92Z" />
<glyph unicode="&#x122;" glyph-name="Gcommaaccent" horiz-adv-x="606" d="M536 640H294Q210 640 175 605T139 474V226Q139 131 174 96T294 60H483V335H549V0H304Q173 0 122 54T70 238V462Q70 592 121 646T304 700H536V640ZM296 -61H358V-136L333 -254H296V-61Z" />
<glyph unicode="&#x123;" glyph-name="gcommaaccent" horiz-adv-x="565" d="M314 586H252V661L277 779H314V586ZM269 -176H96V-117H266Q347 -117 382 -84T418 21V90L342 59Q269 31 220 31H217Q146 31 105 70T63 194V332Q63 524 259 524H484V24Q484 -79 432 -127T269
-176ZM228 92H231Q273 92 336 117L418 149V466H260Q193 466 162 434T130 332V195Q130 92 228 92Z" />
<glyph unicode="&#x124;" glyph-name="Hcircumflex" horiz-adv-x="670" d="M242 761H178L298 921H372L492 761H428L342 871H328L242 761ZM515 0V320H155V0H86V700H155V380H515V700H584V0H515Z" />
<glyph unicode="&#x125;" glyph-name="hcircumflex" horiz-adv-x="579" d="M146 761H82L202 921H276L396 761H332L246 871H232L146 761ZM232 442L149 408V0H81V700H149V471L226 502Q297 530 348 530H351Q421 530 462 492T503 372V0H436V363Q436 466 338 466H335Q295
466 232 442Z" />
<glyph unicode="&#x126;" glyph-name="Hbar" horiz-adv-x="670" d="M515 380V518H155V380H515ZM515 0V320H155V0H86V518H0V569H86V700H155V569H515V700H584V569H670V518H584V0H515Z" />
<glyph unicode="&#x127;" glyph-name="hbar" horiz-adv-x="579" d="M232 433L149 400V0H81V591H0V641H81V700H149V641H261V591H149V462L226 493Q299 522 348 522H351Q421 522 462 484T503 363V0H436V354Q436 457 338 457H335Q291 457 232 433Z" />
<glyph unicode="&#x128;" glyph-name="Itilde" horiz-adv-x="241" d="M17 761H-34V826Q-34 906 39 906H48Q70 906 85 898T125 865L150 840Q168 821 175 816T192 811H201Q225 811 225 841V905H276V841Q276 802 257 781T203 760H194Q171 760 156 768T117 800L92
826Q62 856 50 856H41Q17 856 17 826V761ZM155 0H86V700H155V0Z" />
<glyph unicode="&#x129;" glyph-name="itilde" horiz-adv-x="231" d="M12 585H-39V650Q-39 730 34 730H43Q65 730 80 722T120 689L145 664Q163 645 170 640T187 635H196Q220 635 220 665V729H271V665Q271 626 252 605T198 584H189Q166 584 151 592T112 624L87
650Q57 680 45 680H36Q12 680 12 650V585ZM81 524H150V0H81V524Z" />
<glyph unicode="&#x12a;" glyph-name="Imacron" horiz-adv-x="241" d="M-6 781V833H248V781H-6ZM155 0H86V700H155V0Z" />
<glyph unicode="&#x12b;" glyph-name="imacron" horiz-adv-x="231" d="M-11 605V657H243V605H-11ZM81 524H150V0H81V524Z" />
<glyph unicode="&#x12c;" glyph-name="Ibreve" horiz-adv-x="241" d="M200 902H254V853Q254 808 222 784T136 759H106Q53 759 21 783T-12 853V902H42V856Q42 809 108 809H134Q200 809 200 856V902ZM155 0H86V700H155V0Z" />
<glyph unicode="&#x12d;" glyph-name="ibreve" horiz-adv-x="231" d="M195 726H249V677Q249 632 217 608T131 583H101Q48 583 16 607T-17 677V726H37V680Q37 633 103 633H129Q195 633 195 680V726ZM81 524H150V0H81V524Z" />
<glyph unicode="&#x12e;" glyph-name="Iogonek" horiz-adv-x="241" d="M154 -177V-226H98Q9 -226 9 -147V-135Q9 -106 18 -90T58 -40L96 0H86V700H155V0H154L108 -53Q102 -59 93 -69T81 -83T74 -92T68 -103T66 -113T65 -129V-143Q65 -177 101 -177H154Z" />
<glyph unicode="&#x12f;" glyph-name="iogonek" horiz-adv-x="230" d="M149 704V603H80V704H149ZM149 -177V-226H92Q4 -226 4 -147V-135Q4 -105 12 -89T52 -40L90 0H81V524H149V0L103 -53Q97 -60 90 -68T79 -79T71 -88T65 -97T62 -105T60 -116T59 -129V-143Q59
-177 96 -177H149Z" />
<glyph unicode="&#x130;" glyph-name="Idot" horiz-adv-x="241" d="M154 761H88V884H154V761ZM155 0H86V700H155V0Z" />
<glyph unicode="&#x131;" glyph-name="dotlessi" horiz-adv-x="231" d="M81 524H150V0H81V524Z" />
<glyph unicode="&#x132;" glyph-name="IJ" horiz-adv-x="482" d="M249 -188L211 -133L260 -96Q300 -66 313 -38T327 51V700H396V52Q396 -31 376 -69T299 -151L249 -188ZM155 0H86V700H155V0Z" />
<glyph unicode="&#x133;" glyph-name="ij" horiz-adv-x="460" d="M379 603H310V704H379V603ZM149 704V603H80V704H149ZM379 54Q379 -27 360 -66T283 -149L236 -186L197 -131L243 -95Q283 -63 297 -35T311 53V524H379V54ZM81 524H149V0H81V524Z" />
<glyph unicode="&#x134;" glyph-name="Jcircumflex" horiz-adv-x="241" d="M27 761H-37L83 921H157L277 761H213L127 871H113L27 761ZM8 -188L-30 -133L19 -96Q59 -66 72 -38T86 51V700H155V52Q155 -31 135 -69T58 -151L8 -188Z" />
<glyph unicode="&#x135;" glyph-name="jcircumflex" horiz-adv-x="230" d="M22 585H-42L78 745H152L272 585H208L122 695H108L22 585ZM149 54Q149 -27 130 -66T53 -149L6 -186L-33 -131L13 -95Q53 -63 67 -35T81 53V524H149V54Z" />
<glyph unicode="&#x136;" glyph-name="Kcommaaccent" horiz-adv-x="600" d="M155 324V0H86V700H155V384H311L499 700H575L369 358L581 0H502L310 324H155ZM287 -61H349V-136L324 -254H287V-61Z" />
<glyph unicode="&#x137;" glyph-name="kcommaaccent" horiz-adv-x="532" d="M451 0L281 257H149V0H81V700H149V320H285L429 524H501L337 287L527 0H451ZM256 -61H318V-136L293 -254H256V-61Z" />
<glyph unicode="&#x139;" glyph-name="Lacute" horiz-adv-x="497" d="M295 920L155 761H92L217 920H295ZM482 0H86V700H155V60H482V0Z" />
<glyph unicode="&#x13a;" glyph-name="lacute" horiz-adv-x="230" d="M290 920L150 761H87L212 920H290ZM149 700V0H81V700H149Z" />
<glyph unicode="&#x13b;" glyph-name="Lcommaaccent" horiz-adv-x="497" d="M482 0H86V700H155V60H482V0ZM241 -61H303V-136L278 -254H241V-61Z" />
<glyph unicode="&#x13c;" glyph-name="lcommaaccent" horiz-adv-x="230" d="M149 700V0H81V700H149ZM84 -61H146V-136L121 -254H84V-61Z" />
<glyph unicode="&#x13d;" glyph-name="Lcaron" horiz-adv-x="497" d="M482 0H86V700H155V60H482V0ZM327 700H389V632L370 491H327V700Z" />
<glyph unicode="&#x13e;" glyph-name="lcaron" horiz-adv-x="278" d="M149 700V0H81V700H149ZM230 700H292V632L273 491H230V700Z" />
<glyph unicode="&#x13f;" glyph-name="Ldot" horiz-adv-x="497" d="M482 0H86V700H155V60H482V0ZM401 296H335V418H401V296Z" />
<glyph unicode="&#x140;" glyph-name="ldot" horiz-adv-x="265" d="M149 700V0H81V700H149ZM280 296H214V418H280V296Z" />
<glyph unicode="&#x141;" glyph-name="Lslash" horiz-adv-x="519" d="M506 0H110V308L15 270V330L110 368V700H179V395L309 447V387L179 335V60H506V0Z" />
<glyph unicode="&#x142;" glyph-name="lslash" horiz-adv-x="282" d="M175 0H107V312L27 280V338L107 370V700H175V396L255 428V370L175 338V0Z" />
<glyph unicode="&#x143;" glyph-name="Nacute" horiz-adv-x="678" d="M512 920L372 761H309L434 920H512ZM187 700L507 98H525V700H591V0H491L171 602H153V0H86V700H187Z" />
<glyph unicode="&#x144;" glyph-name="nacute" horiz-adv-x="579" d="M465 744L325 585H262L387 744H465ZM232 442L149 408V0H81V524H142L146 470L226 502Q294 530 348 530H351Q421 530 462 492T503 372V0H436V363Q436 466 338 466H335Q294 466 232 442Z" />
<glyph unicode="&#x145;" glyph-name="Ncommaaccent" horiz-adv-x="678" d="M187 700L507 98H525V700H591V0H491L171 602H153V0H86V700H187ZM308 -61H370V-136L345 -254H308V-61Z" />
<glyph unicode="&#x146;" glyph-name="ncommaaccent" horiz-adv-x="579" d="M232 442L149 408V0H81V524H142L146 470L226 502Q294 530 348 530H351Q421 530 462 492T503 372V0H436V363Q436 466 338 466H335Q294 466 232 442ZM259 -61H321V-136L296 -254H259V-61Z" />
<glyph unicode="&#x147;" glyph-name="Ncaron" horiz-adv-x="678" d="M182 922H246L332 812H346L432 922H496L376 762H302L182 922ZM187 700L507 98H525V700H591V0H491L171 602H153V0H86V700H187Z" />
<glyph unicode="&#x148;" glyph-name="ncaron" horiz-adv-x="579" d="M133 746H197L283 636H297L383 746H447L327 586H253L133 746ZM232 442L149 408V0H81V524H142L146 470L226 502Q294 530 348 530H351Q421 530 462 492T503 372V0H436V363Q436 466 338 466H335Q294
466 232 442Z" />
<glyph unicode="&#x14c;" glyph-name="Omacron" horiz-adv-x="649" d="M198 781V833H452V781H198ZM343 -6H306Q173 -6 122 48T70 234V466Q70 598 121 652T306 706H343Q476 706 527 652T579 466V234Q579 102 528 48T343 -6ZM139 222Q139 126 175 90T296 54H353Q439
54 474 90T510 222V478Q510 574 475 610T353 646H296Q211 646 175 610T139 478V222Z" />
<glyph unicode="&#x14d;" glyph-name="omacron" horiz-adv-x="557" d="M152 605V657H406V605H152ZM303 -6H254Q65 -6 65 193V331Q65 434 112 482T254 530H303Q397 530 444 482T492 331V193Q492 -6 303 -6ZM133 185Q133 116 163 84T255 51H302Q364 51 394 83T424
185V339Q424 409 394 441T302 473H255Q193 473 163 441T133 339V185Z" />
<glyph unicode="&#x14e;" glyph-name="Obreve" horiz-adv-x="649" d="M404 902H458V853Q458 808 426 784T340 759H310Q257 759 225 783T192 853V902H246V856Q246 809 312 809H338Q404 809 404 856V902ZM343 -6H306Q173 -6 122 48T70 234V466Q70 598 121 652T306
706H343Q476 706 527 652T579 466V234Q579 102 528 48T343 -6ZM139 222Q139 126 175 90T296 54H353Q439 54 474 90T510 222V478Q510 574 475 610T353 646H296Q211 646 175 610T139 478V222Z" />
<glyph unicode="&#x14f;" glyph-name="obreve" horiz-adv-x="557" d="M358 726H412V677Q412 632 380 608T294 583H264Q211 583 179 607T146 677V726H200V680Q200 633 266 633H292Q358 633 358 680V726ZM303 -6H254Q65 -6 65 193V331Q65 434 112 482T254 530H303Q397
530 444 482T492 331V193Q492 -6 303 -6ZM133 185Q133 116 163 84T255 51H302Q364 51 394 83T424 185V339Q424 409 394 441T302 473H255Q193 473 163 441T133 339V185Z" />
<glyph unicode="&#x150;" glyph-name="Ohungarumlaut" horiz-adv-x="649" d="M387 920L270 761H208L316 920H387ZM543 920L423 761H361L471 920H543ZM343 -6H306Q173 -6 122 48T70 234V466Q70 598 121 652T306 706H343Q476 706 527 652T579 466V234Q579 102 528
48T343 -6ZM139 222Q139 126 175 90T296 54H353Q439 54 474 90T510 222V478Q510 574 475 610T353 646H296Q211 646 175 610T139 478V222Z" />
<glyph unicode="&#x151;" glyph-name="ohungarumlaut" horiz-adv-x="557" d="M341 744L224 585H162L270 744H341ZM497 744L377 585H315L425 744H497ZM303 -6H254Q65 -6 65 193V331Q65 434 112 482T254 530H303Q397 530 444 482T492 331V193Q492 -6 303 -6ZM133
185Q133 116 163 84T255 51H302Q364 51 394 83T424 185V339Q424 409 394 441T302 473H255Q193 473 163 441T133 339V185Z" />
<glyph unicode="&#x152;" glyph-name="OE" horiz-adv-x="888" d="M296 60H455V640H296Q211 640 175 604T139 472V228Q139 132 175 96T296 60ZM306 0Q173 0 122 54T70 240V460Q70 592 121 646T306 700H855V640H524V380H835V320H524V60H855V0H306Z" />
<glyph unicode="&#x153;" glyph-name="oe" horiz-adv-x="882" d="M484 339V294H769V340Q768 409 739 441T647 474H614Q548 474 516 442T484 339ZM133 185Q133 116 163 84T255 51H294Q357 51 387 83T417 185V339Q417 409 387 441T294 473H255Q193 473 163 441T133
339V185ZM616 -6Q499 -6 451 60Q406 -6 295 -6H254Q65 -6 65 193V331Q65 434 112 482T254 530H295Q406 530 451 464Q499 530 614 530H646Q738 530 784 483T831 333V261L815 239H484V185Q484 116 516 84T618 51Q696 51 765 75L801 87L817 34L779 23Q679 -6 616 -6Z"
/>
<glyph unicode="&#x154;" glyph-name="Racute" horiz-adv-x="608" d="M479 920L339 761H276L401 920H479ZM155 640V321H328Q408 321 443 350T479 454V507Q479 582 444 611T328 640H155ZM155 0H86V700H332Q441 700 494 656T548 507V454Q548 292 397 270L566 0H487L326
261H155V0Z" />
<glyph unicode="&#x155;" glyph-name="racute" horiz-adv-x="373" d="M362 744L222 585H159L284 744H362ZM149 0H81V524H142L146 467L221 499Q290 530 342 530H360V466H345Q290 466 228 441L149 409V0Z" />
<glyph unicode="&#x156;" glyph-name="Rcommaaccent" horiz-adv-x="608" d="M155 640V321H328Q408 321 443 350T479 454V507Q479 582 444 611T328 640H155ZM155 0H86V700H332Q441 700 494 656T548 507V454Q548 292 397 270L566 0H487L326 261H155V0ZM273 -61H335V-136L310
-254H273V-61Z" />
<glyph unicode="&#x157;" glyph-name="rcommaaccent" horiz-adv-x="373" d="M149 0H81V524H142L146 467L221 499Q290 530 342 530H360V466H345Q290 466 228 441L149 409V0ZM83 -61H145V-136L120 -254H83V-61Z" />
<glyph unicode="&#x158;" glyph-name="Rcaron" horiz-adv-x="608" d="M147 922H211L297 812H311L397 922H461L341 762H267L147 922ZM155 640V321H328Q408 321 443 350T479 454V507Q479 582 444 611T328 640H155ZM155 0H86V700H332Q441 700 494 656T548 507V454Q548
292 397 270L566 0H487L326 261H155V0Z" />
<glyph unicode="&#x159;" glyph-name="rcaron" horiz-adv-x="373" d="M30 746H94L180 636H194L280 746H344L224 586H150L30 746ZM149 0H81V524H142L146 467L221 499Q290 530 342 530H360V466H345Q290 466 228 441L149 409V0Z" />
<glyph unicode="&#x15a;" glyph-name="Sacute" horiz-adv-x="523" d="M436 920L296 761H233L358 920H436ZM52 0V60H300Q359 60 387 91T416 170V191Q416 235 395 258T329 296L167 348Q100 370 71 407T42 508V535Q42 611 86 655T226 700H462V640H226Q110 640 110
534V513Q110 470 131 447T198 408L359 356Q485 316 485 196V170Q485 94 438 47T300 0H52Z" />
<glyph unicode="&#x15b;" glyph-name="sacute" horiz-adv-x="466" d="M408 744L268 585H205L330 744H408ZM52 0V57H271Q359 57 359 136V147Q359 213 300 223L147 250Q46 268 46 373V394Q46 457 84 490T197 524H409V467H197Q110 467 110 390V378Q110 317 167 307L323
279Q422 262 422 153V131Q422 69 384 35T272 0H52Z" />
<glyph unicode="&#x15c;" glyph-name="Scircumflex" horiz-adv-x="523" d="M168 761H104L224 921H298L418 761H354L268 871H254L168 761ZM52 0V60H300Q359 60 387 91T416 170V191Q416 235 395 258T329 296L167 348Q100 370 71 407T42 508V535Q42 611 86 655T226
700H462V640H226Q110 640 110 534V513Q110 470 131 447T198 408L359 356Q485 316 485 196V170Q485 94 438 47T300 0H52Z" />
<glyph unicode="&#x15d;" glyph-name="scircumflex" horiz-adv-x="466" d="M140 585H76L196 745H270L390 585H326L240 695H226L140 585ZM52 0V57H271Q359 57 359 136V147Q359 213 300 223L147 250Q46 268 46 373V394Q46 457 84 490T197 524H409V467H197Q110 467
110 390V378Q110 317 167 307L323 279Q422 262 422 153V131Q422 69 384 35T272 0H52Z" />
<glyph unicode="&#x15e;" glyph-name="Scedilla" horiz-adv-x="523" d="M369 -143Q369 -185 348 -204T283 -224H195V-178H281Q317 -178 317 -147V-117Q317 -86 281 -86H241L223 -70V0H52V60H300Q359 60 387 91T416 170V191Q416 235 395 258T329 296L167 348Q100
370 71 407T42 508V535Q42 611 86 655T226 700H462V640H226Q110 640 110 534V513Q110 470 131 447T198 408L359 356Q485 316 485 196V170Q485 94 438 47T300 0H271V-42H292Q369 -42 369 -117V-143Z" />
<glyph unicode="&#x15f;" glyph-name="scedilla" horiz-adv-x="466" d="M341 -143Q341 -185 320 -204T255 -224H167V-178H253Q289 -178 289 -147V-117Q289 -86 253 -86H213L195 -70V0H52V57H271Q359 57 359 136V147Q359 213 300 223L147 250Q46 268 46 373V394Q46
457 84 490T197 524H409V467H197Q110 467 110 390V378Q110 317 167 307L323 279Q422 262 422 153V131Q422 69 384 35T272 0H243V-42H264Q341 -42 341 -117V-143Z" />
<glyph unicode="&#x160;" glyph-name="Scaron" horiz-adv-x="523" d="M104 922H168L254 812H268L354 922H418L298 762H224L104 922ZM52 0V60H300Q359 60 387 91T416 170V191Q416 235 395 258T329 296L167 348Q100 370 71 407T42 508V535Q42 611 86 655T226 700H462V640H226Q110
640 110 534V513Q110 470 131 447T198 408L359 356Q485 316 485 196V170Q485 94 438 47T300 0H52Z" />
<glyph unicode="&#x161;" glyph-name="scaron" horiz-adv-x="466" d="M76 746H140L226 636H240L326 746H390L270 586H196L76 746ZM52 0V57H271Q359 57 359 136V147Q359 213 300 223L147 250Q46 268 46 373V394Q46 457 84 490T197 524H409V467H197Q110 467 110
390V378Q110 317 167 307L323 279Q422 262 422 153V131Q422 69 384 35T272 0H52Z" />
<glyph unicode="&#x162;" glyph-name="uni0162" horiz-adv-x="550" d="M537 700V640H310V0H241V640H13V700H537ZM244 -61H306V-136L281 -254H244V-61Z" />
<glyph unicode="&#x163;" glyph-name="uni0163" horiz-adv-x="397" d="M342 467H177V132Q177 53 244 53Q275 53 328 81L354 95L377 47L349 31Q280 -6 233 -6Q180 -6 145 25T110 127V467H16V524H113L117 640H177V524H342V467ZM168 -61H230V-136L205 -254H168V-61Z" />
<glyph unicode="&#x164;" glyph-name="Tcaron" horiz-adv-x="550" d="M118 922H182L268 812H282L368 922H432L312 762H238L118 922ZM537 700V640H310V0H241V640H13V700H537Z" />
<glyph unicode="&#x165;" glyph-name="tcaron" horiz-adv-x="397" d="M253 806H315V738L296 597H253V806ZM342 467H177V132Q177 53 244 53Q275 53 328 81L354 95L377 47L349 31Q280 -6 233 -6Q180 -6 145 25T110 127V467H16V524H113L117 640H177V524H342V467Z" />
<glyph unicode="&#x166;" glyph-name="Tbar" horiz-adv-x="550" d="M449 326H310V0H241V326H101V383H241V640H13V700H537V640H310V383H449V326Z" />
<glyph unicode="&#x167;" glyph-name="tbar" horiz-adv-x="398" d="M349 31Q278 -6 232 -6Q180 -6 145 25T110 127V260H24V310H110V467H16V524H113L117 640H177V524H343V467H177V310H318V260H177V132Q177 53 244 53Q275 53 327 81L353 95L377 47L349 31Z" />
<glyph unicode="&#x168;" glyph-name="Utilde" horiz-adv-x="649" d="M221 761H170V826Q170 906 243 906H252Q274 906 289 898T329 865L354 840Q372 821 379 816T396 811H405Q429 811 429 841V905H480V841Q480 802 461 781T407 760H398Q375 760 360 768T321 800L296
826Q266 856 254 856H245Q221 856 221 826V761ZM147 700V227Q147 130 181 95T300 59H349Q434 59 468 94T502 227V700H571V235Q571 104 523 51T344 -2H305Q175 -2 127 51T78 235V700H147Z" />
<glyph unicode="&#x169;" glyph-name="utilde" horiz-adv-x="572" d="M182 585H131V650Q131 730 204 730H213Q235 730 250 722T290 689L315 664Q333 645 340 640T357 635H366Q390 635 390 665V729H441V665Q441 626 422 605T368 584H359Q336 584 321 592T282 624L257
650Q227 680 215 680H206Q182 680 182 650V585ZM352 22Q287 -6 230 -6H227Q157 -6 116 32T75 152V524H143V162Q143 59 241 59H244Q291 59 346 83L423 115V524H491V0H430L426 54L352 22Z" />
<glyph unicode="&#x16a;" glyph-name="Umacron" horiz-adv-x="649" d="M198 781V833H452V781H198ZM147 700V227Q147 130 181 95T300 59H349Q434 59 468 94T502 227V700H571V235Q571 104 523 51T344 -2H305Q175 -2 127 51T78 235V700H147Z" />
<glyph unicode="&#x16b;" glyph-name="umacron" horiz-adv-x="572" d="M159 605V657H413V605H159ZM352 22Q287 -6 230 -6H227Q157 -6 116 32T75 152V524H143V162Q143 59 241 59H244Q291 59 346 83L423 115V524H491V0H430L426 54L352 22Z" />
<glyph unicode="&#x16c;" glyph-name="Ubreve" horiz-adv-x="649" d="M404 902H458V853Q458 808 426 784T340 759H310Q257 759 225 783T192 853V902H246V856Q246 809 312 809H338Q404 809 404 856V902ZM147 700V227Q147 130 181 95T300 59H349Q434 59 468 94T502
227V700H571V235Q571 104 523 51T344 -2H305Q175 -2 127 51T78 235V700H147Z" />
<glyph unicode="&#x16d;" glyph-name="ubreve" horiz-adv-x="572" d="M365 726H419V677Q419 632 387 608T301 583H271Q218 583 186 607T153 677V726H207V680Q207 633 273 633H299Q365 633 365 680V726ZM352 22Q287 -6 230 -6H227Q157 -6 116 32T75 152V524H143V162Q143
59 241 59H244Q291 59 346 83L423 115V524H491V0H430L426 54L352 22Z" />
<glyph unicode="&#x16e;" glyph-name="Uring" horiz-adv-x="649" d="M340 759H310Q266 759 239 782T211 846V870Q211 911 238 934T310 957H340Q384 957 411 934T439 870V846Q439 805 412 782T340 759ZM263 848Q263 804 317 804H333Q387 804 387 848V868Q387 912
333 912H317Q263 912 263 868V848ZM147 700V227Q147 130 181 95T300 59H349Q434 59 468 94T502 227V700H571V235Q571 104 523 51T344 -2H305Q175 -2 127 51T78 235V700H147Z" />
<glyph unicode="&#x16f;" glyph-name="uring" horiz-adv-x="572" d="M301 583H271Q227 583 200 606T172 670V694Q172 735 199 758T271 781H301Q345 781 372 758T400 694V670Q400 629 373 606T301 583ZM224 672Q224 628 278 628H294Q348 628 348 672V692Q348 736
294 736H278Q224 736 224 692V672ZM352 22Q287 -6 230 -6H227Q157 -6 116 32T75 152V524H143V162Q143 59 241 59H244Q291 59 346 83L423 115V524H491V0H430L426 54L352 22Z" />
<glyph unicode="&#x170;" glyph-name="Uhungarumlaut" horiz-adv-x="649" d="M387 920L270 761H208L316 920H387ZM543 920L423 761H361L471 920H543ZM147 700V227Q147 130 181 95T300 59H349Q434 59 468 94T502 227V700H571V235Q571 104 523 51T344 -2H305Q175
-2 127 51T78 235V700H147Z" />
<glyph unicode="&#x171;" glyph-name="uhungarumlaut" horiz-adv-x="572" d="M348 744L231 585H169L277 744H348ZM504 744L384 585H322L432 744H504ZM352 22Q287 -6 230 -6H227Q157 -6 116 32T75 152V524H143V162Q143 59 241 59H244Q291 59 346 83L423 115V524H491V0H430L426
54L352 22Z" />
<glyph unicode="&#x172;" glyph-name="Uogonek" horiz-adv-x="649" d="M385 -226H328Q240 -226 240 -147V-135Q240 -105 248 -89T288 -40L324 -2H305Q175 -2 127 51T78 235V700H147V227Q147 130 181 95T300 59H349Q434 59 468 94T502 227V700H571V235Q571 114
531 60T384 -1L339 -53Q333 -60 326 -68T315 -79T307 -88T301 -97T298 -105T296 -116T295 -129V-143Q295 -177 332 -177H385V-226Z" />
<glyph unicode="&#x173;" glyph-name="uogonek" horiz-adv-x="572" d="M490 -177V-226H434Q345 -226 345 -147V-135Q345 -106 354 -90T394 -40L432 0H430L426 54L352 22Q287 -6 230 -6H227Q157 -6 116 32T75 152V524H143V162Q143 59 241 59H244Q291 59 346 83L423
115V524H491V0H490L444 -53Q438 -59 429 -69T417 -83T410 -92T404 -103T402 -113T401 -129V-143Q401 -177 437 -177H490Z" />
<glyph unicode="&#x174;" glyph-name="Wcircumflex" horiz-adv-x="932" d="M373 761H309L429 921H503L623 761H559L473 871H459L373 761ZM744 0H623L477 633H455L310 0H189L25 700H97L240 67H262L407 700H527L672 67H694L836 700H908L744 0Z" />
<glyph unicode="&#x175;" glyph-name="wcircumflex" horiz-adv-x="778" d="M296 585H232L352 745H426L546 585H482L396 695H382L296 585ZM625 0H515L439 298L396 463H382L339 298L264 0H154L29 524H96L147 300L203 57H217L280 300L337 524H441L498 300L560 57H574L631
300L683 524H749L625 0Z" />
<glyph unicode="&#x176;" glyph-name="Ycircumflex" horiz-adv-x="558" d="M186 761H122L242 921H316L436 761H372L286 871H272L186 761ZM245 0V235L12 700H87L271 324H288L474 700H546L313 235V0H245Z" />
<glyph unicode="&#x177;" glyph-name="ycircumflex" horiz-adv-x="500" d="M157 585H93L213 745H287L407 585H343L257 695H243L157 585ZM98 -176H39V-117H101Q153 -117 181 -99T225 -36L243 17H195L21 524H89L242 71H260L411 524H480L288 -44Q264 -115 221 -145T98 -176Z" />
<glyph unicode="&#x178;" glyph-name="Ydieresis" horiz-adv-x="558" d="M395 761H331V874H395V761ZM227 761H163V874H227V761ZM245 0V235L12 700H87L271 324H288L474 700H546L313 235V0H245Z" />
<glyph unicode="&#x179;" glyph-name="Zacute" horiz-adv-x="522" d="M435 920L295 761H232L357 920H435ZM495 60V0H28V68L404 626V640H38V700H486V632L110 74V60H495Z" />
<glyph unicode="&#x17a;" glyph-name="zacute" horiz-adv-x="459" d="M404 744L264 585H201L326 744H404ZM33 524H413V455L112 71V57H430V0H33V70L335 453V467H33V524Z" />
<glyph unicode="&#x17b;" glyph-name="Zdotaccent" horiz-adv-x="522" d="M293 761H227V884H293V761ZM495 60V0H28V68L404 626V640H38V700H486V632L110 74V60H495Z" />
<glyph unicode="&#x17c;" glyph-name="zdotaccent" horiz-adv-x="459" d="M262 585H196V708H262V585ZM33 524H413V455L112 71V57H430V0H33V70L335 453V467H33V524Z" />
<glyph unicode="&#x17d;" glyph-name="Zcaron" horiz-adv-x="522" d="M105 922H169L255 812H269L355 922H419L299 762H225L105 922ZM495 60V0H28V68L404 626V640H38V700H486V632L110 74V60H495Z" />
<glyph unicode="&#x17e;" glyph-name="zcaron" horiz-adv-x="459" d="M72 746H136L222 636H236L322 746H386L266 586H192L72 746ZM33 524H413V455L112 71V57H430V0H33V70L335 453V467H33V524Z" />
<glyph unicode="&#x192;" glyph-name="florin" horiz-adv-x="410" d="M355 475H216L126 -34Q112 -114 71 -145T-41 -176H-97L-87 -116H-41Q6 -116 28 -99T59 -34L149 475H55L64 532H159L167 575Q181 648 222 678T332 708H396L387 656H332Q285 656 264 639T232
575L224 532H365L355 475Z" />
<glyph unicode="&#x218;" glyph-name="uni0218" horiz-adv-x="523" d="M52 0V60H300Q359 60 387 91T416 170V191Q416 235 395 258T329 296L167 348Q100 370 71 407T42 508V535Q42 611 86 655T226 700H462V640H226Q110 640 110 534V513Q110 470 131 447T198 408L359
356Q485 316 485 196V170Q485 94 438 47T300 0H52ZM230 -61H292V-136L267 -254H230V-61Z" />
<glyph unicode="&#x219;" glyph-name="uni0219" horiz-adv-x="466" d="M52 0V57H271Q359 57 359 136V147Q359 213 300 223L147 250Q46 268 46 373V394Q46 457 84 490T197 524H409V467H197Q110 467 110 390V378Q110 317 167 307L323 279Q422 262 422 153V131Q422
69 384 35T272 0H52ZM202 -61H264V-136L239 -254H202V-61Z" />
<glyph unicode="&#x21a;" glyph-name="uni021A" horiz-adv-x="550" d="M537 700V640H310V0H241V640H13V700H537ZM244 -61H306V-136L281 -254H244V-61Z" />
<glyph unicode="&#x21b;" glyph-name="uni021B" horiz-adv-x="397" d="M342 467H177V132Q177 53 244 53Q275 53 328 81L354 95L377 47L349 31Q280 -6 233 -6Q180 -6 145 25T110 127V467H16V524H113L117 640H177V524H342V467ZM168 -61H230V-136L205 -254H168V-61Z" />
<glyph unicode="&#x237;" glyph-name="dotlessj" horiz-adv-x="230" d="M149 54Q149 -27 130 -66T53 -149L6 -186L-33 -131L13 -95Q53 -63 67 -35T81 53V524H149V54Z" />
<glyph unicode="&#x2c6;" glyph-name="circumflex" horiz-adv-x="500" d="M157 585H93L213 745H287L407 585H343L257 695H243L157 585Z" />
<glyph unicode="&#x2c7;" glyph-name="caron" horiz-adv-x="500" d="M93 746H157L243 636H257L343 746H407L287 586H213L93 746Z" />
<glyph unicode="&#x2d8;" glyph-name="breve" horiz-adv-x="500" d="M329 726H383V677Q383 632 351 608T265 583H235Q182 583 150 607T117 677V726H171V680Q171 633 237 633H263Q329 633 329 680V726Z" />
<glyph unicode="&#x2d9;" glyph-name="dotaccent" horiz-adv-x="500" d="M283 585H217V708H283V585Z" />
<glyph unicode="&#x2da;" glyph-name="ring" horiz-adv-x="500" d="M265 583H235Q191 583 164 606T136 670V694Q136 735 163 758T235 781H265Q309 781 336 758T364 694V670Q364 629 337 606T265 583ZM188 672Q188 628 242 628H258Q312 628 312 672V692Q312 736
258 736H242Q188 736 188 692V672Z" />
<glyph unicode="&#x2db;" glyph-name="ogonek" horiz-adv-x="500" d="M310 -177V-226H254Q165 -226 165 -147V-135Q165 -106 174 -90T214 -40L261 9H303L310 0L264 -53Q258 -59 249 -69T237 -83T230 -92T224 -103T222 -113T221 -129V-143Q221 -177 257 -177H310Z" />
<glyph unicode="&#x2dc;" glyph-name="tilde" horiz-adv-x="500" d="M146 585H95V650Q95 730 168 730H177Q199 730 214 722T254 689L279 664Q297 645 304 640T321 635H330Q354 635 354 665V729H405V665Q405 626 386 605T332 584H323Q300 584 285 592T246 624L221
650Q191 680 179 680H170Q146 680 146 650V585Z" />
<glyph unicode="&#x2dd;" glyph-name="hungarumlaut" horiz-adv-x="500" d="M312 744L195 585H133L241 744H312ZM468 744L348 585H286L396 744H468Z" />
<glyph unicode="&#x394;" glyph-name="uni0394" horiz-adv-x="608" d="M292 636L111 59H497L314 636H292ZM20 0L246 700H362L588 0H20Z" />
<glyph unicode="&#x3a9;" glyph-name="uni03A9" horiz-adv-x="674" d="M293 62V0H49V60H189Q83 98 83 256V466Q83 598 134 652T319 706H355Q488 706 539 652T591 466V256Q591 97 486 60H625V0H381V62Q453 69 488 107T523 226V478Q523 574 487 610T366 646H308Q223
646 187 610T151 478V226Q151 145 186 107T293 62Z" />
<glyph unicode="&#x3c0;" glyph-name="pi" horiz-adv-x="678" d="M630 22Q583 -6 547 -6Q503 -6 474 21T444 106V465H176V0H109V465H29V524H613V465H512V108Q512 53 557 53Q579 53 609 72L634 87L659 40L630 22Z" />
<glyph unicode="&#x1e80;" glyph-name="Wgrave" horiz-adv-x="932" d="M294 920H373L498 761H434L294 920ZM744 0H623L477 633H455L310 0H189L25 700H97L240 67H262L407 700H527L672 67H694L836 700H908L744 0Z" />
<glyph unicode="&#x1e81;" glyph-name="wgrave" horiz-adv-x="778" d="M217 744H296L421 585H357L217 744ZM625 0H515L439 298L396 463H382L339 298L264 0H154L29 524H96L147 300L203 57H217L280 300L337 524H441L498 300L560 57H574L631 300L683 524H749L625 0Z" />
<glyph unicode="&#x1e82;" glyph-name="Wacute" horiz-adv-x="932" d="M641 920L501 761H438L563 920H641ZM744 0H623L477 633H455L310 0H189L25 700H97L240 67H262L407 700H527L672 67H694L836 700H908L744 0Z" />
<glyph unicode="&#x1e83;" glyph-name="wacute" horiz-adv-x="778" d="M564 744L424 585H361L486 744H564ZM625 0H515L439 298L396 463H382L339 298L264 0H154L29 524H96L147 300L203 57H217L280 300L337 524H441L498 300L560 57H574L631 300L683 524H749L625 0Z" />
<glyph unicode="&#x1e84;" glyph-name="Wdieresis" horiz-adv-x="932" d="M582 761H518V874H582V761ZM414 761H350V874H414V761ZM744 0H623L477 633H455L310 0H189L25 700H97L240 67H262L407 700H527L672 67H694L836 700H908L744 0Z" />
<glyph unicode="&#x1e85;" glyph-name="wdieresis" horiz-adv-x="778" d="M505 585H441V698H505V585ZM337 585H273V698H337V585ZM625 0H515L439 298L396 463H382L339 298L264 0H154L29 524H96L147 300L203 57H217L280 300L337 524H441L498 300L560 57H574L631
300L683 524H749L625 0Z" />
<glyph unicode="&#x1ef2;" glyph-name="Ygrave" horiz-adv-x="558" d="M107 920H186L311 761H247L107 920ZM245 0V235L12 700H87L271 324H288L474 700H546L313 235V0H245Z" />
<glyph unicode="&#x1ef3;" glyph-name="ygrave" horiz-adv-x="500" d="M78 744H157L282 585H218L78 744ZM98 -176H39V-117H101Q153 -117 181 -99T225 -36L243 17H195L21 524H89L242 71H260L411 524H480L288 -44Q264 -115 221 -145T98 -176Z" />
<glyph unicode="&#x2013;" glyph-name="endash" horiz-adv-x="500" d="M450 345V292H50V345H450Z" />
<glyph unicode="&#x2014;" glyph-name="emdash" horiz-adv-x="1000" d="M950 345V292H50V345H950Z" />
<glyph unicode="&#x2018;" glyph-name="quoteleft" horiz-adv-x="218" d="M142 481H76V558L103 700H142V481Z" />
<glyph unicode="&#x2019;" glyph-name="quoteright" horiz-adv-x="218" d="M76 700H142V623L115 481H76V700Z" />
<glyph unicode="&#x201a;" glyph-name="quotesinglbase" horiz-adv-x="218" d="M76 122H142V46L115 -97H76V122Z" />
<glyph unicode="&#x201c;" glyph-name="quotedblleft" horiz-adv-x="374" d="M298 481H231V558L259 700H298V481ZM142 481H76V558L103 700H142V481Z" />
<glyph unicode="&#x201d;" glyph-name="quotedblright" horiz-adv-x="374" d="M231 700H298V623L270 481H231V700ZM76 700H142V623L115 481H76V700Z" />
<glyph unicode="&#x201e;" glyph-name="quotedblbase" horiz-adv-x="374" d="M231 122H298V46L270 -97H231V122ZM76 122H142V46L115 -97H76V122Z" />
<glyph unicode="&#x2020;" glyph-name="dagger" horiz-adv-x="446" d="M429 467H255V0H192V467H17V524H192V700H255V524H429V467Z" />
<glyph unicode="&#x2021;" glyph-name="daggerdbl" horiz-adv-x="478" d="M445 199H271V0H208V199H33V256H208V471H33V529H208V700H271V529H445V471H271V256H445V199Z" />
<glyph unicode="&#x2022;" glyph-name="bullet" horiz-adv-x="286" d="M227 268Q227 233 202 208T144 183Q109 183 84 208T59 268Q59 301 84 326T144 351Q177 351 202 326T227 268Z" />
<glyph unicode="&#x2026;" glyph-name="ellipsis" horiz-adv-x="574" d="M498 0H432V122H498V0ZM320 0H254V122H320V0ZM142 0H76V122H142V0Z" />
<glyph unicode="&#x2030;" glyph-name="perthousand" horiz-adv-x="1219" d="M211 362H188Q104 362 70 399T35 518V554Q35 636 69 673T188 710H211Q295 710 329 673T364 554V518Q364 436 330 399T211 362ZM223 0H155L604 700H672L223 0ZM95 510Q95 460 115 438T177
415H222Q263 415 283 437T304 510V562Q304 612 284 634T222 657H177Q136 657 116 635T95 562V510ZM1008 338H1031Q1115 338 1149 301T1184 182V146Q1184 64 1150 27T1031 -10H1008Q924 -10 890 27T856 146V182Q856 264 890 301T1008 338ZM616 338H639Q723 338 757
301T791 182V146Q791 64 757 27T639 -10H616Q532 -10 498 27T463 146V182Q463 264 497 301T616 338ZM1124 190Q1124 240 1104 262T1042 285H997Q956 285 936 263T915 190V138Q915 88 935 66T997 43H1042Q1084 43 1104 65T1124 138V190ZM732 190Q732 240 712 262T650
285H605Q563 285 543 263T523 190V138Q523 88 543 66T605 43H650Q691 43 711 65T732 138V190Z" />
<glyph unicode="&#x2039;" glyph-name="guilsinglleft" horiz-adv-x="250" d="M41 263V290L141 418H204L106 281V272L204 136H141L41 263Z" />
<glyph unicode="&#x203a;" glyph-name="guilsinglright" horiz-adv-x="250" d="M208 263L108 136H45L143 272V281L45 418H108L208 290V263Z" />
<glyph unicode="&#x2044;" glyph-name="fraction" horiz-adv-x="153" d="M-113 0H-177L267 700H330L-113 0Z" />
<glyph unicode="&#x2070;" glyph-name="zerosuperior" horiz-adv-x="445" d="M244 347H201Q138 347 107 376T75 468V583Q75 647 106 675T201 703H244Q308 703 339 675T370 583V468Q370 405 339 376T244 347ZM128 466Q128 394 197 394H247Q317 394 317 466V586Q317
657 247 657H197Q128 657 128 586V466Z" />
<glyph unicode="&#x2074;" glyph-name="foursuperior" horiz-adv-x="371" d="M274 351H223V411H33V457L206 700H274V453H326V411H274V351ZM87 458V453H223V645H218L87 458Z" />
<glyph unicode="&#x20ac;" glyph-name="Euro" horiz-adv-x="572" d="M546 60V0H358Q228 0 177 54T125 238V261H31V316H125V402H31V457H125V462Q125 592 176 646T358 700H546V640H348Q264 640 229 605T194 474V457H460V402H194V316H460V261H194V226Q194 131 229
96T348 60H546Z" />
<glyph unicode="&#x20b9;" glyph-name="uni20B9" horiz-adv-x="573" d="M425 447Q425 287 275 263L443 0H365L205 254H41V310H205Q285 310 321 339T357 445V450H41V506H357V509Q357 585 321 614T205 644H41V700H547V645H383Q425 598 425 507V506H547V450H425V447Z" />
<glyph unicode="&#x2113;" glyph-name="uni2113" horiz-adv-x="453" d="M210 -6Q153 -6 116 26T78 130V523Q78 609 121 659T241 710H259Q332 710 373 668T415 548V526Q415 449 377 393T242 272L146 211V132Q146 53 220 53Q243 53 260 59T310 84L345 102L368 53L332
34Q259 -6 210 -6ZM146 523V274L206 313Q290 367 320 416T351 526V548Q351 597 326 625T259 653H242Q198 653 172 622T146 523Z" />
<glyph unicode="&#x2122;" glyph-name="trademark" horiz-adv-x="724" d="M174 376H119V650H15V700H278V650H174V376ZM393 376H339V700H412L502 541H511L601 700H673V376H620V525L624 633H616L528 481H483L397 633H389L393 525V376Z" />
<glyph unicode="&#x2126;" glyph-name="Omega" horiz-adv-x="674" d="M293 62V0H49V60H189Q83 98 83 256V466Q83 598 134 652T319 706H355Q488 706 539 652T591 466V256Q591 97 486 60H625V0H381V62Q453 69 488 107T523 226V478Q523 574 487 610T366 646H308Q223
646 187 610T151 478V226Q151 145 186 107T293 62Z" />
<glyph unicode="&#x212e;" glyph-name="estimated" horiz-adv-x="661" d="M641 257H145Q141 257 141 254V104Q141 94 148 86Q225 6 336 6Q456 6 533 96H577Q483 -11 335 -11Q208 -11 119 69T29 264T118 459T335 541T551 460T641 264V257ZM529 276V427Q529 438
521 446Q445 524 336 524Q224 524 149 443Q141 437 141 424V276Q141 272 145 272H526Q529 272 529 276Z" />
<glyph unicode="&#x2202;" glyph-name="partialdiff" horiz-adv-x="562" d="M294 -6H250Q42 -6 42 186V273Q42 354 83 392T196 431H199Q255 431 328 402L425 363V449Q425 500 418 532T391 584T350 613T288 630L170 652L184 710L302 687Q375 673 413 650T472 577T493
438V195Q493 -6 294 -6ZM253 53H288Q359 53 392 84T426 193V306L322 347Q263 371 214 371H211Q109 371 109 267V185Q109 114 144 84T253 53Z" />
<glyph unicode="&#x2206;" glyph-name="increment" horiz-adv-x="608" d="M292 636L111 59H497L314 636H292ZM20 0L246 700H362L588 0H20Z" />
<glyph unicode="&#x220f;" glyph-name="product" horiz-adv-x="716" d="M538 -22V640H178V-22H109V640H25V700H691V640H607V-22H538Z" />
<glyph unicode="&#x2211;" glyph-name="summation" horiz-adv-x="472" d="M450 700V640H107V625L303 372V308L107 53V38H450V-22H33V62L241 332V348L33 616V700H450Z" />
<glyph unicode="&#x2212;" glyph-name="minus" horiz-adv-x="486" d="M446 320H40V373H446V320Z" />
<glyph unicode="&#x2215;" glyph-name="uni2215" horiz-adv-x="153" d="M-113 0H-177L267 700H330L-113 0Z" />
<glyph unicode="&#x221a;" glyph-name="radical" horiz-adv-x="634" d="M581 800H651L378 0H275L111 468L27 445L14 498L160 534L320 63H334L581 800Z" />
<glyph unicode="&#x221e;" glyph-name="infinity" horiz-adv-x="716" d="M523 236Q558 236 582 262T607 331V359Q607 403 583 429T523 456H496Q477 456 462 449T434 425T412 392T388 344Q417 288 439 262T496 236H523ZM221 236Q239 236 254 243T283 267T305 299T329
342Q291 415 276 431Q253 456 221 456H194Q159 456 135 430T110 360V333Q110 290 134 263T194 236H221ZM359 394Q386 452 419 480T498 509H525Q582 509 624 469T666 359V331Q666 263 625 223T525 183H498Q452 183 422 208T358 290Q325 233 295 208T219 183H192Q133
183 92 223T51 333V360Q51 429 93 469T192 509H219Q266 509 299 481T359 394Z" />
<glyph unicode="&#x222b;" glyph-name="integral'" horiz-adv-x="352" d="M185 -41Q185 -117 146 -146T37 -176H-38V-123H32Q82 -123 99 -105T117 -42V574Q117 650 156 679T265 708H340V656H270Q220 656 203 638T185 575V-41Z" />
<glyph unicode="&#x2248;" glyph-name="approxequal" horiz-adv-x="486" d="M52 367L62 448Q73 542 146 542H151Q175 542 195 531T242 491L277 452Q312 413 333 413H337Q365 413 371 460L380 534H434L424 455Q412 359 338 359H333Q289 359 244 410L209 449Q174
488 153 488H149Q121 488 115 441L106 367H52ZM52 162L62 244Q73 338 146 338H151Q175 338 194 327T242 286L277 248Q312 208 333 208H337Q365 208 371 255L380 330H434L424 250Q411 154 338 154H333Q291 154 244 205L209 244Q174 283 153 283H149Q121 283 115
237L106 162H52Z" />
<glyph unicode="&#x2260;" glyph-name="notequal" horiz-adv-x="486" d="M446 218H227L193 115H138L172 218H40V272H190L240 422H40V475H258L300 602H354L312 475H446V422H294L245 272H446V218Z" />
<glyph unicode="&#x2264;" glyph-name="lessequal" horiz-adv-x="486" d="M36 304V400L442 542V481L91 359V345L442 223V161L36 304ZM442 0H36V53H442V0Z" />
<glyph unicode="&#x2265;" glyph-name="greaterequal" horiz-adv-x="486" d="M442 304L36 161V223L387 345V359L36 481V542L442 400V304ZM442 0H36V53H442V0Z" />
<glyph unicode="&#x25ca;" glyph-name="lozenge" horiz-adv-x="535" d="M218 0L22 350L218 700H317L514 350L317 0H218ZM256 58H278L443 350L278 642H256L93 350L256 58Z" />
<glyph unicode="&#xf6c3;" glyph-name="commaaccent" horiz-adv-x="500" d="M219 -61H281V-136L256 -254H219V-61Z" />
<glyph unicode="&#xfb01;" glyph-name="fi" horiz-adv-x="577" d="M17 467V524H111V574Q111 650 150 679T258 708H333V656H263Q213 656 195 638T177 575V524H333V467H178V0H111V467H17ZM495 704V603H426V704H495ZM427 524H495V0H427V524Z" />
<glyph unicode="&#xfb02;" glyph-name="fl" horiz-adv-x="576" d="M17 467V524H111V574Q111 650 150 679T258 708H333V656H263Q213 656 195 638T177 575V524H333V467H178V0H111V467H17ZM495 700V0H427V700H495Z" />
</font>
</defs>
</svg>
