<?xml version="1.0" standalone="no"?> <!DOCTYPE svg PUBLIC "-//W3C//DTD SVG 1.0//EN" "http://www.w3.org/TR/2001/REC-SVG-20010904/DTD/svg10.dtd" > 
<svg xmlns="http://www.w3.org/2000/svg" width="100%" height="100%">
<metadata version="1.0"><uniqueid id="com.myfonts.indian-type-foundry.demo.italic.wfkit2.jwqx"/><vendor name="MyFonts" url="https://www.myfonts.com/"/><credits><credit name="Aarya Purohit" url="https://www.myfonts.com/person/purohit/aarya/"/></credits><description><text lang="en">This is a Webfont from MyFonts. Full information about this font:
https://www.myfonts.com/fonts/indian-type-foundry/demo/
</text></description><license url="https://www.myfonts.com/viewlicense?lid=Array"/><copyright><text lang="en">Copyright 2016 Indian Type Foundry</text></copyright><trademark><text lang="en">Demo is a trademark of Indian Type Foundry</text></trademark></metadata>
<defs >
<font id="wf" horiz-adv-x="527" ><font-face
    font-family="Demo"
    units-per-em="1000"
    panose-1="0 0 0 0 0 0 0 0 0 0"
    ascent="797"
    descent="-203"
    alphabetic="0" />
<missing-glyph horiz-adv-x="659" d="M453 88L545 611H235L143 88H453ZM25 0L148 700H664L541 0H25Z" />
<glyph unicode=" " glyph-name="space" horiz-adv-x="210" />
<glyph unicode="!" glyph-name="exclam" horiz-adv-x="262" d="M171 238H81L106 414L156 700H259L209 414L171 238ZM132 0H36L60 134H156L132 0Z" />
<glyph unicode="&quot;" glyph-name="quotedbl" horiz-adv-x="408" d="M404 700L367 487H284L321 700H404ZM239 700L202 487H119L156 700H239Z" />
<glyph unicode="#" glyph-name="numbersign" horiz-adv-x="662" d="M284 431L256 273H409L437 431H284ZM208 0H122L157 197H12L26 273H170L198 431H53L67 507H211L245 700H331L297 507H450L484 700H570L536 507H680L667 431H522L495 273H639L626 197H481L446 0H360L395
197H243L208 0Z" />
<glyph unicode="$" glyph-name="dollar" horiz-adv-x="536" d="M253 -100H165L183 0H2L17 88H272Q325 88 350 110T382 175L386 194Q391 231 379 251T332 283L190 332Q57 377 83 521L88 544Q101 617 153 658T300 700H307L324 800H412L394 700H556L541 611H294Q205
611 189 538L186 519Q178 479 190 456T241 420L382 371Q446 348 472 307T489 199L485 172Q473 90 419 45T271 0L253 -100Z" />
<glyph unicode="%" glyph-name="percent" horiz-adv-x="845" d="M234 364H218Q140 364 102 404T75 516L82 557Q96 638 137 674T259 710H275Q353 710 392 670T418 557L411 516Q397 436 356 400T234 364ZM199 0H103L674 700H771L199 0ZM220 438H248Q282 438 300
455T326 511L335 561Q349 636 273 636H245Q211 636 193 619T167 562L158 512Q144 438 220 438ZM615 -10H599Q521 -10 483 30T456 142L463 183Q477 264 518 300T640 336H656Q734 336 773 296T799 183L792 142Q778 62 737 26T615 -10ZM601 64H629Q663 64 681 81T707
137L716 187Q730 262 654 262H626Q592 262 574 245T548 188L539 138Q525 64 601 64Z" />
<glyph unicode="&amp;" glyph-name="ampersand" horiz-adv-x="651" d="M192 76H236Q288 76 319 89T378 137L234 321L208 311Q158 292 138 272T110 209L103 169Q96 127 119 102T192 76ZM484 0L428 72Q388 25 345 9T232 -7H176Q90 -7 44 44T12 174L18 208Q30 278
60 313T156 373L187 384Q149 443 160 515L165 545Q191 700 377 700H515L500 615H377Q318 615 292 597T259 538L256 520Q250 483 257 461T294 399L430 221L510 361H606L506 186Q496 166 485 150L600 0H484Z" />
<glyph unicode="&apos;" glyph-name="quotesingle" horiz-adv-x="225" d="M230 700L193 487H110L147 700H230Z" />
<glyph unicode="(" glyph-name="parenleft" horiz-adv-x="328" d="M176 342Q156 219 177 119T250 -82L175 -130Q39 100 78 342L80 355Q121 623 340 834L403 784Q316 688 257 586T178 355L176 342Z" />
<glyph unicode=")" glyph-name="parenright" horiz-adv-x="328" d="M182 360Q201 484 180 585T108 786L183 833Q318 605 280 360L278 347Q237 79 17 -131L-44 -80Q43 16 101 117T180 347L182 360Z" />
<glyph unicode="*" glyph-name="asterisk" horiz-adv-x="318" d="M270 700L262 659Q262 655 240 597Q282 623 302 628L342 639L350 573L310 562Q299 559 252 554Q278 526 284 514L303 476L240 439L224 473Q215 490 207 526Q185 489 172 473L143 438L91 480L120
514Q126 521 167 554Q122 559 113 562L76 573L107 639L143 628Q162 622 193 598V659L200 700H270Z" />
<glyph unicode="+" glyph-name="plus" horiz-adv-x="487" d="M454 305H288L257 130H181L212 305H47L60 380H225L253 540H330L302 380H467L454 305Z" />
<glyph unicode="," glyph-name="comma" horiz-adv-x="238" d="M48 134H143L129 52L61 -101H6L48 134Z" />
<glyph unicode="-" glyph-name="hyphen" horiz-adv-x="393" d="M361 357L348 284H51L64 357H361Z" />
<glyph unicode="." glyph-name="period" horiz-adv-x="238" d="M120 0H24L48 134H143L120 0Z" />
<glyph unicode="/" glyph-name="slash" horiz-adv-x="412" d="M81 -35H-8L360 735H451L81 -35Z" />
<glyph unicode="0" glyph-name="zero" horiz-adv-x="614" d="M290 -7H253Q133 -7 84 49T55 227L98 472Q121 599 178 653T353 707H390Q509 707 559 650T588 472L545 227Q522 100 465 47T290 -7ZM155 216Q141 141 166 110T251 79H300Q361 79 394 109T442 216L489
483Q502 558 478 589T393 620H344Q283 620 249 590T201 483L155 216Z" />
<glyph unicode="1" glyph-name="one" horiz-adv-x="321" d="M88 700H320L197 0H95L203 611H73L88 700Z" />
<glyph unicode="2" glyph-name="two" horiz-adv-x="501" d="M413 0H-18L-6 68Q5 129 24 164T87 230L315 393Q390 448 398 500L402 527Q414 611 321 611H94L110 700H330Q424 700 469 656T505 537L501 502Q495 448 466 410T372 325L157 172Q128 152 118 135T103
88H429L413 0Z" />
<glyph unicode="3" glyph-name="three" horiz-adv-x="510" d="M105 700H516L496 588L242 402L240 392H312Q394 392 432 346T458 214L452 171Q429 0 224 0H-15L0 88H229Q336 88 351 177L358 217Q375 309 275 309H130L150 422L389 600L391 611H90L105 700Z" />
<glyph unicode="4" glyph-name="four" horiz-adv-x="574" d="M397 700H537L451 214H544L529 130H436L413 0H320L343 130H-2L13 221L397 700ZM115 225L113 213H358L427 603H415L115 225Z" />
<glyph unicode="5" glyph-name="five" horiz-adv-x="515" d="M5 0L21 88H226Q289 88 319 109T357 179L366 229Q374 276 352 299T272 323H70L137 700H533L517 611H215L180 411H300Q394 411 437 367T467 236L458 177Q444 81 386 41T226 0H5Z" />
<glyph unicode="6" glyph-name="six" horiz-adv-x="575" d="M273 -7H233Q134 -7 84 45T51 201L99 475Q120 595 182 647T350 700H571L555 611H350Q284 611 249 581T199 475L183 383L263 414Q339 443 393 443H396Q470 443 509 401T536 280L522 194Q504 87 443 40T273
-7ZM249 79H279Q343 79 377 105T423 192L436 268Q445 313 423 334T357 356H353Q315 356 260 336L167 303L148 197Q128 79 249 79Z" />
<glyph unicode="7" glyph-name="seven" horiz-adv-x="480" d="M534 700L519 612L184 0H76L410 597L412 611H71L87 700H534Z" />
<glyph unicode="8" glyph-name="eight" horiz-adv-x="591" d="M297 -7H216Q121 -7 71 41T33 169L38 199Q46 251 80 288T182 351Q84 398 105 514L110 543Q138 707 326 707H398Q495 707 541 657T575 529L570 499Q560 442 530 409T438 351Q539 309 524 186L520 154Q500
-7 297 -7ZM260 410L335 386Q411 409 438 430T473 492L479 528Q486 567 465 593T394 620H321Q220 620 205 540L199 507Q186 435 260 410ZM218 79H302Q412 79 423 157L428 191Q439 268 368 290L283 317Q208 293 176 269T138 211L131 174Q123 131 144 105T218 79Z"
/>
<glyph unicode="9" glyph-name="nine" horiz-adv-x="575" d="M255 0H34L50 89H255Q321 89 356 119T406 225L422 317L342 286Q266 257 212 257H209Q135 257 96 299T69 420L83 506Q101 613 162 660T332 707H372Q471 707 521 655T554 499L506 225Q485 105 423 53T255
0ZM248 344H252Q290 344 345 364L438 397L457 503Q477 621 356 621H326Q262 621 228 595T182 508L169 432Q160 387 182 366T248 344Z" />
<glyph unicode=":" glyph-name="colon" horiz-adv-x="238" d="M117 528H213L189 393H93L117 528ZM120 0H24L47 134H143L120 0Z" />
<glyph unicode=";" glyph-name="semicolon" horiz-adv-x="238" d="M189 393H93L117 527H212L189 393ZM48 134H143L129 52L61 -101H6L48 134Z" />
<glyph unicode="&lt;" glyph-name="less" horiz-adv-x="487" d="M34 263L57 392L487 521L471 432L124 332L122 318L434 219L419 134L34 263Z" />
<glyph unicode="=" glyph-name="equal" horiz-adv-x="487" d="M472 409H65L78 484H485L472 409ZM436 202H28L42 277H449L436 202Z" />
<glyph unicode="&gt;" glyph-name="greater" horiz-adv-x="487" d="M451 263L21 134L36 223L383 323L385 337L74 436L89 521L474 392L451 263Z" />
<glyph unicode="?" glyph-name="question" horiz-adv-x="456" d="M219 232H130L136 271Q145 321 164 347T230 400L293 435Q335 458 351 476T372 523L374 540Q379 572 362 591T298 611H83L98 700H314Q406 700 445 660T476 553L473 528Q467 477 440 446T351 381L284
344Q251 325 240 307T224 257L219 232ZM206 134L182 0H86L110 134H206Z" />
<glyph unicode="@" glyph-name="at" horiz-adv-x="982" d="M553 -183H359Q180 -183 94 -83T37 190L62 333Q128 710 499 710H609Q820 710 897 620T945 351L928 251Q904 110 849 50T700 -10Q661 -10 632 6T589 53L509 21Q441 -7 389 -7H386Q311 -7 272 38T247 168L275
327Q293 428 349 476T503 524H750L676 104Q669 65 714 65Q760 65 793 102T846 251L863 351Q889 504 831 569T607 634H497Q194 634 143 333L119 190Q95 47 159 -30T366 -108H567L553 -183ZM417 85H420Q458 85 510 105L584 133L637 437H503Q446 437 416 411T375 327L347
171Q339 128 359 107T417 85Z" />
<glyph unicode="A" glyph-name="A" horiz-adv-x="636" d="M370 603L206 263H435L390 603H370ZM469 0L446 178H166L80 0H-30L317 700H472L573 0H469Z" />
<glyph unicode="B" glyph-name="B" horiz-adv-x="622" d="M317 0H30L154 700H412Q516 700 564 653T600 521L597 500Q581 386 479 361L478 353Q577 329 562 210L558 178Q546 85 487 43T317 0ZM240 616L200 389H352Q419 389 452 412T493 488L497 516Q511 616 396
616H240ZM187 312L146 83H321Q385 83 417 106T458 183L463 215Q471 266 446 289T354 312H187Z" />
<glyph unicode="C" glyph-name="C" horiz-adv-x="525" d="M574 700L559 611H355Q282 611 248 582T200 475L157 227Q133 88 268 88H466L451 0H260Q147 0 91 60T54 227L97 472Q119 597 177 648T354 700H574Z" />
<glyph unicode="D" glyph-name="D" horiz-adv-x="650" d="M324 0H30L154 700H427Q539 700 591 640T624 472L581 227Q559 104 501 52T324 0ZM324 88Q396 88 430 117T478 224L522 475Q545 611 410 611H241L149 88H324Z" />
<glyph unicode="E" glyph-name="E" horiz-adv-x="550" d="M469 0H30L154 700H592L577 611H239L201 393H517L502 306H186L147 88H484L469 0Z" />
<glyph unicode="F" glyph-name="F" d="M133 0H30L154 700H581L566 611H241L198 371H502L487 285H183L133 0Z" />
<glyph unicode="G" glyph-name="G" horiz-adv-x="610" d="M606 611H355Q284 611 249 582T201 478L156 222Q143 148 172 118T269 88H432L477 344H574L513 0H261Q145 0 90 56T54 225L98 478Q119 596 179 648T354 700H622L606 611Z" />
<glyph unicode="H" glyph-name="H" horiz-adv-x="682" d="M455 0L509 305H187L133 0H30L154 700H256L202 394H524L578 700H681L558 0H455Z" />
<glyph unicode="I" glyph-name="I" horiz-adv-x="257" d="M133 0H30L154 700H256L133 0Z" />
<glyph unicode="J" glyph-name="J" horiz-adv-x="255" d="M-51 -185L-97 -107L-40 -70Q-2 -45 14 -20T40 56L154 700H256L143 58Q128 -27 101 -66T7 -148L-51 -185Z" />
<glyph unicode="K" glyph-name="K" horiz-adv-x="624" d="M186 308L132 0H30L154 700H255L202 396H338L562 700H674L419 350L561 0H453L328 308H186Z" />
<glyph unicode="L" glyph-name="L" horiz-adv-x="510" d="M446 0H30L154 700H256L148 88H461L446 0Z" />
<glyph unicode="M" glyph-name="M" horiz-adv-x="850" d="M726 0H628L688 343L733 573H717L469 155H341L241 573H226L189 343L128 0H30L153 700H297L407 241H424L697 700H849L726 0Z" />
<glyph unicode="N" glyph-name="N" horiz-adv-x="687" d="M276 700L475 156H492L588 700H686L562 0H440L241 543H225L128 0H30L154 700H276Z" />
<glyph unicode="O" glyph-name="O" horiz-adv-x="650" d="M312 -7H268Q147 -7 91 54T54 225L98 474Q121 602 180 654T372 707H416Q536 707 590 644T625 474L581 225Q558 96 500 45T312 -7ZM156 222Q143 144 172 112T267 80H321Q394 80 429 110T478 222L523 478Q536
554 508 586T412 619H359Q286 619 251 589T201 478L156 222Z" />
<glyph unicode="P" glyph-name="P" horiz-adv-x="590" d="M133 0H30L153 700H404Q511 700 559 649T594 502L584 436Q568 329 508 283T340 237H175L133 0ZM241 611L190 325H344Q408 325 439 349T481 436L492 502Q510 611 390 611H241Z" />
<glyph unicode="Q" glyph-name="Q" horiz-adv-x="650" d="M431 -156H322L264 -7Q145 -6 90 55T54 225L98 474Q121 602 180 654T372 707H416Q536 707 590 644T625 474L581 225Q561 111 515 59T372 -4L431 -156ZM156 222Q143 144 172 112T267 80H321Q394 80 429
110T478 222L523 478Q536 554 508 586T412 619H359Q286 619 251 589T201 478L156 222Z" />
<glyph unicode="R" glyph-name="R" horiz-adv-x="623" d="M241 611L192 336H354Q420 336 453 361T497 446L506 501Q516 559 491 585T402 611H241ZM133 0H30L154 700H418Q636 700 608 501L600 446Q588 361 543 317T421 260L539 0H430L323 248H177L133 0Z" />
<glyph unicode="S" glyph-name="S" horiz-adv-x="535" d="M1 0L16 88H271Q324 88 349 110T382 175L385 194Q391 232 379 251T331 283L189 332Q121 356 96 402T83 521L87 544Q100 617 152 658T299 700H556L540 611H293Q203 611 189 539L185 519Q177 479 189 456T240
420L381 371Q446 348 472 307T488 199L484 172Q472 90 418 45T268 0H1Z" />
<glyph unicode="T" glyph-name="T" horiz-adv-x="569" d="M629 700L614 611H397L289 0H186L294 611H77L93 700H629Z" />
<glyph unicode="U" glyph-name="U" horiz-adv-x="652" d="M248 700L165 227Q151 151 182 118T286 85H324Q396 85 427 115T473 227L556 700H659L576 227Q553 100 497 48T318 -4H280Q162 -4 103 57T62 227L145 700H248Z" />
<glyph unicode="V" glyph-name="V" horiz-adv-x="631" d="M190 0L91 700H196L274 96H293L580 700H693L348 0H190Z" />
<glyph unicode="W" glyph-name="W" horiz-adv-x="958" d="M736 0H571L547 598H527L293 0H128L97 700H204L220 101H240L473 700H634L658 101H678L904 700H1014L736 0Z" />
<glyph unicode="X" glyph-name="X" horiz-adv-x="579" d="M517 700H634L384 356L514 0H404L306 289H286L89 0H-28L226 356L97 700H206L305 424H324L517 700Z" />
<glyph unicode="Y" glyph-name="Y" horiz-adv-x="592" d="M198 0L239 236L86 700H192L300 353H317L547 700H659L342 236L300 0H198Z" />
<glyph unicode="Z" glyph-name="Z" horiz-adv-x="541" d="M482 88L466 0H-18L-3 87L431 597L434 611H97L112 700H578L563 612L128 102L126 88H482Z" />
<glyph unicode="[" glyph-name="bracketleft" horiz-adv-x="327" d="M416 836L402 753H261L119 -52H259L245 -135H6L178 836H416Z" />
<glyph unicode="\" glyph-name="backslash" horiz-adv-x="412" d="M228 -35L127 735H214L315 -35H228Z" />
<glyph unicode="]" glyph-name="bracketright" horiz-adv-x="327" d="M112 836H350L179 -135H-59L-44 -52H96L238 753H97L112 836Z" />
<glyph unicode="^" glyph-name="asciicircum" horiz-adv-x="487" d="M323 120L297 488H283L126 120H36L227 560H376L413 120H323Z" />
<glyph unicode="_" glyph-name="underscore" horiz-adv-x="412" d="M-17 -86L-4 -13H317L305 -86H-17Z" />
<glyph unicode="`" glyph-name="grave" horiz-adv-x="500" d="M152 751H262L352 590H264L152 751Z" />
<glyph unicode="a" glyph-name="a" horiz-adv-x="569" d="M208 85H211Q245 85 303 105L375 132L430 441H297Q240 441 209 415T168 331L142 182Q133 134 151 110T208 85ZM301 21Q231 -7 182 -7H179Q104 -7 65 42T42 180L69 331Q87 433 142 480T297 528H543L449
0H363L367 46L301 21Z" />
<glyph unicode="b" glyph-name="b" horiz-adv-x="574" d="M273 0H25L148 700H248L210 483L271 507Q342 535 391 535H394Q468 535 506 486T530 348L504 196Q487 95 430 48T273 0ZM138 87H276Q384 87 404 196L431 346Q440 392 420 417T365 443H362Q326 443 270 422L192
394L138 87Z" />
<glyph unicode="c" glyph-name="c" horiz-adv-x="470" d="M469 528L454 445H298Q187 445 167 331L142 189Q122 75 230 75Q284 75 350 93L394 106L413 28L368 15Q287 -7 219 -7Q120 -7 74 46T44 196L68 331Q102 528 298 528H469Z" />
<glyph unicode="d" glyph-name="d" horiz-adv-x="574" d="M209 85H212Q246 85 303 105L381 133L435 441H297Q240 441 210 415T169 331L143 182Q134 134 152 110T209 85ZM302 21Q232 -7 182 -7H179Q105 -7 67 42T43 180L69 331Q87 433 143 480T297 528H448L478
700H578L455 0H368L372 48L302 21Z" />
<glyph unicode="e" glyph-name="e" horiz-adv-x="538" d="M166 339L160 306H410L416 339Q427 398 404 426T323 454H290Q236 454 207 427T166 339ZM399 20Q305 -7 227 -7Q124 -7 76 51T45 206L66 328Q85 435 140 485T293 535H325Q426 535 474 483T505 328L493 260L466
227H147L142 199Q120 75 242 75Q302 75 382 98L427 111L444 33L399 20Z" />
<glyph unicode="f" glyph-name="f" horiz-adv-x="362" d="M47 445L62 528H150L157 567Q171 642 215 676T338 711H427L413 637H338Q296 637 279 622T254 567L247 528H394L380 445H235L156 0H57L136 445H47Z" />
<glyph unicode="g" glyph-name="g" horiz-adv-x="572" d="M198 -171H14L29 -86H205Q277 -86 313 -56T362 36L372 91L307 65Q235 37 187 37H184Q110 37 72 86T48 224L66 331Q83 433 139 480T295 528H546L460 41Q441 -68 376 -119T198 -171ZM212 127H215Q250 127
307 147L387 176L434 443H294Q237 443 206 417T165 334L146 224Q137 176 155 152T212 127Z" />
<glyph unicode="h" glyph-name="h" horiz-adv-x="586" d="M267 418L194 391L125 0H25L149 700H248L209 480L270 504Q348 535 398 535H401Q474 535 512 489T537 370L472 0H372L434 353Q441 391 422 415T365 439H362Q326 439 267 418Z" />
<glyph unicode="i" glyph-name="i" horiz-adv-x="244" d="M250 708L231 597H130L150 708H250ZM118 528H218L125 0H25L118 528Z" />
<glyph unicode="j" glyph-name="j" horiz-adv-x="244" d="M231 597H130L150 708H250L231 597ZM218 528L136 60Q121 -24 95 -63T6 -145L-48 -181L-98 -100L-45 -65Q-8 -40 9 -15T36 60L118 528H218Z" />
<glyph unicode="k" glyph-name="k" horiz-adv-x="544" d="M391 0L287 241H167L125 0H25L149 700H248L184 334H301L460 528H567L371 283L494 0H391Z" />
<glyph unicode="l" glyph-name="l" horiz-adv-x="244" d="M248 700L125 0H25L149 700H248Z" />
<glyph unicode="m" glyph-name="m" horiz-adv-x="918" d="M266 419L194 391L125 0H25L119 528H205L202 478L268 505Q342 535 391 535H394Q482 535 517 471L607 507Q677 535 730 535H733Q806 535 844 489T869 370L803 0H704L766 353Q773 391 754 415T697 439H694Q658
439 605 419L533 391L530 370L464 0H364L427 353Q434 391 415 415T357 439H354Q317 439 266 419Z" />
<glyph unicode="n" glyph-name="n" horiz-adv-x="586" d="M267 419L194 391L125 0H25L118 528H205L202 478L270 505Q346 535 398 535H401Q474 535 512 489T537 370L472 0H372L434 353Q441 391 422 415T365 439H362Q319 439 267 419Z" />
<glyph unicode="o" glyph-name="o" horiz-adv-x="560" d="M266 -7H231Q126 -7 77 49T45 205L66 323Q87 438 140 486T293 535H328Q433 535 482 479T514 323L493 205Q472 90 419 42T266 -7ZM141 189Q121 75 233 75H264Q323 75 351 101T391 189L417 339Q437 453 325
453H294Q235 453 207 427T168 339L141 189Z" />
<glyph unicode="p" glyph-name="p" horiz-adv-x="574" d="M95 -171H-4L118 528H205L201 479L271 507Q343 535 391 535H394Q468 535 506 486T530 348L504 196Q487 95 431 48T276 0H125L95 -171ZM138 87H276Q333 87 363 113T404 196L431 346Q440 394 422 418T365
443H362Q325 443 270 422L192 394L138 87Z" />
<glyph unicode="q" glyph-name="q" horiz-adv-x="574" d="M425 -171H325L363 44L302 21Q232 -7 182 -7H179Q105 -7 67 42T43 180L69 331Q87 433 143 480T297 528H548L425 -171ZM209 85H212Q246 85 303 105L381 133L435 441H297Q240 441 210 415T169 331L143 182Q134
134 152 110T209 85Z" />
<glyph unicode="r" glyph-name="r" horiz-adv-x="387" d="M125 0H25L118 528H205L202 471L267 499Q339 535 401 535H420L403 440H389Q326 440 264 418L194 391L125 0Z" />
<glyph unicode="s" glyph-name="s" horiz-adv-x="475" d="M1 0L16 82H240Q309 82 321 141L324 156Q334 205 276 216L170 237Q104 250 79 284T62 380L65 400Q84 528 235 528H468L453 445H234Q163 445 155 389L153 375Q149 349 160 335T199 316L316 293Q436 270
416 160L411 132Q388 0 240 0H1Z" />
<glyph unicode="t" glyph-name="t" horiz-adv-x="410" d="M388 445H235L182 146Q170 79 221 79Q253 79 299 100L328 113L355 45L323 29Q250 -7 197 -7Q136 -7 103 34T81 141L135 445H47L61 528H155L184 640H269L249 528H403L388 445Z" />
<glyph unicode="u" glyph-name="u" horiz-adv-x="580" d="M314 23Q242 -7 186 -7H183Q110 -7 72 39T47 158L112 528H212L150 175Q143 137 162 113T219 89H222Q266 89 317 109L385 137L455 528H554L461 0H374L377 50L314 23Z" />
<glyph unicode="v" glyph-name="v" horiz-adv-x="531" d="M454 528H561L289 0H148L63 528H164L226 93H240L454 528Z" />
<glyph unicode="w" glyph-name="w" horiz-adv-x="805" d="M618 0H466L448 298L438 438H424L367 298L245 0H93L70 528H166L171 302L178 82H192L283 302L376 528H516L529 302L542 82H556L641 302L726 528H828L618 0Z" />
<glyph unicode="x" glyph-name="x" horiz-adv-x="492" d="M408 528H514L320 264L426 0H326L246 213H232L78 0H-26L172 269L71 528H171L246 321H260L408 528Z" />
<glyph unicode="y" glyph-name="y" horiz-adv-x="518" d="M49 -171H-29L-14 -85H58Q107 -85 134 -69T183 -12L206 33H140L63 528H161L219 109H239L443 528H548L271 -30Q234 -107 184 -139T49 -171Z" />
<glyph unicode="z" glyph-name="z" horiz-adv-x="471" d="M78 528H473L457 439L125 95L123 81H410L395 0H-14L1 89L333 432L335 446H63L78 528Z" />
<glyph unicode="{" glyph-name="braceleft" horiz-adv-x="365" d="M283 -130H234Q141 -130 101 -86T75 37L109 228Q125 313 36 313H22L37 399H52Q140 399 154 483L188 680Q217 843 385 843H455L440 760H387Q339 760 317 741T286 680L249 468Q241 424 220 399T153
359L152 352Q224 327 209 243L173 37Q165 -8 182 -28T251 -48H298L283 -130Z" />
<glyph unicode="|" glyph-name="bar" horiz-adv-x="232" d="M95 -100H8L166 800H254L95 -100Z" />
<glyph unicode="}" glyph-name="braceright" horiz-adv-x="365" d="M113 843H163Q256 843 296 799T321 674L288 483Q272 399 360 399H374L359 313H345Q257 313 243 228L208 31Q180 -130 11 -130H-58L-43 -48H9Q58 -48 80 -30T110 31L148 243Q156 287 177 312T243
352L245 359Q172 385 187 468L223 674Q231 719 214 739T146 760H98L113 843Z" />
<glyph unicode="~" glyph-name="asciitilde" horiz-adv-x="487" d="M40 238L63 315Q79 369 103 393T162 418H167Q213 418 257 373L287 342Q320 308 336 308H341Q352 308 360 316T375 349L394 412H467L444 335Q427 278 403 255T342 232H337Q312 232 293 242T249
277L219 308Q187 341 171 341H166Q145 341 133 301L114 238H40Z" />
<glyph unicode="&#xa0;" glyph-name="uni00A0" horiz-adv-x="210" />
<glyph unicode="&#xa1;" glyph-name="exclamdown" horiz-adv-x="262" d="M130 534H226L202 399H107L130 534ZM91 295H181L156 120L106 -165H3L53 120L91 295Z" />
<glyph unicode="&#xa2;" glyph-name="cent" horiz-adv-x="447" d="M248 0H160L176 93Q97 104 61 156T41 293L61 404Q94 588 266 600L284 700H371L353 601H462L447 518H292Q235 518 204 491T161 404L139 286Q119 172 228 172Q283 172 348 191L391 203L410 126L366
114Q310 97 264 93L248 0Z" />
<glyph unicode="&#xa3;" glyph-name="sterling" horiz-adv-x="551" d="M482 0H-21L-5 88H80L116 295H30L45 376H130L148 480Q169 597 231 648T404 700H592L576 611H404Q334 611 299 583T251 480L233 376H464L449 295H218L182 88H498L482 0Z" />
<glyph unicode="&#xa4;" glyph-name="currency" horiz-adv-x="552" d="M463 94L377 178Q340 163 285 163H260Q204 163 167 178L81 94L18 157L100 239Q82 275 82 329V353Q82 407 100 443L18 525L81 588L167 504Q204 519 260 519H285Q340 519 377 504L463 588L526
525L444 443Q462 407 462 353V329Q462 275 444 239L526 157L463 94ZM251 243H294Q328 243 349 261T371 318V363Q371 401 350 419T294 438H251Q217 438 196 420T174 363V318Q174 280 195 262T251 243Z" />
<glyph unicode="&#xa5;" glyph-name="yen" horiz-adv-x="599" d="M496 119H324L303 0H201L222 119H50L64 198H236L243 236L230 274H77L91 353H204L89 700H197L304 353H321L551 700H662L425 353H537L523 274H371L345 236L338 198H510L496 119Z" />
<glyph unicode="&#xa6;" glyph-name="brokenbar" horiz-adv-x="232" d="M185 410H97L166 800H254L185 410ZM95 -100H8L78 300H165L95 -100Z" />
<glyph unicode="&#xa7;" glyph-name="section" horiz-adv-x="581" d="M275 -171H-13L1 -83H276Q371 -83 386 3L389 20Q405 102 328 102H176Q100 102 69 140T46 238L50 265Q61 339 138 367Q79 412 96 507L101 536Q129 700 315 700H591L576 611H309Q213 611 200
527L197 508Q183 427 263 427H405Q481 427 515 390T540 291L536 265Q524 190 451 161Q504 121 490 25L486 0Q474 -79 421 -125T275 -171ZM341 188Q424 188 434 256L437 275Q441 305 425 322T370 339H244Q162 339 153 276L150 257Q145 224 159 206T214 188H341Z"
/>
<glyph unicode="&#xa8;" glyph-name="dieresis" horiz-adv-x="500" d="M441 590H354L376 716H463L441 590ZM260 590H172L195 716H282L260 590Z" />
<glyph unicode="&#xa9;" glyph-name="copyright" horiz-adv-x="763" d="M380 -7H303Q160 -7 97 60T55 245L93 458Q117 591 189 649T411 707H489Q631 707 694 640T737 454L699 241Q675 108 603 51T380 -7ZM299 68H395Q500 68 551 104T619 233L659 461Q674 546 631
588T493 631H397Q292 631 241 595T173 466L133 238Q118 154 161 111T299 68ZM481 168H370Q304 168 270 203T247 302L267 412Q279 479 313 509T411 540H547L535 470H410Q380 470 365 458T345 414L324 292Q314 237 370 237H492L481 168Z" />
<glyph unicode="&#xaa;" glyph-name="ordfeminine" horiz-adv-x="398" d="M199 430H201Q229 430 264 443L304 458L333 626H249Q181 626 170 562L157 486Q147 430 199 430ZM259 372Q213 353 175 353H173Q122 353 93 388T73 482L87 563Q111 700 251 700H430L370
359H293L295 387L259 372Z" />
<glyph unicode="&#xab;" glyph-name="guillemotleft" horiz-adv-x="466" d="M229 252L235 291L358 420H446L325 276L323 265L394 123H306L229 252ZM39 252L46 291L168 420H257L136 276L134 265L204 123H117L39 252Z" />
<glyph unicode="&#xac;" glyph-name="logicalnot" horiz-adv-x="487" d="M467 380L423 130H346L377 305H47L60 380H467Z" />
<glyph unicode="&#xad;" glyph-name="uni00AD" horiz-adv-x="0" />
<glyph unicode="&#xae;" glyph-name="registered" horiz-adv-x="763" d="M380 -7H303Q160 -7 97 60T55 245L93 458Q117 591 189 649T411 707H489Q631 707 694 640T737 454L699 241Q675 108 603 51T380 -7ZM299 68H395Q500 68 551 104T619 233L659 461Q674 546
631 588T493 631H397Q292 631 241 595T173 466L133 238Q118 154 161 111T299 68ZM353 472L334 362H428Q485 362 491 402L495 429Q499 452 487 462T447 472H353ZM301 168H222L288 540H459Q523 540 552 513T573 432L569 405Q557 321 477 304L529 168H449L403 295H323L301
168Z" />
<glyph unicode="&#xaf;" glyph-name="overscore" horiz-adv-x="500" d="M178 605L191 677H454L441 605H178Z" />
<glyph unicode="&#xb0;" glyph-name="degree" horiz-adv-x="346" d="M218 420Q159 420 119 457T79 552Q79 617 125 662T236 708Q294 708 334 671T374 576Q374 512 328 466T218 420ZM219 485Q256 485 281 510T306 574Q306 605 286 624T234 643Q198 643 173 619T148
555Q148 524 167 505T219 485Z" />
<glyph unicode="&#xb1;" glyph-name="plusminus" horiz-adv-x="487" d="M459 336H294L263 160H186L217 336H52L65 411H230L258 570H335L307 411H473L459 336ZM400 0H-6L6 74H413L400 0Z" />
<glyph unicode="&#xb2;" glyph-name="twosuperior" horiz-adv-x="350" d="M313 350H55L62 388Q72 440 92 466T159 514L243 552Q267 563 277 572T289 594L291 607Q293 620 287 627T263 634H113L124 700H270Q319 700 342 676T360 609L359 599Q355 563 337 542T279
502L191 462Q162 449 154 441T143 416H324L313 350Z" />
<glyph unicode="&#xb3;" glyph-name="threesuperior" horiz-adv-x="363" d="M77 415H218Q264 415 268 450L270 466Q272 482 264 489T232 496H124L134 560H239Q287 560 290 590L291 600Q293 620 285 627T253 635H115L127 700H273Q322 700 346 677T365 609L364 601Q358
552 306 534L305 528Q346 513 341 462L339 444Q328 350 223 350H65L77 415Z" />
<glyph unicode="&#xb4;" glyph-name="acute" horiz-adv-x="500" d="M526 751L358 590H263L411 751H526Z" />
<glyph unicode="&#xb5;" glyph-name="mu" horiz-adv-x="580" d="M184 -7Q148 -7 117 6L85 -171H-9L47 151Q47 152 47 154T48 158L53 187L72 296L113 528H213L151 175Q144 137 163 113T220 89H223Q265 89 317 110L386 137L456 528H555L462 0H375L378 50L315 24Q244
-7 187 -7H184Z" />
<glyph unicode="&#xb6;" glyph-name="paragraph" horiz-adv-x="653" d="M411 0L519 611H393L286 0H196L257 341H226Q144 341 102 388T72 518L75 540Q100 700 268 700H704L689 611H608L501 0H411Z" />
<glyph unicode="&#xb7;" glyph-name="middot" horiz-adv-x="500" d="M304 305H209L232 440H328L304 305Z" />
<glyph unicode="&#xb8;" glyph-name="cedilla" horiz-adv-x="500" d="M107 -164H194Q225 -164 228 -137L230 -120Q233 -96 206 -96H166L151 -79L169 17H228L219 -37H229Q267 -37 285 -58T300 -114L297 -140Q287 -224 197 -224H96L107 -164Z" />
<glyph unicode="&#xb9;" glyph-name="onesuperior" horiz-adv-x="250" d="M109 700H249L188 350H115L165 634H98L109 700Z" />
<glyph unicode="&#xba;" glyph-name="ordmasculine" horiz-adv-x="396" d="M248 356H200Q135 356 100 391T75 488L91 578Q104 648 140 679T243 710H290Q356 710 391 675T415 577L399 487Q386 417 351 387T248 356ZM208 426H248Q304 426 315 487L331 578Q342 639
282 639H242Q186 639 175 578L159 487Q149 426 208 426Z" />
<glyph unicode="&#xbb;" glyph-name="guillemotright" horiz-adv-x="466" d="M421 252L299 123H210L332 266L333 277L263 420H351L428 290L421 252ZM232 252L110 123H21L142 266L144 277L74 420H162L239 290L232 252Z" />
<glyph unicode="&#xbc;" glyph-name="onequarter" horiz-adv-x="744" d="M108 0H21L578 700H666L108 0ZM109 700H249L188 350H115L165 634H98L109 700ZM607 0H538L549 59H360L370 115L578 350H669L627 113H678L669 59H617L607 0ZM442 118L441 113H558L589 281H583L442
118Z" />
<glyph unicode="&#xbd;" glyph-name="onehalf" horiz-adv-x="758" d="M108 0H21L578 700H666L108 0ZM109 700H249L188 350H115L165 634H98L109 700ZM659 0H401L408 38Q418 90 438 116T505 164L589 202Q613 213 623 222T635 244L637 257Q639 270 633 277T609 284H459L470
350H616Q665 350 688 326T706 259L705 249Q701 213 683 192T625 152L537 112Q508 99 500 91T489 66H670L659 0Z" />
<glyph unicode="&#xbe;" glyph-name="threequarters" horiz-adv-x="856" d="M221 0H134L691 700H779L221 0ZM77 415H218Q264 415 268 450L270 466Q272 482 264 489T232 496H124L134 560H239Q287 560 290 590L291 600Q293 620 285 627T253 635H115L127 700H273Q322
700 346 677T365 609L364 601Q358 552 306 534L305 528Q346 513 341 462L339 444Q328 350 223 350H65L77 415ZM719 0H650L661 59H472L482 115L690 350H781L739 113H790L781 59H729L719 0ZM554 118L553 113H670L701 281H695L554 118Z" />
<glyph unicode="&#xbf;" glyph-name="questiondown" horiz-adv-x="456" d="M249 394L273 528H369L345 394H249ZM236 296H325L319 257Q310 207 291 181T225 128L162 93Q120 70 104 52T83 5L81 -12Q76 -44 93 -63T157 -83H372L357 -172H141Q49 -172 10 -132T-21
-25L-18 0Q-12 51 15 82T104 147L171 184Q204 203 215 221T231 271L236 296Z" />
<glyph unicode="&#xc0;" glyph-name="Agrave" horiz-adv-x="636" d="M249 922H359L449 761H361L249 922ZM370 603L206 263H435L390 603H370ZM469 0L446 178H166L80 0H-30L317 700H472L573 0H469Z" />
<glyph unicode="&#xc1;" glyph-name="Aacute" horiz-adv-x="636" d="M623 922L455 761H360L508 922H623ZM370 603L206 263H435L390 603H370ZM469 0L446 178H166L80 0H-30L317 700H472L573 0H469Z" />
<glyph unicode="&#xc2;" glyph-name="Acircumflex" horiz-adv-x="636" d="M327 761H235L382 925H483L573 761H489L433 862H420L327 761ZM370 603L206 263H435L390 603H370ZM469 0L446 178H166L80 0H-30L317 700H472L573 0H469Z" />
<glyph unicode="&#xc3;" glyph-name="Atilde" horiz-adv-x="636" d="M311 761H241L252 823Q261 870 282 892T348 914H356Q381 914 396 906T430 876L448 856Q462 840 468 836T483 832H491Q509 832 512 852L523 914H593L582 852Q573 805 552 783T486 761H478Q451
761 437 769T404 799L386 819Q372 835 366 839T351 843H343Q325 843 322 823L311 761ZM370 603L206 263H435L390 603H370ZM469 0L446 178H166L80 0H-30L317 700H472L573 0H469Z" />
<glyph unicode="&#xc4;" glyph-name="Adieresis" horiz-adv-x="636" d="M538 761H451L473 887H560L538 761ZM357 761H269L292 887H379L357 761ZM370 603L206 263H435L390 603H370ZM469 0L446 178H166L80 0H-30L317 700H472L573 0H469Z" />
<glyph unicode="&#xc5;" glyph-name="Aring" horiz-adv-x="636" d="M427 757H397Q348 757 320 782T296 851L299 877Q304 921 335 945T416 970H446Q497 970 524 945T547 875L545 851Q541 806 509 782T427 757ZM367 855Q365 836 375 826T410 816H426Q470 816 475
854L477 873Q479 891 469 901T434 911H418Q374 911 369 873L367 855ZM370 603L206 263H435L390 603H370ZM469 0L446 178H166L80 0H-30L317 700H472L573 0H469Z" />
<glyph unicode="&#xc6;" glyph-name="AE" horiz-adv-x="896" d="M494 597L262 263H453L512 597H494ZM438 178H203L80 0H-36L466 700H938L923 611H616L577 393H863L848 306H562L524 88H830L815 0H407L438 178Z" />
<glyph unicode="&#xc7;" glyph-name="Ccedilla" horiz-adv-x="525" d="M341 -140Q331 -224 241 -224H140L151 -164H238Q269 -164 272 -137L274 -120Q277 -96 250 -96H210L195 -79L210 3Q121 16 80 74T54 227L97 472Q119 597 177 648T354 700H574L559 611H355Q282
611 248 582T200 475L157 227Q133 88 268 88H466L451 0H269L263 -37H273Q311 -37 329 -58T344 -114L341 -140Z" />
<glyph unicode="&#xc8;" glyph-name="Egrave" horiz-adv-x="550" d="M218 922H328L418 761H330L218 922ZM469 0H30L154 700H592L577 611H239L201 393H517L502 306H186L147 88H484L469 0Z" />
<glyph unicode="&#xc9;" glyph-name="Eacute" horiz-adv-x="550" d="M581 922L413 761H318L466 922H581ZM469 0H30L154 700H592L577 611H239L201 393H517L502 306H186L147 88H484L469 0Z" />
<glyph unicode="&#xca;" glyph-name="Ecircumflex" horiz-adv-x="550" d="M296 761H204L351 925H452L542 761H458L402 862H389L296 761ZM469 0H30L154 700H592L577 611H239L201 393H517L502 306H186L147 88H484L469 0Z" />
<glyph unicode="&#xcb;" glyph-name="Edieresis" horiz-adv-x="550" d="M510 761H423L445 887H532L510 761ZM329 761H241L264 887H351L329 761ZM469 0H30L154 700H592L577 611H239L201 393H517L502 306H186L147 88H484L469 0Z" />
<glyph unicode="&#xcc;" glyph-name="Igrave" horiz-adv-x="257" d="M61 922H171L261 761H173L61 922ZM133 0H30L154 700H256L133 0Z" />
<glyph unicode="&#xcd;" glyph-name="Iacute" horiz-adv-x="257" d="M435 922L267 761H172L320 922H435ZM133 0H30L154 700H256L133 0Z" />
<glyph unicode="&#xce;" glyph-name="Icircumflex" horiz-adv-x="257" d="M139 761H47L194 925H295L385 761H301L245 862H232L139 761ZM133 0H30L154 700H256L133 0Z" />
<glyph unicode="&#xcf;" glyph-name="Idieresis" horiz-adv-x="257" d="M350 761H263L285 887H372L350 761ZM169 761H81L104 887H191L169 761ZM133 0H30L154 700H256L133 0Z" />
<glyph unicode="&#xd0;" glyph-name="Eth" horiz-adv-x="681" d="M356 0H62L116 309H23L38 390H131L185 700H458Q571 700 623 640T656 472L613 227Q591 104 533 52T356 0ZM180 88H356Q428 88 462 117T510 224L554 475Q577 611 442 611H272L233 390H353L339 309H219L180
88Z" />
<glyph unicode="&#xd1;" glyph-name="Ntilde" horiz-adv-x="687" d="M337 761H267L278 823Q287 870 308 892T374 914H382Q407 914 422 906T456 876L474 856Q488 840 494 836T509 832H517Q535 832 538 852L549 914H619L608 852Q599 805 578 783T512 761H504Q477
761 463 769T430 799L412 819Q398 835 392 839T377 843H369Q351 843 348 823L337 761ZM276 700L475 156H492L588 700H686L562 0H440L241 543H225L128 0H30L154 700H276Z" />
<glyph unicode="&#xd2;" glyph-name="Ograve" horiz-adv-x="650" d="M257 922H367L457 761H369L257 922ZM312 -7H268Q147 -7 91 54T54 225L98 474Q121 602 180 654T372 707H416Q536 707 590 644T625 474L581 225Q558 96 500 45T312 -7ZM156 222Q143 144 172 112T267
80H321Q394 80 429 110T478 222L523 478Q536 554 508 586T412 619H359Q286 619 251 589T201 478L156 222Z" />
<glyph unicode="&#xd3;" glyph-name="Oacute" horiz-adv-x="650" d="M631 922L463 761H368L516 922H631ZM312 -7H268Q147 -7 91 54T54 225L98 474Q121 602 180 654T372 707H416Q536 707 590 644T625 474L581 225Q558 96 500 45T312 -7ZM156 222Q143 144 172 112T267
80H321Q394 80 429 110T478 222L523 478Q536 554 508 586T412 619H359Q286 619 251 589T201 478L156 222Z" />
<glyph unicode="&#xd4;" glyph-name="Ocircumflex" horiz-adv-x="650" d="M332 761H240L387 925H488L578 761H494L438 862H425L332 761ZM312 -7H268Q147 -7 91 54T54 225L98 474Q121 602 180 654T372 707H416Q536 707 590 644T625 474L581 225Q558 96 500 45T312
-7ZM156 222Q143 144 172 112T267 80H321Q394 80 429 110T478 222L523 478Q536 554 508 586T412 619H359Q286 619 251 589T201 478L156 222Z" />
<glyph unicode="&#xd5;" glyph-name="Otilde" horiz-adv-x="650" d="M319 761H249L260 823Q269 870 290 892T356 914H364Q389 914 404 906T438 876L456 856Q470 840 476 836T491 832H499Q517 832 520 852L531 914H601L590 852Q581 805 560 783T494 761H486Q459
761 445 769T412 799L394 819Q380 835 374 839T359 843H351Q333 843 330 823L319 761ZM312 -7H268Q147 -7 91 54T54 225L98 474Q121 602 180 654T372 707H416Q536 707 590 644T625 474L581 225Q558 96 500 45T312 -7ZM156 222Q143 144 172 112T267 80H321Q394 80
429 110T478 222L523 478Q536 554 508 586T412 619H359Q286 619 251 589T201 478L156 222Z" />
<glyph unicode="&#xd6;" glyph-name="Odieresis" horiz-adv-x="650" d="M540 761H453L475 887H562L540 761ZM359 761H271L294 887H381L359 761ZM312 -7H268Q147 -7 91 54T54 225L98 474Q121 602 180 654T372 707H416Q536 707 590 644T625 474L581 225Q558 96 500
45T312 -7ZM156 222Q143 144 172 112T267 80H321Q394 80 429 110T478 222L523 478Q536 554 508 586T412 619H359Q286 619 251 589T201 478L156 222Z" />
<glyph unicode="&#xd7;" glyph-name="multiply" horiz-adv-x="487" d="M356 163L248 293L96 163L50 219L202 348L94 478L154 528L261 398L414 528L458 472L307 343L414 214L356 163Z" />
<glyph unicode="&#xd8;" glyph-name="Oslash" horiz-adv-x="650" d="M312 -7H268Q147 -7 91 54T54 225L98 474Q121 602 180 654T372 707H416Q536 707 590 644T625 474L581 225Q558 96 500 45T312 -7ZM156 222Q150 188 153 164L483 606Q457 619 412 619H359Q286
619 251 589T201 478L156 222ZM267 80H321Q394 80 429 110T478 222L523 478Q529 509 527 534L196 94Q223 80 267 80Z" />
<glyph unicode="&#xd9;" glyph-name="Ugrave" horiz-adv-x="652" d="M257 922H367L457 761H369L257 922ZM248 700L165 227Q151 151 182 118T286 85H324Q396 85 427 115T473 227L556 700H659L576 227Q553 100 497 48T318 -4H280Q162 -4 103 57T62 227L145 700H248Z" />
<glyph unicode="&#xda;" glyph-name="Uacute" horiz-adv-x="652" d="M631 922L463 761H368L516 922H631ZM248 700L165 227Q151 151 182 118T286 85H324Q396 85 427 115T473 227L556 700H659L576 227Q553 100 497 48T318 -4H280Q162 -4 103 57T62 227L145 700H248Z" />
<glyph unicode="&#xdb;" glyph-name="Ucircumflex" horiz-adv-x="652" d="M335 761H243L390 925H491L581 761H497L441 862H428L335 761ZM248 700L165 227Q151 151 182 118T286 85H324Q396 85 427 115T473 227L556 700H659L576 227Q553 100 497 48T318 -4H280Q162
-4 103 57T62 227L145 700H248Z" />
<glyph unicode="&#xdc;" glyph-name="Udieresis" horiz-adv-x="652" d="M546 761H459L481 887H568L546 761ZM365 761H277L300 887H387L365 761ZM248 700L165 227Q151 151 182 118T286 85H324Q396 85 427 115T473 227L556 700H659L576 227Q553 100 497 48T318 -4H280Q162
-4 103 57T62 227L145 700H248Z" />
<glyph unicode="&#xdd;" glyph-name="Yacute" horiz-adv-x="592" d="M601 922L433 761H338L486 922H601ZM198 0L239 236L86 700H192L300 353H317L547 700H659L342 236L300 0H198Z" />
<glyph unicode="&#xde;" glyph-name="Thorn" horiz-adv-x="591" d="M370 492H219L169 206H324Q387 206 419 230T461 316L471 383Q489 492 370 492ZM320 118H154L133 0H30L154 700H256L235 580H383Q490 580 538 530T573 383L564 316Q548 209 488 164T320 118Z" />
<glyph unicode="&#xdf;" glyph-name="germandbls" horiz-adv-x="624" d="M125 0H25L117 521Q149 707 342 707H390Q479 707 531 667T583 557Q583 518 562 484T516 429T469 389T448 355Q448 342 467 322T510 283T552 230T572 159Q572 88 520 44T376 0H255L270 82H376Q425
82 450 103T476 158Q476 178 464 196T433 229T396 259T366 296T353 341Q353 371 374 399T419 446T465 492T486 548Q486 624 386 624H344Q235 624 217 521L125 0Z" />
<glyph unicode="&#xe0;" glyph-name="agrave" horiz-adv-x="569" d="M186 751H296L386 590H298L186 751ZM208 85H211Q245 85 303 105L375 132L430 441H297Q240 441 209 415T168 331L142 182Q133 134 151 110T208 85ZM301 21Q231 -7 182 -7H179Q104 -7 65 42T42
180L69 331Q87 433 142 480T297 528H543L449 0H363L367 46L301 21Z" />
<glyph unicode="&#xe1;" glyph-name="aacute" horiz-adv-x="569" d="M560 751L392 590H297L445 751H560ZM208 85H211Q245 85 303 105L375 132L430 441H297Q240 441 209 415T168 331L142 182Q133 134 151 110T208 85ZM301 21Q231 -7 182 -7H179Q104 -7 65 42T42
180L69 331Q87 433 142 480T297 528H543L449 0H363L367 46L301 21Z" />
<glyph unicode="&#xe2;" glyph-name="acircumflex" horiz-adv-x="569" d="M264 590H172L319 754H420L510 590H426L370 691H357L264 590ZM208 85H211Q245 85 303 105L375 132L430 441H297Q240 441 209 415T168 331L142 182Q133 134 151 110T208 85ZM301 21Q231
-7 182 -7H179Q104 -7 65 42T42 180L69 331Q87 433 142 480T297 528H543L449 0H363L367 46L301 21Z" />
<glyph unicode="&#xe3;" glyph-name="atilde" horiz-adv-x="569" d="M248 590H178L189 652Q198 699 219 721T285 743H293Q318 743 333 735T367 705L385 685Q399 669 405 665T420 661H428Q446 661 449 681L460 743H530L519 681Q510 634 489 612T423 590H415Q388
590 374 598T341 628L323 648Q309 664 303 668T288 672H280Q262 672 259 652L248 590ZM208 85H211Q245 85 303 105L375 132L430 441H297Q240 441 209 415T168 331L142 182Q133 134 151 110T208 85ZM301 21Q231 -7 182 -7H179Q104 -7 65 42T42 180L69 331Q87 433
142 480T297 528H543L449 0H363L367 46L301 21Z" />
<glyph unicode="&#xe4;" glyph-name="adieresis" horiz-adv-x="569" d="M475 590H388L410 716H497L475 590ZM294 590H206L229 716H316L294 590ZM208 85H211Q245 85 303 105L375 132L430 441H297Q240 441 209 415T168 331L142 182Q133 134 151 110T208 85ZM301
21Q231 -7 182 -7H179Q104 -7 65 42T42 180L69 331Q87 433 142 480T297 528H543L449 0H363L367 46L301 21Z" />
<glyph unicode="&#xe5;" glyph-name="aring" horiz-adv-x="569" d="M364 586H334Q285 586 257 611T233 680L236 706Q241 750 272 774T353 799H383Q434 799 461 774T484 704L482 680Q478 635 446 611T364 586ZM304 684Q302 665 312 655T347 645H363Q407 645 412
683L414 702Q416 720 406 730T371 740H355Q311 740 306 702L304 684ZM208 85H211Q245 85 303 105L375 132L430 441H297Q240 441 209 415T168 331L142 182Q133 134 151 110T208 85ZM301 21Q231 -7 182 -7H179Q104 -7 65 42T42 180L69 331Q87 433 142 480T297 528H543L449
0H363L367 46L301 21Z" />
<glyph unicode="&#xe6;" glyph-name="ae" horiz-adv-x="858" d="M493 339L487 306H730L736 339Q746 398 724 426T643 454H616Q562 454 533 427T493 339ZM213 82Q246 82 303 102L370 126Q364 161 372 206L393 328Q405 399 434 445H297Q240 445 209 418T168 331L142
182Q133 133 152 108T210 82H213ZM301 21Q231 -7 182 -7H179Q103 -7 65 41T42 180L69 331Q87 433 142 480T297 528H556Q585 535 625 535H650Q751 535 797 483T825 328L813 260L786 227H473L468 199Q446 75 564 75Q623 75 703 98L748 111L763 34L717 20Q630 -7 549
-7Q440 -7 395 58L301 21Z" />
<glyph unicode="&#xe7;" glyph-name="ccedilla" horiz-adv-x="470" d="M288 -140Q278 -224 188 -224H87L98 -164H185Q216 -164 219 -137L221 -120Q224 -96 197 -96H157L142 -79L157 0Q89 16 60 66T44 196L68 331Q102 528 298 528H469L454 445H298Q187 445 167
331L142 189Q122 75 230 75Q284 75 350 93L394 106L413 28L368 15Q287 -7 219 -7H215L210 -37H220Q258 -37 276 -58T291 -114L288 -140Z" />
<glyph unicode="&#xe8;" glyph-name="egrave" horiz-adv-x="538" d="M171 751H281L371 590H283L171 751ZM166 339L160 306H410L416 339Q427 398 404 426T323 454H290Q236 454 207 427T166 339ZM399 20Q305 -7 227 -7Q124 -7 76 51T45 206L66 328Q85 435 140 485T293
535H325Q426 535 474 483T505 328L493 260L466 227H147L142 199Q120 75 242 75Q302 75 382 98L427 111L444 33L399 20Z" />
<glyph unicode="&#xe9;" glyph-name="eacute" horiz-adv-x="538" d="M540 751L372 590H277L425 751H540ZM166 339L160 306H410L416 339Q427 398 404 426T323 454H290Q236 454 207 427T166 339ZM399 20Q305 -7 227 -7Q124 -7 76 51T45 206L66 328Q85 435 140 485T293
535H325Q426 535 474 483T505 328L493 260L466 227H147L142 199Q120 75 242 75Q302 75 382 98L427 111L444 33L399 20Z" />
<glyph unicode="&#xea;" glyph-name="ecircumflex" horiz-adv-x="538" d="M244 590H152L299 754H400L490 590H406L350 691H337L244 590ZM166 339L160 306H410L416 339Q427 398 404 426T323 454H290Q236 454 207 427T166 339ZM399 20Q305 -7 227 -7Q124 -7 76 51T45
206L66 328Q85 435 140 485T293 535H325Q426 535 474 483T505 328L493 260L466 227H147L142 199Q120 75 242 75Q302 75 382 98L427 111L444 33L399 20Z" />
<glyph unicode="&#xeb;" glyph-name="edieresis" horiz-adv-x="538" d="M455 590H368L390 716H477L455 590ZM274 590H186L209 716H296L274 590ZM166 339L160 306H410L416 339Q427 398 404 426T323 454H290Q236 454 207 427T166 339ZM399 20Q305 -7 227 -7Q124
-7 76 51T45 206L66 328Q85 435 140 485T293 535H325Q426 535 474 483T505 328L493 260L466 227H147L142 199Q120 75 242 75Q302 75 382 98L427 111L444 33L399 20Z" />
<glyph unicode="&#xec;" glyph-name="igrave" horiz-adv-x="244" d="M25 751H135L225 590H137L25 751ZM118 528H218L125 0H25L118 528Z" />
<glyph unicode="&#xed;" glyph-name="iacute" horiz-adv-x="244" d="M399 751L231 590H136L284 751H399ZM118 528H218L125 0H25L118 528Z" />
<glyph unicode="&#xee;" glyph-name="icircumflex" horiz-adv-x="244" d="M103 590H11L158 754H259L349 590H265L209 691H196L103 590ZM118 528H218L125 0H25L118 528Z" />
<glyph unicode="&#xef;" glyph-name="idieresis" horiz-adv-x="244" d="M314 590H227L249 716H336L314 590ZM133 590H45L68 716H155L133 590ZM118 528H218L125 0H25L118 528Z" />
<glyph unicode="&#xf0;" glyph-name="eth" horiz-adv-x="575" d="M286 -7H245Q134 -7 84 47T50 199L63 271Q77 351 126 390T246 430H249Q312 430 379 400L452 368L467 446Q480 513 469 544L393 468L345 514L422 589Q405 596 373 603L262 627L287 710L406 686Q458
675 492 658L555 720L601 675L541 615Q583 556 562 430L523 201Q504 90 446 42T286 -7ZM252 79H282Q348 79 380 105T423 197L440 289L356 322Q310 342 264 342H260Q175 342 158 255L147 192Q127 79 252 79Z" />
<glyph unicode="&#xf1;" glyph-name="ntilde" horiz-adv-x="586" d="M257 590H187L198 652Q207 699 228 721T294 743H302Q327 743 342 735T376 705L394 685Q408 669 414 665T429 661H437Q455 661 458 681L469 743H539L528 681Q519 634 498 612T432 590H424Q397
590 383 598T350 628L332 648Q318 664 312 668T297 672H289Q271 672 268 652L257 590ZM267 419L194 391L125 0H25L118 528H205L202 478L270 505Q346 535 398 535H401Q474 535 512 489T537 370L472 0H372L434 353Q441 391 422 415T365 439H362Q319 439 267 419Z"
/>
<glyph unicode="&#xf2;" glyph-name="ograve" horiz-adv-x="560" d="M182 751H292L382 590H294L182 751ZM266 -7H231Q126 -7 77 49T45 205L66 323Q87 438 140 486T293 535H328Q433 535 482 479T514 323L493 205Q472 90 419 42T266 -7ZM141 189Q121 75 233 75H264Q323
75 351 101T391 189L417 339Q437 453 325 453H294Q235 453 207 427T168 339L141 189Z" />
<glyph unicode="&#xf3;" glyph-name="oacute" horiz-adv-x="560" d="M556 751L388 590H293L441 751H556ZM266 -7H231Q126 -7 77 49T45 205L66 323Q87 438 140 486T293 535H328Q433 535 482 479T514 323L493 205Q472 90 419 42T266 -7ZM141 189Q121 75 233 75H264Q323
75 351 101T391 189L417 339Q437 453 325 453H294Q235 453 207 427T168 339L141 189Z" />
<glyph unicode="&#xf4;" glyph-name="ocircumflex" horiz-adv-x="560" d="M260 590H168L315 754H416L506 590H422L366 691H353L260 590ZM266 -7H231Q126 -7 77 49T45 205L66 323Q87 438 140 486T293 535H328Q433 535 482 479T514 323L493 205Q472 90 419 42T266
-7ZM141 189Q121 75 233 75H264Q323 75 351 101T391 189L417 339Q437 453 325 453H294Q235 453 207 427T168 339L141 189Z" />
<glyph unicode="&#xf5;" glyph-name="otilde" horiz-adv-x="560" d="M244 590H174L185 652Q194 699 215 721T281 743H289Q314 743 329 735T363 705L381 685Q395 669 401 665T416 661H424Q442 661 445 681L456 743H526L515 681Q506 634 485 612T419 590H411Q384
590 370 598T337 628L319 648Q305 664 299 668T284 672H276Q258 672 255 652L244 590ZM266 -7H231Q126 -7 77 49T45 205L66 323Q87 438 140 486T293 535H328Q433 535 482 479T514 323L493 205Q472 90 419 42T266 -7ZM141 189Q121 75 233 75H264Q323 75 351 101T391
189L417 339Q437 453 325 453H294Q235 453 207 427T168 339L141 189Z" />
<glyph unicode="&#xf6;" glyph-name="odieresis" horiz-adv-x="560" d="M471 590H384L406 716H493L471 590ZM290 590H202L225 716H312L290 590ZM266 -7H231Q126 -7 77 49T45 205L66 323Q87 438 140 486T293 535H328Q433 535 482 479T514 323L493 205Q472 90 419
42T266 -7ZM141 189Q121 75 233 75H264Q323 75 351 101T391 189L417 339Q437 453 325 453H294Q235 453 207 427T168 339L141 189Z" />
<glyph unicode="&#xf7;" glyph-name="divide" horiz-adv-x="487" d="M330 485H235L259 620H354L330 485ZM454 305H47L60 380H467L454 305ZM256 66H161L185 201H280L256 66Z" />
<glyph unicode="&#xf8;" glyph-name="oslash" horiz-adv-x="560" d="M266 -7H231Q126 -7 77 49T45 205L66 323Q86 438 139 486T293 535H328Q433 535 482 479T514 323L493 205Q473 90 420 42T266 -7ZM134 184Q127 146 136 120L363 456Q345 458 333 458H289Q230
458 202 432T162 344L134 184ZM226 69H270Q329 69 357 96T396 184L425 344Q432 384 422 410L193 72Q208 69 226 69Z" />
<glyph unicode="&#xf9;" glyph-name="ugrave" horiz-adv-x="580" d="M192 751H302L392 590H304L192 751ZM314 23Q242 -7 186 -7H183Q110 -7 72 39T47 158L112 528H212L150 175Q143 137 162 113T219 89H222Q266 89 317 109L385 137L455 528H554L461 0H374L377 50L314 23Z" />
<glyph unicode="&#xfa;" glyph-name="uacute" horiz-adv-x="580" d="M566 751L398 590H303L451 751H566ZM314 23Q242 -7 186 -7H183Q110 -7 72 39T47 158L112 528H212L150 175Q143 137 162 113T219 89H222Q266 89 317 109L385 137L455 528H554L461 0H374L377 50L314 23Z" />
<glyph unicode="&#xfb;" glyph-name="ucircumflex" horiz-adv-x="580" d="M270 590H178L325 754H426L516 590H432L376 691H363L270 590ZM314 23Q242 -7 186 -7H183Q110 -7 72 39T47 158L112 528H212L150 175Q143 137 162 113T219 89H222Q266 89 317 109L385 137L455
528H554L461 0H374L377 50L314 23Z" />
<glyph unicode="&#xfc;" glyph-name="udieresis" horiz-adv-x="580" d="M481 590H394L416 716H503L481 590ZM300 590H212L235 716H322L300 590ZM314 23Q242 -7 186 -7H183Q110 -7 72 39T47 158L112 528H212L150 175Q143 137 162 113T219 89H222Q266 89 317 109L385
137L455 528H554L461 0H374L377 50L314 23Z" />
<glyph unicode="&#xfd;" glyph-name="yacute" horiz-adv-x="518" d="M535 751L367 590H272L420 751H535ZM49 -171H-29L-14 -85H58Q107 -85 134 -69T183 -12L206 33H140L63 528H161L219 109H239L443 528H548L271 -30Q234 -107 184 -139T49 -171Z" />
<glyph unicode="&#xfe;" glyph-name="thorn" horiz-adv-x="574" d="M95 -171H-4L149 700H246L208 482L271 507Q343 535 391 535H394Q470 535 507 487T530 348L504 196Q487 95 431 48T276 0H125L95 -171ZM138 87H276Q333 87 363 113T404 196L431 346Q440 394 421
418T362 443H359Q327 443 270 423L192 394L138 87Z" />
<glyph unicode="&#xff;" glyph-name="ydieresis" horiz-adv-x="518" d="M450 590H363L385 716H472L450 590ZM269 590H181L204 716H291L269 590ZM49 -171H-29L-14 -85H58Q107 -85 134 -69T183 -12L206 33H140L63 528H161L219 109H239L443 528H548L271 -30Q234 -107
184 -139T49 -171Z" />
<glyph unicode="&#x100;" glyph-name="Amacron" horiz-adv-x="636" d="M275 776L288 848H551L538 776H275ZM370 603L206 263H435L390 603H370ZM469 0L446 178H166L80 0H-30L317 700H472L573 0H469Z" />
<glyph unicode="&#x101;" glyph-name="amacron" horiz-adv-x="569" d="M212 605L225 677H488L475 605H212ZM208 85H211Q245 85 303 105L375 132L430 441H297Q240 441 209 415T168 331L142 182Q133 134 151 110T208 85ZM301 21Q231 -7 182 -7H179Q104 -7 65 42T42
180L69 331Q87 433 142 480T297 528H543L449 0H363L367 46L301 21Z" />
<glyph unicode="&#x102;" glyph-name="Abreve" horiz-adv-x="636" d="M496 902H570L563 859Q547 757 425 757H395Q337 757 305 785T280 859L287 902H362L354 862Q350 843 362 834T402 824H428Q482 824 489 862L496 902ZM370 603L206 263H435L390 603H370ZM469
0L446 178H166L80 0H-30L317 700H472L573 0H469Z" />
<glyph unicode="&#x103;" glyph-name="abreve" horiz-adv-x="569" d="M433 731H507L500 688Q484 586 362 586H332Q274 586 242 614T217 688L224 731H299L291 691Q287 672 299 663T339 653H365Q419 653 426 691L433 731ZM208 85H211Q245 85 303 105L375 132L430
441H297Q240 441 209 415T168 331L142 182Q133 134 151 110T208 85ZM301 21Q231 -7 182 -7H179Q104 -7 65 42T42 180L69 331Q87 433 142 480T297 528H543L449 0H363L367 46L301 21Z" />
<glyph unicode="&#x104;" glyph-name="Aogonek" horiz-adv-x="636" d="M370 603L206 263H435L390 603H370ZM544 -162L533 -228H486Q434 -228 409 -205T389 -140L390 -131Q393 -103 404 -86T453 -36L493 0H469L446 178H166L80 0H-30L317 700H472L573 0L513 -60Q484
-89 477 -99T467 -127L466 -135Q462 -162 491 -162H544Z" />
<glyph unicode="&#x105;" glyph-name="aogonek" horiz-adv-x="569" d="M208 85H211Q245 85 303 105L375 132L430 441H297Q240 441 209 415T168 331L142 182Q133 134 151 110T208 85ZM420 -162L409 -228H362Q310 -228 285 -205T265 -140L266 -131Q269 -103 280
-86T329 -36L369 0H363L367 46L301 21Q231 -7 182 -7H179Q104 -7 65 42T42 180L69 331Q87 433 142 480T297 528H543L449 0L389 -60Q360 -89 353 -99T343 -127L342 -135Q338 -162 367 -162H420Z" />
<glyph unicode="&#x106;" glyph-name="Cacute" horiz-adv-x="525" d="M568 922L400 761H305L453 922H568ZM574 700L559 611H355Q282 611 248 582T200 475L157 227Q133 88 268 88H466L451 0H260Q147 0 91 60T54 227L97 472Q119 597 177 648T354 700H574Z" />
<glyph unicode="&#x107;" glyph-name="cacute" horiz-adv-x="470" d="M512 751L344 590H249L397 751H512ZM469 528L454 445H298Q187 445 167 331L142 189Q122 75 230 75Q284 75 350 93L394 106L413 28L368 15Q287 -7 219 -7Q120 -7 74 46T44 196L68 331Q102 528
298 528H469Z" />
<glyph unicode="&#x108;" glyph-name="Ccircumflex" horiz-adv-x="525" d="M289 761H197L344 925H445L535 761H451L395 862H382L289 761ZM574 700L559 611H355Q282 611 248 582T200 475L157 227Q133 88 268 88H466L451 0H260Q147 0 91 60T54 227L97 472Q119 597
177 648T354 700H574Z" />
<glyph unicode="&#x109;" glyph-name="ccircumflex" horiz-adv-x="470" d="M216 590H124L271 754H372L462 590H378L322 691H309L216 590ZM469 528L454 445H298Q187 445 167 331L142 189Q122 75 230 75Q284 75 350 93L394 106L413 28L368 15Q287 -7 219 -7Q120
-7 74 46T44 196L68 331Q102 528 298 528H469Z" />
<glyph unicode="&#x10a;" glyph-name="Cdotaccent" horiz-adv-x="525" d="M420 761H324L348 896H443L420 761ZM574 700L559 611H355Q282 611 248 582T200 475L157 227Q133 88 268 88H466L451 0H260Q147 0 91 60T54 227L97 472Q119 597 177 648T354 700H574Z" />
<glyph unicode="&#x10b;" glyph-name="cdotaccent" horiz-adv-x="470" d="M341 590H245L269 725H364L341 590ZM469 528L454 445H298Q187 445 167 331L142 189Q122 75 230 75Q284 75 350 93L394 106L413 28L368 15Q287 -7 219 -7Q120 -7 74 46T44 196L68 331Q102
528 298 528H469Z" />
<glyph unicode="&#x10c;" glyph-name="Ccaron" horiz-adv-x="525" d="M472 926H564L417 762H316L226 926H310L366 825H379L472 926ZM574 700L559 611H355Q282 611 248 582T200 475L157 227Q133 88 268 88H466L451 0H260Q147 0 91 60T54 227L97 472Q119 597 177
648T354 700H574Z" />
<glyph unicode="&#x10d;" glyph-name="ccaron" horiz-adv-x="470" d="M399 755H491L344 591H243L153 755H237L293 654H306L399 755ZM469 528L454 445H298Q187 445 167 331L142 189Q122 75 230 75Q284 75 350 93L394 106L413 28L368 15Q287 -7 219 -7Q120 -7 74
46T44 196L68 331Q102 528 298 528H469Z" />
<glyph unicode="&#x10e;" glyph-name="Dcaron" horiz-adv-x="650" d="M517 926H609L462 762H361L271 926H355L411 825H424L517 926ZM324 0H30L154 700H427Q539 700 591 640T624 472L581 227Q559 104 501 52T324 0ZM324 88Q396 88 430 117T478 224L522 475Q545
611 410 611H241L149 88H324Z" />
<glyph unicode="&#x10f;" glyph-name="dcaron" horiz-adv-x="643" d="M650 700H738L727 635L676 484H612L650 700ZM209 85H212Q246 85 303 105L381 133L435 441H297Q240 441 210 415T169 331L143 182Q134 134 152 110T209 85ZM302 21Q232 -7 182 -7H179Q105 -7
67 42T43 180L69 331Q87 433 143 480T297 528H448L478 700H578L455 0H368L372 48L302 21Z" />
<glyph unicode="&#x110;" glyph-name="Dcroat" horiz-adv-x="681" d="M356 0H62L116 309H23L38 390H131L185 700H458Q571 700 623 640T656 472L613 227Q591 104 533 52T356 0ZM180 88H356Q428 88 462 117T510 224L554 475Q577 611 442 611H272L233 390H353L339
309H219L180 88Z" />
<glyph unicode="&#x111;" glyph-name="" horiz-adv-x="574" d="M208 85H211Q249 85 303 105L381 133L431 419H295Q237 419 206 392T164 305L141 171Q126 85 208 85ZM297 21Q224 -7 172 -7H169Q97 -7 60 32T39 157L64 303Q83 409 143 457T307 506H445L457 576H353L365
644H469L479 700H578L568 644H641L629 576H556L455 0H368L372 50L297 21Z" />
<glyph unicode="&#x112;" glyph-name="Emacron" horiz-adv-x="550" d="M244 776L257 848H520L507 776H244ZM469 0H30L154 700H592L577 611H239L201 393H517L502 306H186L147 88H484L469 0Z" />
<glyph unicode="&#x113;" glyph-name="emacron" horiz-adv-x="538" d="M192 605L205 677H468L455 605H192ZM166 339L160 306H410L416 339Q427 398 404 426T323 454H290Q236 454 207 427T166 339ZM399 20Q305 -7 227 -7Q124 -7 76 51T45 206L66 328Q85 435 140
485T293 535H325Q426 535 474 483T505 328L493 260L466 227H147L142 199Q120 75 242 75Q302 75 382 98L427 111L444 33L399 20Z" />
<glyph unicode="&#x114;" glyph-name="Ebreve" horiz-adv-x="550" d="M465 902H539L532 859Q516 757 394 757H364Q306 757 274 785T249 859L256 902H331L323 862Q319 843 331 834T371 824H397Q451 824 458 862L465 902ZM469 0H30L154 700H592L577 611H239L201
393H517L502 306H186L147 88H484L469 0Z" />
<glyph unicode="&#x115;" glyph-name="ebreve" horiz-adv-x="538" d="M413 731H487L480 688Q464 586 342 586H312Q254 586 222 614T197 688L204 731H279L271 691Q267 672 279 663T319 653H345Q399 653 406 691L413 731ZM166 339L160 306H410L416 339Q427 398 404
426T323 454H290Q236 454 207 427T166 339ZM399 20Q305 -7 227 -7Q124 -7 76 51T45 206L66 328Q85 435 140 485T293 535H325Q426 535 474 483T505 328L493 260L466 227H147L142 199Q120 75 242 75Q302 75 382 98L427 111L444 33L399 20Z" />
<glyph unicode="&#x116;" glyph-name="Edotaccent" horiz-adv-x="550" d="M421 761H325L349 896H444L421 761ZM469 0H30L154 700H592L577 611H239L201 393H517L502 306H186L147 88H484L469 0Z" />
<glyph unicode="&#x117;" glyph-name="edotaccent" horiz-adv-x="538" d="M369 590H273L297 725H392L369 590ZM166 339L160 306H410L416 339Q427 398 404 426T323 454H290Q236 454 207 427T166 339ZM399 20Q305 -7 227 -7Q124 -7 76 51T45 206L66 328Q85 435 140
485T293 535H325Q426 535 474 483T505 328L493 260L466 227H147L142 199Q120 75 242 75Q302 75 382 98L427 111L444 33L399 20Z" />
<glyph unicode="&#x118;" glyph-name="Eogonek" horiz-adv-x="550" d="M440 -162L429 -228H382Q330 -228 305 -205T285 -140L286 -131Q289 -103 300 -86T349 -36L389 0H30L154 700H592L577 611H239L201 393H517L502 306H186L147 88H484L469 0L409 -60Q380 -89
373 -99T363 -127L362 -135Q358 -162 387 -162H440Z" />
<glyph unicode="&#x119;" glyph-name="eogonek" horiz-adv-x="538" d="M166 339L160 306H410L416 339Q427 398 404 426T323 454H290Q236 454 207 427T166 339ZM267 -162L256 -228H209Q157 -228 132 -205T112 -140L113 -131Q116 -103 127 -86T176 -36L209 -6Q115
-1 72 56T45 206L66 328Q85 435 140 485T293 535H325Q426 535 474 483T505 328L493 260L466 227H147L142 199Q120 75 242 75Q302 75 382 98L427 111L444 33L399 20Q341 4 293 -3L236 -60Q207 -89 200 -99T190 -127L189 -135Q185 -162 214 -162H267Z" />
<glyph unicode="&#x11a;" glyph-name="Ecaron" horiz-adv-x="550" d="M479 926H571L424 762H323L233 926H317L373 825H386L479 926ZM469 0H30L154 700H592L577 611H239L201 393H517L502 306H186L147 88H484L469 0Z" />
<glyph unicode="&#x11b;" glyph-name="ecaron" horiz-adv-x="538" d="M427 755H519L372 591H271L181 755H265L321 654H334L427 755ZM166 339L160 306H410L416 339Q427 398 404 426T323 454H290Q236 454 207 427T166 339ZM399 20Q305 -7 227 -7Q124 -7 76 51T45
206L66 328Q85 435 140 485T293 535H325Q426 535 474 483T505 328L493 260L466 227H147L142 199Q120 75 242 75Q302 75 382 98L427 111L444 33L399 20Z" />
<glyph unicode="&#x11c;" glyph-name="Gcircumflex" horiz-adv-x="610" d="M315 761H223L370 925H471L561 761H477L421 862H408L315 761ZM606 611H355Q284 611 249 582T201 478L156 222Q143 148 172 118T269 88H432L477 344H574L513 0H261Q145 0 90 56T54 225L98
478Q119 596 179 648T354 700H622L606 611Z" />
<glyph unicode="&#x11d;" glyph-name="gcircumflex" horiz-adv-x="572" d="M266 590H174L321 754H422L512 590H428L372 691H359L266 590ZM198 -171H14L29 -86H205Q277 -86 313 -56T362 36L372 91L307 65Q235 37 187 37H184Q110 37 72 86T48 224L66 331Q83 433
139 480T295 528H546L460 41Q441 -68 376 -119T198 -171ZM212 127H215Q250 127 307 147L387 176L434 443H294Q237 443 206 417T165 334L146 224Q137 176 155 152T212 127Z" />
<glyph unicode="&#x11e;" glyph-name="Gbreve" horiz-adv-x="610" d="M484 902H558L551 859Q535 757 413 757H383Q325 757 293 785T268 859L275 902H350L342 862Q338 843 350 834T390 824H416Q470 824 477 862L484 902ZM606 611H355Q284 611 249 582T201 478L156
222Q143 148 172 118T269 88H432L477 344H574L513 0H261Q145 0 90 56T54 225L98 478Q119 596 179 648T354 700H622L606 611Z" />
<glyph unicode="&#x11f;" glyph-name="gbreve" horiz-adv-x="572" d="M435 731H509L502 688Q486 586 364 586H334Q276 586 244 614T219 688L226 731H301L293 691Q289 672 301 663T341 653H367Q421 653 428 691L435 731ZM198 -171H14L29 -86H205Q277 -86 313 -56T362
36L372 91L307 65Q235 37 187 37H184Q110 37 72 86T48 224L66 331Q83 433 139 480T295 528H546L460 41Q441 -68 376 -119T198 -171ZM212 127H215Q250 127 307 147L387 176L434 443H294Q237 443 206 417T165 334L146 224Q137 176 155 152T212 127Z" />
<glyph unicode="&#x120;" glyph-name="Gdotaccent" horiz-adv-x="610" d="M451 761H355L379 896H474L451 761ZM606 611H355Q284 611 249 582T201 478L156 222Q143 148 172 118T269 88H432L477 344H574L513 0H261Q145 0 90 56T54 225L98 478Q119 596 179 648T354
700H622L606 611Z" />
<glyph unicode="&#x121;" glyph-name="gdotaccent" horiz-adv-x="572" d="M391 590H295L319 725H414L391 590ZM198 -171H14L29 -86H205Q277 -86 313 -56T362 36L372 91L307 65Q235 37 187 37H184Q110 37 72 86T48 224L66 331Q83 433 139 480T295 528H546L460 41Q441
-68 376 -119T198 -171ZM212 127H215Q250 127 307 147L387 176L434 443H294Q237 443 206 417T165 334L146 224Q137 176 155 152T212 127Z" />
<glyph unicode="&#x122;" glyph-name="Gcommaaccent" horiz-adv-x="610" d="M606 611H355Q284 611 249 582T201 478L156 222Q143 148 172 118T269 88H432L477 344H574L513 0H261Q145 0 90 56T54 225L98 478Q119 596 179 648T354 700H622L606 611ZM233 -62H321L307
-140L248 -266H197L233 -62Z" />
<glyph unicode="&#x123;" glyph-name="gcommaaccent" horiz-adv-x="572" d="M387 591H299L313 669L372 795H423L387 591ZM198 -171H14L29 -86H205Q277 -86 313 -56T362 36L372 91L307 65Q235 37 187 37H184Q110 37 72 86T48 224L66 331Q83 433 139 480T295 528H546L460
41Q441 -68 376 -119T198 -171ZM212 127H215Q250 127 307 147L387 176L434 443H294Q237 443 206 417T165 334L146 224Q137 176 155 152T212 127Z" />
<glyph unicode="&#x124;" glyph-name="Hcircumflex" horiz-adv-x="682" d="M350 761H258L405 925H506L596 761H512L456 862H443L350 761ZM455 0L509 305H187L133 0H30L154 700H256L202 394H524L578 700H681L558 0H455Z" />
<glyph unicode="&#x125;" glyph-name="hcircumflex" horiz-adv-x="586" d="M250 761H158L305 925H406L496 761H412L356 862H343L250 761ZM267 418L194 391L125 0H25L149 700H248L209 480L270 504Q348 535 398 535H401Q474 535 512 489T537 370L472 0H372L434 353Q441
391 422 415T365 439H362Q326 439 267 418Z" />
<glyph unicode="&#x126;" glyph-name="Hbar" horiz-adv-x="682" d="M524 394L545 515H223L202 394H524ZM455 0L509 305H187L133 0H30L121 515H44L56 586H134L154 700H256L236 586H558L578 700H681L661 586H739L726 515H648L558 0H455Z" />
<glyph unicode="&#x127;" glyph-name="hbar" horiz-adv-x="586" d="M269 400L190 372L125 0H25L127 576H54L66 644H139L149 700H248L238 644H343L331 576H226L206 462L275 488Q356 518 405 518H408Q478 518 513 479T534 353L472 0H372L431 335Q446 421 364 421H361Q324
421 269 400Z" />
<glyph unicode="&#x128;" glyph-name="Itilde" horiz-adv-x="257" d="M123 761H53L64 823Q73 870 94 892T160 914H168Q193 914 208 906T242 876L260 856Q274 840 280 836T295 832H303Q321 832 324 852L335 914H405L394 852Q385 805 364 783T298 761H290Q263 761
249 769T216 799L198 819Q184 835 178 839T163 843H155Q137 843 134 823L123 761ZM133 0H30L154 700H256L133 0Z" />
<glyph unicode="&#x129;" glyph-name="itilde" horiz-adv-x="244" d="M87 590H17L28 652Q37 699 58 721T124 743H132Q157 743 172 735T206 705L224 685Q238 669 244 665T259 661H267Q285 661 288 681L299 743H369L358 681Q349 634 328 612T262 590H254Q227 590
213 598T180 628L162 648Q148 664 142 668T127 672H119Q101 672 98 652L87 590ZM118 528H218L125 0H25L118 528Z" />
<glyph unicode="&#x12a;" glyph-name="Imacron" horiz-adv-x="257" d="M87 776L100 848H363L350 776H87ZM133 0H30L154 700H256L133 0Z" />
<glyph unicode="&#x12b;" glyph-name="imacron" horiz-adv-x="244" d="M51 605L64 677H327L314 605H51ZM118 528H218L125 0H25L118 528Z" />
<glyph unicode="&#x12c;" glyph-name="Ibreve" horiz-adv-x="257" d="M308 902H382L375 859Q359 757 237 757H207Q149 757 117 785T92 859L99 902H174L166 862Q162 843 174 834T214 824H240Q294 824 301 862L308 902ZM133 0H30L154 700H256L133 0Z" />
<glyph unicode="&#x12d;" glyph-name="ibreve" horiz-adv-x="244" d="M272 731H346L339 688Q323 586 201 586H171Q113 586 81 614T56 688L63 731H138L130 691Q126 672 138 663T178 653H204Q258 653 265 691L272 731ZM118 528H218L125 0H25L118 528Z" />
<glyph unicode="&#x12e;" glyph-name="Iogonek" horiz-adv-x="257" d="M104 -162L93 -228H46Q-6 -228 -31 -205T-51 -140L-50 -131Q-47 -103 -36 -86T13 -36L53 0H30L154 700H256L133 0L73 -60Q44 -89 37 -99T27 -127L26 -135Q22 -162 51 -162H104Z" />
<glyph unicode="&#x12f;" glyph-name="iogonek" horiz-adv-x="244" d="M250 708L231 597H130L150 708H250ZM95 -162L84 -228H37Q-15 -228 -40 -205T-60 -140L-59 -131Q-56 -103 -45 -86T4 -36L44 0H25L118 528H218L125 0H124L64 -60Q35 -89 28 -99T18 -127L17
-135Q13 -162 42 -162H95Z" />
<glyph unicode="&#x130;" glyph-name="Idot" horiz-adv-x="257" d="M264 761H168L192 896H287L264 761ZM133 0H30L154 700H256L133 0Z" />
<glyph unicode="&#x131;" glyph-name="dotlessi" horiz-adv-x="244" d="M118 528H218L125 0H25L118 528Z" />
<glyph unicode="&#x132;" glyph-name="IJ" horiz-adv-x="513" d="M206 -185L160 -107L217 -70Q255 -45 271 -20T297 56L411 700H513L400 58Q385 -27 358 -66T264 -148L206 -185ZM133 0H30L154 700H256L133 0Z" />
<glyph unicode="&#x133;" glyph-name="ij" horiz-adv-x="489" d="M475 597H374L394 708H494L475 597ZM250 708L231 597H130L150 708H250ZM462 528L380 60Q365 -24 339 -63T250 -145L196 -181L146 -100L199 -65Q236 -40 253 -15T280 60L362 528H462ZM118 528H218L125
0H25L118 528Z" />
<glyph unicode="&#x134;" glyph-name="Jcircumflex" horiz-adv-x="255" d="M138 761H46L193 925H294L384 761H300L244 862H231L138 761ZM-51 -185L-97 -107L-40 -70Q-2 -45 14 -20T40 56L154 700H256L143 58Q128 -27 101 -66T7 -148L-51 -185Z" />
<glyph unicode="&#x135;" glyph-name="jcircumflex" horiz-adv-x="244" d="M103 590H11L158 754H259L349 590H265L209 691H196L103 590ZM218 528L136 60Q121 -24 95 -63T6 -145L-48 -181L-98 -100L-45 -65Q-8 -40 9 -15T36 60L118 528H218Z" />
<glyph unicode="&#x136;" glyph-name="Kcommaaccent" horiz-adv-x="624" d="M186 308L132 0H30L154 700H255L202 396H338L562 700H674L419 350L561 0H453L328 308H186ZM226 -62H314L300 -140L241 -266H190L226 -62Z" />
<glyph unicode="&#x137;" glyph-name="kcommaaccent" horiz-adv-x="544" d="M391 0L287 241H167L125 0H25L149 700H248L184 334H301L460 528H567L371 283L494 0H391ZM195 -62H283L269 -140L210 -266H159L195 -62Z" />
<glyph unicode="&#x139;" glyph-name="Lacute" horiz-adv-x="510" d="M435 922L267 761H172L320 922H435ZM446 0H30L154 700H256L148 88H461L446 0Z" />
<glyph unicode="&#x13a;" glyph-name="lacute" horiz-adv-x="244" d="M429 922L261 761H166L314 922H429ZM248 700L125 0H25L149 700H248Z" />
<glyph unicode="&#x13b;" glyph-name="Lcommaaccent" horiz-adv-x="510" d="M446 0H30L154 700H256L148 88H461L446 0ZM188 -62H276L262 -140L203 -266H152L188 -62Z" />
<glyph unicode="&#x13c;" glyph-name="lcommaaccent" horiz-adv-x="244" d="M248 700L125 0H25L149 700H248ZM21 -62H109L95 -140L36 -266H-15L21 -62Z" />
<glyph unicode="&#x13d;" glyph-name="Lcaron" horiz-adv-x="510" d="M405 700H493L482 635L431 484H367L405 700ZM446 0H30L154 700H256L148 88H461L446 0Z" />
<glyph unicode="&#x13e;" glyph-name="lcaron" horiz-adv-x="313" d="M320 700H408L397 635L346 484H282L320 700ZM248 700L125 0H25L149 700H248Z" />
<glyph unicode="&#x13f;" glyph-name="Ldot" horiz-adv-x="510" d="M446 0H30L154 700H256L148 88H461L446 0ZM437 305H342L365 440H461L437 305Z" />
<glyph unicode="&#x140;" glyph-name="ldot" horiz-adv-x="317" d="M248 700L125 0H25L149 700H248ZM335 305H240L263 440H359L335 305Z" />
<glyph unicode="&#x141;" glyph-name="Lslash" horiz-adv-x="531" d="M470 0H54L105 288L11 254L27 340L120 373L177 700H280L230 413L365 462L350 376L215 327L173 88H486L470 0Z" />
<glyph unicode="&#x142;" glyph-name="lslash" horiz-adv-x="297" d="M151 0H52L104 296L23 269L37 348L118 375L175 700H275L224 411L305 438L290 359L210 332L151 0Z" />
<glyph unicode="&#x143;" glyph-name="Nacute" horiz-adv-x="687" d="M644 922L476 761H381L529 922H644ZM276 700L475 156H492L588 700H686L562 0H440L241 543H225L128 0H30L154 700H276Z" />
<glyph unicode="&#x144;" glyph-name="nacute" horiz-adv-x="586" d="M569 751L401 590H306L454 751H569ZM267 419L194 391L125 0H25L118 528H205L202 478L270 505Q346 535 398 535H401Q474 535 512 489T537 370L472 0H372L434 353Q441 391 422 415T365 439H362Q319
439 267 419Z" />
<glyph unicode="&#x145;" glyph-name="Ncommaaccent" horiz-adv-x="687" d="M276 700L475 156H492L588 700H686L562 0H440L241 543H225L128 0H30L154 700H276ZM271 -62H359L345 -140L286 -266H235L271 -62Z" />
<glyph unicode="&#x146;" glyph-name="ncommaaccent" horiz-adv-x="586" d="M267 419L194 391L125 0H25L118 528H205L202 478L270 505Q346 535 398 535H401Q474 535 512 489T537 370L472 0H372L434 353Q441 391 422 415T365 439H362Q319 439 267 419ZM193 -62H281L267
-140L208 -266H157L193 -62Z" />
<glyph unicode="&#x147;" glyph-name="Ncaron" horiz-adv-x="687" d="M536 926H628L481 762H380L290 926H374L430 825H443L536 926ZM276 700L475 156H492L588 700H686L562 0H440L241 543H225L128 0H30L154 700H276Z" />
<glyph unicode="&#x148;" glyph-name="ncaron" horiz-adv-x="586" d="M456 755H548L401 591H300L210 755H294L350 654H363L456 755ZM267 419L194 391L125 0H25L118 528H205L202 478L270 505Q346 535 398 535H401Q474 535 512 489T537 370L472 0H372L434 353Q441
391 422 415T365 439H362Q319 439 267 419Z" />
<glyph unicode="&#x14c;" glyph-name="Omacron" horiz-adv-x="650" d="M277 776L290 848H553L540 776H277ZM312 -7H268Q147 -7 91 54T54 225L98 474Q121 602 180 654T372 707H416Q536 707 590 644T625 474L581 225Q558 96 500 45T312 -7ZM156 222Q143 144 172
112T267 80H321Q394 80 429 110T478 222L523 478Q536 554 508 586T412 619H359Q286 619 251 589T201 478L156 222Z" />
<glyph unicode="&#x14d;" glyph-name="omacron" horiz-adv-x="560" d="M208 605L221 677H484L471 605H208ZM266 -7H231Q126 -7 77 49T45 205L66 323Q87 438 140 486T293 535H328Q433 535 482 479T514 323L493 205Q472 90 419 42T266 -7ZM141 189Q121 75 233 75H264Q323
75 351 101T391 189L417 339Q437 453 325 453H294Q235 453 207 427T168 339L141 189Z" />
<glyph unicode="&#x14e;" glyph-name="Obreve" horiz-adv-x="650" d="M498 902H572L565 859Q549 757 427 757H397Q339 757 307 785T282 859L289 902H364L356 862Q352 843 364 834T404 824H430Q484 824 491 862L498 902ZM312 -7H268Q147 -7 91 54T54 225L98 474Q121
602 180 654T372 707H416Q536 707 590 644T625 474L581 225Q558 96 500 45T312 -7ZM156 222Q143 144 172 112T267 80H321Q394 80 429 110T478 222L523 478Q536 554 508 586T412 619H359Q286 619 251 589T201 478L156 222Z" />
<glyph unicode="&#x14f;" glyph-name="obreve" horiz-adv-x="560" d="M429 731H503L496 688Q480 586 358 586H328Q270 586 238 614T213 688L220 731H295L287 691Q283 672 295 663T335 653H361Q415 653 422 691L429 731ZM266 -7H231Q126 -7 77 49T45 205L66 323Q87
438 140 486T293 535H328Q433 535 482 479T514 323L493 205Q472 90 419 42T266 -7ZM141 189Q121 75 233 75H264Q323 75 351 101T391 189L417 339Q437 453 325 453H294Q235 453 207 427T168 339L141 189Z" />
<glyph unicode="&#x150;" glyph-name="Ohungarumlaut" horiz-adv-x="650" d="M507 922L363 761H278L410 922H507ZM681 922L532 761H447L583 922H681ZM312 -7H268Q147 -7 91 54T54 225L98 474Q121 602 180 654T372 707H416Q536 707 590 644T625 474L581 225Q558
96 500 45T312 -7ZM156 222Q143 144 172 112T267 80H321Q394 80 429 110T478 222L523 478Q536 554 508 586T412 619H359Q286 619 251 589T201 478L156 222Z" />
<glyph unicode="&#x151;" glyph-name="ohungarumlaut" horiz-adv-x="560" d="M432 751L288 590H203L335 751H432ZM606 751L457 590H372L508 751H606ZM266 -7H231Q126 -7 77 49T45 205L66 323Q87 438 140 486T293 535H328Q433 535 482 479T514 323L493 205Q472
90 419 42T266 -7ZM141 189Q121 75 233 75H264Q323 75 351 101T391 189L417 339Q437 453 325 453H294Q235 453 207 427T168 339L141 189Z" />
<glyph unicode="&#x152;" glyph-name="OE" horiz-adv-x="901" d="M273 88H415L507 611H359Q284 611 249 582T200 475L156 224Q144 154 173 121T273 88ZM266 0Q143 0 89 60T54 227L97 472Q120 597 178 648T361 700H943L927 611H609L571 393H868L852 306H555L517
88H835L819 0H266Z" />
<glyph unicode="&#x153;" glyph-name="oe" horiz-adv-x="879" d="M509 323L506 306H751L757 339Q767 398 745 426T664 454H635Q582 454 553 428T512 346Q512 342 511 333T509 323ZM141 189Q121 75 233 75H259Q318 75 346 101T385 189L412 339Q432 453 320 453H294Q235
453 207 427T168 339L141 189ZM568 -7Q468 -7 421 49Q368 -7 260 -7H231Q126 -7 77 49T45 205L66 323Q87 438 140 486T293 535H322Q432 535 481 480Q537 535 643 535H671Q771 535 816 483T845 328L834 260L807 227H492L489 209L487 199Q465 75 583 75Q639 75 723
98L769 111L784 34L738 20Q651 -7 568 -7Z" />
<glyph unicode="&#x154;" glyph-name="Racute" horiz-adv-x="623" d="M617 922L449 761H354L502 922H617ZM241 611L192 336H354Q420 336 453 361T497 446L506 501Q516 559 491 585T402 611H241ZM133 0H30L154 700H418Q636 700 608 501L600 446Q588 361 543 317T421
260L539 0H430L323 248H177L133 0Z" />
<glyph unicode="&#x155;" glyph-name="racute" horiz-adv-x="387" d="M470 751L302 590H207L355 751H470ZM125 0H25L118 528H205L202 471L267 499Q339 535 401 535H420L403 440H389Q326 440 264 418L194 391L125 0Z" />
<glyph unicode="&#x156;" glyph-name="Rcommaaccent" horiz-adv-x="623" d="M241 611L192 336H354Q420 336 453 361T497 446L506 501Q516 559 491 585T402 611H241ZM133 0H30L154 700H418Q636 700 608 501L600 446Q588 361 543 317T421 260L539 0H430L323 248H177L133
0ZM234 -62H322L308 -140L249 -266H198L234 -62Z" />
<glyph unicode="&#x157;" glyph-name="rcommaaccent" horiz-adv-x="387" d="M125 0H25L118 528H205L202 471L267 499Q339 535 401 535H420L403 440H389Q326 440 264 418L194 391L125 0ZM20 -62H108L94 -140L35 -266H-16L20 -62Z" />
<glyph unicode="&#x158;" glyph-name="Rcaron" horiz-adv-x="623" d="M504 926H596L449 762H348L258 926H342L398 825H411L504 926ZM241 611L192 336H354Q420 336 453 361T497 446L506 501Q516 559 491 585T402 611H241ZM133 0H30L154 700H418Q636 700 608 501L600
446Q588 361 543 317T421 260L539 0H430L323 248H177L133 0Z" />
<glyph unicode="&#x159;" glyph-name="rcaron" horiz-adv-x="387" d="M363 755H455L308 591H207L117 755H201L257 654H270L363 755ZM125 0H25L118 528H205L202 471L267 499Q339 535 401 535H420L403 440H389Q326 440 264 418L194 391L125 0Z" />
<glyph unicode="&#x15a;" glyph-name="Sacute" horiz-adv-x="535" d="M567 922L399 761H304L452 922H567ZM1 0L16 88H271Q324 88 349 110T382 175L385 194Q391 232 379 251T331 283L189 332Q121 356 96 402T83 521L87 544Q100 617 152 658T299 700H556L540 611H293Q203
611 189 539L185 519Q177 479 189 456T240 420L381 371Q446 348 472 307T488 199L484 172Q472 90 418 45T268 0H1Z" />
<glyph unicode="&#x15b;" glyph-name="sacute" horiz-adv-x="475" d="M504 751L336 590H241L389 751H504ZM1 0L16 82H240Q309 82 321 141L324 156Q334 205 276 216L170 237Q104 250 79 284T62 380L65 400Q84 528 235 528H468L453 445H234Q163 445 155 389L153
375Q149 349 160 335T199 316L316 293Q436 270 416 160L411 132Q388 0 240 0H1Z" />
<glyph unicode="&#x15c;" glyph-name="Scircumflex" horiz-adv-x="535" d="M271 761H179L326 925H427L517 761H433L377 862H364L271 761ZM1 0L16 88H271Q324 88 349 110T382 175L385 194Q391 232 379 251T331 283L189 332Q121 356 96 402T83 521L87 544Q100 617
152 658T299 700H556L540 611H293Q203 611 189 539L185 519Q177 479 189 456T240 420L381 371Q446 348 472 307T488 199L484 172Q472 90 418 45T268 0H1Z" />
<glyph unicode="&#x15d;" glyph-name="scircumflex" horiz-adv-x="475" d="M215 590H123L270 754H371L461 590H377L321 691H308L215 590ZM1 0L16 82H240Q309 82 321 141L324 156Q334 205 276 216L170 237Q104 250 79 284T62 380L65 400Q84 528 235 528H468L453
445H234Q163 445 155 389L153 375Q149 349 160 335T199 316L316 293Q436 270 416 160L411 132Q388 0 240 0H1Z" />
<glyph unicode="&#x15e;" glyph-name="Scedilla" horiz-adv-x="535" d="M314 -140Q304 -224 214 -224H113L124 -164H211Q242 -164 245 -137L247 -120Q250 -96 223 -96H183L168 -79L183 0H1L16 88H271Q324 88 349 110T382 175L385 194Q391 232 379 251T331 283L189
332Q121 356 96 402T83 521L87 544Q100 617 152 658T299 700H556L540 611H293Q203 611 189 539L185 519Q177 479 189 456T240 420L381 371Q446 348 472 307T488 199L484 172Q472 90 418 45T268 0H242L236 -37H246Q284 -37 302 -58T317 -114L314 -140Z" />
<glyph unicode="&#x15f;" glyph-name="scedilla" horiz-adv-x="475" d="M281 -140Q271 -224 181 -224H80L91 -164H178Q209 -164 212 -137L214 -120Q217 -96 190 -96H150L135 -79L150 0H1L16 82H240Q309 82 321 141L324 156Q334 205 276 216L170 237Q104 250 79
284T62 380L65 400Q84 528 235 528H468L453 445H234Q163 445 155 389L153 375Q149 349 160 335T199 316L316 293Q436 270 416 160L411 132Q388 0 240 0H209L203 -37H213Q251 -37 269 -58T284 -114L281 -140Z" />
<glyph unicode="&#x160;" glyph-name="Scaron" horiz-adv-x="535" d="M460 926H552L405 762H304L214 926H298L354 825H367L460 926ZM1 0L16 88H271Q324 88 349 110T382 175L385 194Q391 232 379 251T331 283L189 332Q121 356 96 402T83 521L87 544Q100 617 152
658T299 700H556L540 611H293Q203 611 189 539L185 519Q177 479 189 456T240 420L381 371Q446 348 472 307T488 199L484 172Q472 90 418 45T268 0H1Z" />
<glyph unicode="&#x161;" glyph-name="scaron" horiz-adv-x="475" d="M401 755H493L346 591H245L155 755H239L295 654H308L401 755ZM1 0L16 82H240Q309 82 321 141L324 156Q334 205 276 216L170 237Q104 250 79 284T62 380L65 400Q84 528 235 528H468L453 445H234Q163
445 155 389L153 375Q149 349 160 335T199 316L316 293Q436 270 416 160L411 132Q388 0 240 0H1Z" />
<glyph unicode="&#x162;" glyph-name="uni0162" horiz-adv-x="569" d="M629 700L614 611H397L289 0H186L294 611H77L93 700H629ZM182 -62H270L256 -140L197 -266H146L182 -62Z" />
<glyph unicode="&#x163;" glyph-name="uni0163" horiz-adv-x="410" d="M388 445H235L182 146Q170 79 221 79Q253 79 299 100L328 113L355 45L323 29Q250 -7 197 -7Q136 -7 103 34T81 141L135 445H47L61 528H155L184 640H269L249 528H403L388 445ZM104 -62H192L178
-140L119 -266H68L104 -62Z" />
<glyph unicode="&#x164;" glyph-name="Tcaron" horiz-adv-x="569" d="M477 926H569L422 762H321L231 926H315L371 825H384L477 926ZM629 700L614 611H397L289 0H186L294 611H77L93 700H629Z" />
<glyph unicode="&#x165;" glyph-name="tcaron" horiz-adv-x="410" d="M349 812H437L426 747L375 596H311L349 812ZM388 445H235L182 146Q170 79 221 79Q253 79 299 100L328 113L355 45L323 29Q250 -7 197 -7Q136 -7 103 34T81 141L135 445H47L61 528H155L184 640H269L249
528H403L388 445Z" />
<glyph unicode="&#x166;" glyph-name="Tbar" horiz-adv-x="569" d="M476 297H341L289 0H186L238 297H105L119 379H253L294 611H77L93 700H629L614 611H397L356 379H490L476 297Z" />
<glyph unicode="&#x167;" glyph-name="tbar" horiz-adv-x="412" d="M321 30Q244 -7 188 -7Q129 -7 99 27T81 136L100 247H17L30 315H112L135 445H47L61 528H155L184 640H269L249 528H405L390 445H235L212 315H342L330 247H200L182 146Q171 79 226 79Q254 79 304
104L332 117L352 46L321 30Z" />
<glyph unicode="&#x168;" glyph-name="Utilde" horiz-adv-x="652" d="M319 761H249L260 823Q269 870 290 892T356 914H364Q389 914 404 906T438 876L456 856Q470 840 476 836T491 832H499Q517 832 520 852L531 914H601L590 852Q581 805 560 783T494 761H486Q459
761 445 769T412 799L394 819Q380 835 374 839T359 843H351Q333 843 330 823L319 761ZM248 700L165 227Q151 151 182 118T286 85H324Q396 85 427 115T473 227L556 700H659L576 227Q553 100 497 48T318 -4H280Q162 -4 103 57T62 227L145 700H248Z" />
<glyph unicode="&#x169;" glyph-name="utilde" horiz-adv-x="580" d="M254 590H184L195 652Q204 699 225 721T291 743H299Q324 743 339 735T373 705L391 685Q405 669 411 665T426 661H434Q452 661 455 681L466 743H536L525 681Q516 634 495 612T429 590H421Q394
590 380 598T347 628L329 648Q315 664 309 668T294 672H286Q268 672 265 652L254 590ZM314 23Q242 -7 186 -7H183Q110 -7 72 39T47 158L112 528H212L150 175Q143 137 162 113T219 89H222Q266 89 317 109L385 137L455 528H554L461 0H374L377 50L314 23Z" />
<glyph unicode="&#x16a;" glyph-name="Umacron" horiz-adv-x="652" d="M283 776L296 848H559L546 776H283ZM248 700L165 227Q151 151 182 118T286 85H324Q396 85 427 115T473 227L556 700H659L576 227Q553 100 497 48T318 -4H280Q162 -4 103 57T62 227L145 700H248Z" />
<glyph unicode="&#x16b;" glyph-name="umacron" horiz-adv-x="580" d="M218 605L231 677H494L481 605H218ZM314 23Q242 -7 186 -7H183Q110 -7 72 39T47 158L112 528H212L150 175Q143 137 162 113T219 89H222Q266 89 317 109L385 137L455 528H554L461 0H374L377
50L314 23Z" />
<glyph unicode="&#x16c;" glyph-name="Ubreve" horiz-adv-x="652" d="M504 902H578L571 859Q555 757 433 757H403Q345 757 313 785T288 859L295 902H370L362 862Q358 843 370 834T410 824H436Q490 824 497 862L504 902ZM248 700L165 227Q151 151 182 118T286 85H324Q396
85 427 115T473 227L556 700H659L576 227Q553 100 497 48T318 -4H280Q162 -4 103 57T62 227L145 700H248Z" />
<glyph unicode="&#x16d;" glyph-name="ubreve" horiz-adv-x="580" d="M439 731H513L506 688Q490 586 368 586H338Q280 586 248 614T223 688L230 731H305L297 691Q293 672 305 663T345 653H371Q425 653 432 691L439 731ZM314 23Q242 -7 186 -7H183Q110 -7 72 39T47
158L112 528H212L150 175Q143 137 162 113T219 89H222Q266 89 317 109L385 137L455 528H554L461 0H374L377 50L314 23Z" />
<glyph unicode="&#x16e;" glyph-name="Uring" horiz-adv-x="652" d="M435 757H405Q356 757 328 782T304 851L307 877Q312 921 343 945T424 970H454Q505 970 532 945T555 875L553 851Q549 806 517 782T435 757ZM375 855Q373 836 383 826T418 816H434Q478 816 483
854L485 873Q487 891 477 901T442 911H426Q382 911 377 873L375 855ZM248 700L165 227Q151 151 182 118T286 85H324Q396 85 427 115T473 227L556 700H659L576 227Q553 100 497 48T318 -4H280Q162 -4 103 57T62 227L145 700H248Z" />
<glyph unicode="&#x16f;" glyph-name="uring" horiz-adv-x="580" d="M370 586H340Q291 586 263 611T239 680L242 706Q247 750 278 774T359 799H389Q440 799 467 774T490 704L488 680Q484 635 452 611T370 586ZM310 684Q308 665 318 655T353 645H369Q413 645 418
683L420 702Q422 720 412 730T377 740H361Q317 740 312 702L310 684ZM314 23Q242 -7 186 -7H183Q110 -7 72 39T47 158L112 528H212L150 175Q143 137 162 113T219 89H222Q266 89 317 109L385 137L455 528H554L461 0H374L377 50L314 23Z" />
<glyph unicode="&#x170;" glyph-name="Uhungarumlaut" horiz-adv-x="652" d="M507 922L363 761H278L410 922H507ZM681 922L532 761H447L583 922H681ZM248 700L165 227Q151 151 182 118T286 85H324Q396 85 427 115T473 227L556 700H659L576 227Q553 100 497 48T318
-4H280Q162 -4 103 57T62 227L145 700H248Z" />
<glyph unicode="&#x171;" glyph-name="uhungarumlaut" horiz-adv-x="580" d="M442 751L298 590H213L345 751H442ZM616 751L467 590H382L518 751H616ZM314 23Q242 -7 186 -7H183Q110 -7 72 39T47 158L112 528H212L150 175Q143 137 162 113T219 89H222Q266 89 317
109L385 137L455 528H554L461 0H374L377 50L314 23Z" />
<glyph unicode="&#x172;" glyph-name="Uogonek" horiz-adv-x="652" d="M302 -228H255Q203 -228 178 -205T158 -140L159 -131Q162 -103 173 -86T222 -36L258 -3Q150 2 97 63T62 227L145 700H248L165 227Q151 151 182 118T286 85H324Q396 85 427 115T473 227L556
700H659L576 227Q554 105 502 53T338 -4L282 -60Q253 -89 246 -99T236 -127L235 -135Q231 -162 260 -162H313L302 -228Z" />
<glyph unicode="&#x173;" glyph-name="uogonek" horiz-adv-x="580" d="M432 -162L421 -228H374Q322 -228 297 -205T277 -140L278 -131Q281 -103 292 -86T341 -36L381 0H374L377 50L314 23Q242 -7 186 -7H183Q110 -7 72 39T47 158L112 528H212L150 175Q143 137
162 113T219 89H222Q266 89 317 109L385 137L455 528H554L461 0L401 -60Q372 -89 365 -99T355 -127L354 -135Q350 -162 379 -162H432Z" />
<glyph unicode="&#x174;" glyph-name="Wcircumflex" horiz-adv-x="958" d="M489 761H397L544 925H645L735 761H651L595 862H582L489 761ZM736 0H571L547 598H527L293 0H128L97 700H204L220 101H240L473 700H634L658 101H678L904 700H1014L736 0Z" />
<glyph unicode="&#x175;" glyph-name="wcircumflex" horiz-adv-x="805" d="M382 590H290L437 754H538L628 590H544L488 691H475L382 590ZM618 0H466L448 298L438 438H424L367 298L245 0H93L70 528H166L171 302L178 82H192L283 302L376 528H516L529 302L542 82H556L641
302L726 528H828L618 0Z" />
<glyph unicode="&#x176;" glyph-name="Ycircumflex" horiz-adv-x="592" d="M305 761H213L360 925H461L551 761H467L411 862H398L305 761ZM198 0L239 236L86 700H192L300 353H317L547 700H659L342 236L300 0H198Z" />
<glyph unicode="&#x177;" glyph-name="ycircumflex" horiz-adv-x="518" d="M239 590H147L294 754H395L485 590H401L345 691H332L239 590ZM49 -171H-29L-14 -85H58Q107 -85 134 -69T183 -12L206 33H140L63 528H161L219 109H239L443 528H548L271 -30Q234 -107 184
-139T49 -171Z" />
<glyph unicode="&#x178;" glyph-name="Ydieresis" horiz-adv-x="592" d="M516 761H429L451 887H538L516 761ZM335 761H247L270 887H357L335 761ZM198 0L239 236L86 700H192L300 353H317L547 700H659L342 236L300 0H198Z" />
<glyph unicode="&#x179;" glyph-name="Zacute" horiz-adv-x="541" d="M568 922L400 761H305L453 922H568ZM482 88L466 0H-18L-3 87L431 597L434 611H97L112 700H578L563 612L128 102L126 88H482Z" />
<glyph unicode="&#x17a;" glyph-name="zacute" horiz-adv-x="471" d="M492 751L324 590H229L377 751H492ZM78 528H473L457 439L125 95L123 81H410L395 0H-14L1 89L333 432L335 446H63L78 528Z" />
<glyph unicode="&#x17b;" glyph-name="Zdotaccent" horiz-adv-x="541" d="M398 761H302L326 896H421L398 761ZM482 88L466 0H-18L-3 87L431 597L434 611H97L112 700H578L563 612L128 102L126 88H482Z" />
<glyph unicode="&#x17c;" glyph-name="zdotaccent" horiz-adv-x="471" d="M328 590H232L256 725H351L328 590ZM78 528H473L457 439L125 95L123 81H410L395 0H-14L1 89L333 432L335 446H63L78 528Z" />
<glyph unicode="&#x17d;" glyph-name="Zcaron" horiz-adv-x="541" d="M463 926H555L408 762H307L217 926H301L357 825H370L463 926ZM482 88L466 0H-18L-3 87L431 597L434 611H97L112 700H578L563 612L128 102L126 88H482Z" />
<glyph unicode="&#x17e;" glyph-name="zcaron" horiz-adv-x="471" d="M394 755H486L339 591H238L148 755H232L288 654H301L394 755ZM78 528H473L457 439L125 95L123 81H410L395 0H-14L1 89L333 432L335 446H63L78 528Z" />
<glyph unicode="&#x192;" glyph-name="florin" horiz-adv-x="441" d="M-123 -83H-79Q-38 -83 -17 -68T20 -11L183 451H95L124 534H212L227 573Q257 648 301 679T420 711H508L482 637H419Q378 637 357 622T320 567L308 534H445L416 451H282L111 -32Q84 -108 39
-139T-82 -171H-153L-123 -83Z" />
<glyph unicode="&#x218;" glyph-name="uni0218" horiz-adv-x="535" d="M1 0L16 88H271Q324 88 349 110T382 175L385 194Q391 232 379 251T331 283L189 332Q121 356 96 402T83 521L87 544Q100 617 152 658T299 700H556L540 611H293Q203 611 189 539L185 519Q177
479 189 456T240 420L381 371Q446 348 472 307T488 199L484 172Q472 90 418 45T268 0H1ZM165 -62H253L239 -140L180 -266H129L165 -62Z" />
<glyph unicode="&#x219;" glyph-name="uni0219" horiz-adv-x="475" d="M1 0L16 82H240Q309 82 321 141L324 156Q334 205 276 216L170 237Q104 250 79 284T62 380L65 400Q84 528 235 528H468L453 445H234Q163 445 155 389L153 375Q149 349 160 335T199 316L316
293Q436 270 416 160L411 132Q388 0 240 0H1ZM136 -62H224L210 -140L151 -266H100L136 -62Z" />
<glyph unicode="&#x21a;" glyph-name="uni021A" horiz-adv-x="569" d="M629 700L614 611H397L289 0H186L294 611H77L93 700H629ZM182 -62H270L256 -140L197 -266H146L182 -62Z" />
<glyph unicode="&#x21b;" glyph-name="uni021B" horiz-adv-x="410" d="M388 445H235L182 146Q170 79 221 79Q253 79 299 100L328 113L355 45L323 29Q250 -7 197 -7Q136 -7 103 34T81 141L135 445H47L61 528H155L184 640H269L249 528H403L388 445ZM104 -62H192L178
-140L119 -266H68L104 -62Z" />
<glyph unicode="&#x237;" glyph-name="dotlessj" horiz-adv-x="244" d="M218 528L136 60Q121 -24 95 -63T6 -145L-48 -181L-98 -100L-45 -65Q-8 -40 9 -15T36 60L118 528H218Z" />
<glyph unicode="&#x2c6;" glyph-name="circumflex" horiz-adv-x="500" d="M230 590H138L285 754H386L476 590H392L336 691H323L230 590Z" />
<glyph unicode="&#x2c7;" glyph-name="caron" horiz-adv-x="500" d="M413 755H505L358 591H257L167 755H251L307 654H320L413 755Z" />
<glyph unicode="&#x2d8;" glyph-name="breve" horiz-adv-x="500" d="M399 731H473L466 688Q450 586 328 586H298Q240 586 208 614T183 688L190 731H265L257 691Q253 672 265 663T305 653H331Q385 653 392 691L399 731Z" />
<glyph unicode="&#x2d9;" glyph-name="dotaccent" horiz-adv-x="500" d="M355 590H259L283 725H378L355 590Z" />
<glyph unicode="&#x2da;" glyph-name="ring" horiz-adv-x="500" d="M330 586H300Q251 586 223 611T199 680L202 706Q207 750 238 774T319 799H349Q400 799 427 774T450 704L448 680Q444 635 412 611T330 586ZM270 684Q268 665 278 655T313 645H329Q373 645 378
683L380 702Q382 720 372 730T337 740H321Q277 740 272 702L270 684Z" />
<glyph unicode="&#x2db;" glyph-name="ogonek" horiz-adv-x="500" d="M242 -162L231 -228H184Q132 -228 107 -205T87 -140L88 -131Q91 -103 102 -86T151 -36L203 11H264L271 0L211 -60Q182 -89 175 -99T165 -127L164 -135Q160 -162 189 -162H242Z" />
<glyph unicode="&#x2dc;" glyph-name="tilde" horiz-adv-x="500" d="M214 590H144L155 652Q164 699 185 721T251 743H259Q284 743 299 735T333 705L351 685Q365 669 371 665T386 661H394Q412 661 415 681L426 743H496L485 681Q476 634 455 612T389 590H381Q354
590 340 598T307 628L289 648Q275 664 269 668T254 672H246Q228 672 225 652L214 590Z" />
<glyph unicode="&#x2dd;" glyph-name="hungarumlaut" horiz-adv-x="500" d="M402 751L258 590H173L305 751H402ZM576 751L427 590H342L478 751H576Z" />
<glyph unicode="&#x394;" glyph-name="uni0394" horiz-adv-x="637" d="M370 603L120 85H457L389 603H370ZM-30 0L317 700H472L573 0H-30Z" />
<glyph unicode="&#x3a9;" glyph-name="uni03A9" horiz-adv-x="674" d="M269 92L252 0H-1L14 88H153Q103 108 83 156T75 276L109 474Q132 602 191 654T383 707H427Q677 707 637 474L602 276Q575 125 471 88H597L581 0H327L343 92Q469 103 491 230L535 478Q548 554
520 586T424 619H370Q297 619 262 589T213 478L169 230Q157 164 182 132T269 92Z" />
<glyph unicode="&#x3c0;" glyph-name="pi" horiz-adv-x="696" d="M604 20Q554 -7 512 -7Q459 -7 430 27T411 123L467 442H236L158 0H58L136 442H56L71 528H684L669 442H566L511 127Q502 79 541 79Q561 79 589 95L615 108L639 38L604 20Z" />
<glyph unicode="&#x1e80;" glyph-name="Wgrave" horiz-adv-x="958" d="M411 922H521L611 761H523L411 922ZM736 0H571L547 598H527L293 0H128L97 700H204L220 101H240L473 700H634L658 101H678L904 700H1014L736 0Z" />
<glyph unicode="&#x1e81;" glyph-name="wgrave" horiz-adv-x="805" d="M304 751H414L504 590H416L304 751ZM618 0H466L448 298L438 438H424L367 298L245 0H93L70 528H166L171 302L178 82H192L283 302L376 528H516L529 302L542 82H556L641 302L726 528H828L618 0Z" />
<glyph unicode="&#x1e82;" glyph-name="Wacute" horiz-adv-x="958" d="M785 922L617 761H522L670 922H785ZM736 0H571L547 598H527L293 0H128L97 700H204L220 101H240L473 700H634L658 101H678L904 700H1014L736 0Z" />
<glyph unicode="&#x1e83;" glyph-name="wacute" horiz-adv-x="805" d="M678 751L510 590H415L563 751H678ZM618 0H466L448 298L438 438H424L367 298L245 0H93L70 528H166L171 302L178 82H192L283 302L376 528H516L529 302L542 82H556L641 302L726 528H828L618 0Z" />
<glyph unicode="&#x1e84;" glyph-name="Wdieresis" horiz-adv-x="958" d="M700 761H613L635 887H722L700 761ZM519 761H431L454 887H541L519 761ZM736 0H571L547 598H527L293 0H128L97 700H204L220 101H240L473 700H634L658 101H678L904 700H1014L736 0Z" />
<glyph unicode="&#x1e85;" glyph-name="wdieresis" horiz-adv-x="805" d="M593 590H506L528 716H615L593 590ZM412 590H324L347 716H434L412 590ZM618 0H466L448 298L438 438H424L367 298L245 0H93L70 528H166L171 302L178 82H192L283 302L376 528H516L529 302L542
82H556L641 302L726 528H828L618 0Z" />
<glyph unicode="&#x1ef2;" glyph-name="Ygrave" horiz-adv-x="592" d="M227 922H337L427 761H339L227 922ZM198 0L239 236L86 700H192L300 353H317L547 700H659L342 236L300 0H198Z" />
<glyph unicode="&#x1ef3;" glyph-name="ygrave" horiz-adv-x="518" d="M161 751H271L361 590H273L161 751ZM49 -171H-29L-14 -85H58Q107 -85 134 -69T183 -12L206 33H140L63 528H161L219 109H239L443 528H548L271 -30Q234 -107 184 -139T49 -171Z" />
<glyph unicode="&#x2013;" glyph-name="endash" horiz-adv-x="500" d="M467 357L454 284H51L64 357H467Z" />
<glyph unicode="&#x2014;" glyph-name="emdash" horiz-adv-x="1000" d="M967 357L954 284H51L64 357H967Z" />
<glyph unicode="&#x2018;" glyph-name="quoteleft" horiz-adv-x="238" d="M201 463H106L120 546L187 700H243L201 463Z" />
<glyph unicode="&#x2019;" glyph-name="quoteright" horiz-adv-x="238" d="M147 700H243L228 617L161 463H106L147 700Z" />
<glyph unicode="&#x201a;" glyph-name="quotesinglbase" horiz-adv-x="238" d="M47 134H143L129 52L61 -101H6L47 134Z" />
<glyph unicode="&#x201c;" glyph-name="quotedblleft" horiz-adv-x="418" d="M381 463H286L300 546L367 700H423L381 463ZM201 463H106L120 546L187 700H243L201 463Z" />
<glyph unicode="&#x201d;" glyph-name="quotedblright" horiz-adv-x="418" d="M327 700H423L408 617L341 463H286L327 700ZM147 700H243L228 617L161 463H106L147 700Z" />
<glyph unicode="&#x201e;" glyph-name="quotedblbase" horiz-adv-x="418" d="M227 134H323L309 52L241 -101H186L227 134ZM47 134H143L129 52L61 -101H6L47 134Z" />
<glyph unicode="&#x2020;" glyph-name="dagger" horiz-adv-x="463" d="M478 445H309L231 0H139L217 445H48L63 528H232L262 700H354L324 528H493L478 445Z" />
<glyph unicode="&#x2021;" glyph-name="daggerdbl" horiz-adv-x="495" d="M448 182H279L247 0H155L187 182H18L32 265H202L235 453H66L80 537H249L278 700H370L341 537H510L496 453H327L294 265H462L448 182Z" />
<glyph unicode="&#x2022;" glyph-name="bullet" horiz-adv-x="308" d="M147 165Q104 165 76 192T48 260Q48 310 81 343T162 377Q205 377 233 350T262 282Q262 231 229 198T147 165Z" />
<glyph unicode="&#x2026;" glyph-name="ellipsis" horiz-adv-x="630" d="M512 0H416L440 134H535L512 0ZM316 0H220L244 134H339L316 0ZM120 0H24L48 134H143L120 0Z" />
<glyph unicode="&#x2030;" glyph-name="perthousand" horiz-adv-x="1240" d="M259 710H275Q353 710 392 670T418 557L411 516Q397 436 356 400T234 364H218Q140 364 102 404T75 516L82 557Q96 638 137 674T259 710ZM199 0H103L674 700H771L199 0ZM220 438H248Q282
438 300 455T326 511L335 561Q349 636 273 636H245Q211 636 193 619T167 562L158 512Q144 438 220 438ZM1036 336H1052Q1130 336 1169 296T1195 183L1188 142Q1174 62 1133 26T1011 -10H995Q917 -10 879 30T852 142L859 183Q873 264 914 300T1036 336ZM640 336H656Q734
336 773 296T799 183L792 142Q778 62 737 26T615 -10H599Q521 -10 483 30T456 142L463 183Q477 264 518 300T640 336ZM997 64H1025Q1059 64 1077 81T1103 137L1112 187Q1126 262 1050 262H1022Q988 262 970 245T944 188L935 138Q921 64 997 64ZM601 64H629Q663
64 681 81T707 137L716 187Q730 262 654 262H626Q592 262 574 245T548 188L539 138Q525 64 601 64Z" />
<glyph unicode="&#x2039;" glyph-name="guilsinglleft" horiz-adv-x="277" d="M39 252L46 291L168 420H257L136 276L134 265L204 123H117L39 252Z" />
<glyph unicode="&#x203a;" glyph-name="guilsinglright" horiz-adv-x="277" d="M239 290L232 252L110 123H21L142 266L144 277L74 420H162L239 290Z" />
<glyph unicode="&#x2044;" glyph-name="fraction" horiz-adv-x="156" d="M-142 0H-229L328 700H416L-142 0Z" />
<glyph unicode="&#x2070;" glyph-name="zerosuperior" horiz-adv-x="439" d="M264 346H217Q153 346 123 379T102 473L121 582Q132 646 168 674T267 703H313Q378 703 408 670T429 577L409 468Q387 346 264 346ZM174 469Q164 409 223 409H267Q327 409 337 469L357
581Q368 641 307 641H263Q206 641 194 581L174 469Z" />
<glyph unicode="&#x2074;" glyph-name="foursuperior" horiz-adv-x="378" d="M302 350H233L244 409H55L65 465L273 700H364L322 463H373L364 409H312L302 350ZM137 468L136 463H253L284 631H278L137 468Z" />
<glyph unicode="&#x20ac;" glyph-name="Euro" horiz-adv-x="588" d="M528 88L513 0H322Q209 0 153 60T116 227L118 239H25L38 318H132L145 394H51L66 473H159Q182 598 239 649T416 700H636L621 611H417Q344 611 310 582T262 475V473H508L494 394H248L235 318H480L468
239H221L219 227Q194 88 330 88H528Z" />
<glyph unicode="&#x20b9;" glyph-name="uni20B9" horiz-adv-x="583" d="M586 429H470Q457 350 414 307T294 249L407 0H297L195 235H34L48 314H219Q288 314 322 339T367 429H68L82 508H381Q389 570 364 595T273 620H102L116 700H634L620 621H466Q491 574 482 508H600L586
429Z" />
<glyph unicode="&#x2113;" glyph-name="uni2113" horiz-adv-x="469" d="M167 -7Q101 -7 68 34T47 146L112 516Q128 609 181 659T314 710H332Q411 710 452 662T483 538L480 512Q469 437 425 383T282 273L156 203L146 146Q135 79 197 79Q230 79 287 107L330 129L356
59L306 33Q229 -7 167 -7ZM211 516L172 296L235 331Q313 375 345 417T386 514L390 536Q396 578 379 603T328 628H312Q232 628 211 516Z" />
<glyph unicode="&#x2122;" glyph-name="trademark" horiz-adv-x="732" d="M204 371H126L172 631H77L89 700H356L344 631H250L204 371ZM429 371H355L413 700H510L554 547H562L660 700H763L705 371H631L655 506L680 614H672L579 470H515L475 614H467L453 506L429 371Z" />
<glyph unicode="&#x2126;" glyph-name="Omega" horiz-adv-x="674" d="M269 92L252 0H-1L14 88H153Q103 108 83 156T75 276L109 474Q132 602 191 654T383 707H427Q677 707 637 474L602 276Q575 125 471 88H597L581 0H327L343 92Q469 103 491 230L535 478Q548 554
520 586T424 619H370Q297 619 262 589T213 478L169 230Q157 164 182 132T269 92Z" />
<glyph unicode="&#x212e;" glyph-name="estimated" horiz-adv-x="661" d="M641 257H145Q141 257 141 254V104Q141 94 148 86Q225 6 336 6Q456 6 533 96H577Q483 -11 335 -11Q208 -11 119 69T29 264T118 459T335 541T551 460T641 264V257ZM529 276V427Q529 438
521 446Q445 524 336 524Q224 524 149 443Q141 437 141 424V276Q141 272 145 272H526Q529 272 529 276Z" />
<glyph unicode="&#x2202;" glyph-name="partialdiff" horiz-adv-x="568" d="M260 -7H219Q108 -7 58 47T24 199L37 271Q51 351 100 390T220 430H223Q286 430 353 400L426 368L441 446Q448 481 448 506T443 547T423 574T392 591T347 603L236 627L261 710L380 686Q480
666 518 610T536 430L497 201Q478 90 420 42T260 -7ZM226 79H256Q322 79 354 105T397 197L414 289L330 322Q284 342 238 342H234Q149 342 132 255L121 192Q101 79 226 79Z" />
<glyph unicode="&#x2206;" glyph-name="increment" horiz-adv-x="636" d="M370 603L120 85H457L389 603H370ZM-30 0L317 700H472L573 0H-30Z" />
<glyph unicode="&#x220f;" glyph-name="product" horiz-adv-x="742" d="M477 -43L592 611H270L155 -43H52L168 611H84L99 700H795L780 611H695L580 -43H477Z" />
<glyph unicode="&#x2211;" glyph-name="summation" horiz-adv-x="491" d="M545 700L530 611H207L204 596L344 366L329 283L114 60L111 44H430L414 -43H-24L-4 64L244 323L247 339L88 592L106 700H545Z" />
<glyph unicode="&#x2212;" glyph-name="minus" horiz-adv-x="487" d="M454 305H47L60 380H467L454 305Z" />
<glyph unicode="&#x2215;" glyph-name="uni2215" horiz-adv-x="156" d="M-142 0H-229L328 700H416L-142 0Z" />
<glyph unicode="&#x221a;" glyph-name="radical" horiz-adv-x="648" d="M654 800H761L357 0H216L143 445L57 423L53 498L230 538L294 93H308L654 800Z" />
<glyph unicode="&#x221e;" glyph-name="infinity" horiz-adv-x="719" d="M524 246Q554 246 577 269T607 330L610 355Q617 395 600 419T549 444H525Q491 444 469 421T416 343Q432 292 449 269T500 246H524ZM222 246Q255 246 278 270T330 342Q313 399 297 421T247
444H223Q194 444 171 421T141 360L137 336Q131 295 147 271T198 246H222ZM385 407Q418 463 452 490T535 518H560Q628 518 665 474T691 350L687 326Q677 253 629 213T519 172H494Q444 172 414 197T361 277Q325 222 293 197T212 172H188Q119 172 82 215T56 340L60
364Q71 437 119 477T228 518H253Q305 518 335 491T385 407Z" />
<glyph unicode="&#x222b;" glyph-name="integral'" horiz-adv-x="374" d="M165 -27Q152 -102 109 -136T-9 -171H-104L-90 -96H-9Q26 -96 42 -81T66 -27L171 567Q184 642 227 676T346 711H440L427 637H346Q310 637 294 622T270 567L165 -27Z" />
<glyph unicode="&#x2248;" glyph-name="approxequal" horiz-adv-x="487" d="M57 364L80 441Q96 495 120 519T179 544H184Q230 544 274 499L304 468Q337 434 353 434H358Q369 434 377 442T392 475L411 538H484L461 461Q444 404 420 381T359 358H354Q329 358 310
368T266 403L236 434Q204 467 188 467H183Q162 467 150 427L131 364H57ZM30 155L53 232Q69 286 93 310T152 335H157Q203 335 247 290L277 259Q310 225 326 225H331Q342 225 350 233T365 266L384 329H457L434 252Q417 195 393 172T332 149H327Q302 149 283 159T239
194L209 225Q177 258 161 258H156Q135 258 123 218L104 155H30Z" />
<glyph unicode="&#x2260;" glyph-name="notequal" horiz-adv-x="487" d="M436 202H222L171 100H98L149 202H28L42 277H186L252 409H65L78 484H289L349 604H422L362 484H485L472 409H325L259 277H449L436 202Z" />
<glyph unicode="&#x2264;" glyph-name="lessequal" horiz-adv-x="487" d="M41 294L64 422L494 551L479 463L132 362L130 348L441 250L426 165L41 294ZM397 0H-9L3 74H410L397 0Z" />
<glyph unicode="&#x2265;" glyph-name="greaterequal" horiz-adv-x="487" d="M478 422L455 294L25 165L40 253L387 354L389 368L78 466L93 551L478 422ZM9 74H416L403 0H-4L9 74Z" />
<glyph unicode="&#x25ca;" glyph-name="lozenge" horiz-adv-x="558" d="M165 0L33 350L289 700H422L555 350L299 0H165ZM229 83H248L453 362L356 616H336L133 338L229 83Z" />
<glyph unicode="&#xf6c3;" glyph-name="commaaccent" horiz-adv-x="500" d="M148 -62H236L222 -140L163 -266H112L148 -62Z" />
<glyph unicode="&#xfb01;" glyph-name="fi" horiz-adv-x="609" d="M47 445L62 528H150L157 567Q171 642 215 676T338 711H427L413 637H338Q296 637 279 622T254 567L247 528H394L380 445H235L156 0H57L136 445H47ZM612 708L593 597H492L512 708H612ZM480 528H580L487
0H387L480 528Z" />
<glyph unicode="&#xfb02;" glyph-name="fl" horiz-adv-x="607" d="M47 445L62 528H150L157 567Q171 642 215 676T338 711H427L413 637H338Q296 637 279 622T254 567L247 528H394L380 445H235L156 0H57L136 445H47ZM610 700L487 0H387L511 700H610Z" />
</font>
</defs>
</svg>
